focus_tree = {
	id = ww1_norway
	country = {
		factor = 0
		modifier = {
			add = 0
			tag = NOR
		}
	}
	default = no
	focus = {
		id = NOR_young_kingdom
		icon = GFX_focus_generic_home_defense
		cost = 10
		mutually_exclusive = {
			focus = NOR_break_neutrality
		}
		x = 23
		y = 0
		search_filters = {FOCUS_FILTER_POLITICAL}
		available = {
		}
		completion_reward = {
			add_stability = 0.05
			add_political_power = 120
		}
	}
	focus = {
		id = NOR_break_neutrality
		icon = GFX_focus_generic_monarchy_1
		cost = 10
		mutually_exclusive = {
			focus = NOR_young_kingdom
		}
		x = 25
		y = 0
		search_filters = {FOCUS_FILTER_POLITICAL}
		available = {
			threat > 0.05
		}
		completion_reward = {
			remove_ideas = NOR_trade_neutrality
			add_timed_idea = { idea = NOR_disturbed_calm days = 360 }
			news_event = ww1_norway.1
		}
	}
	focus = {
		id = NOR_sjoforsvaret
		icon = GFX_goal_generic_build_navy
		cost = 10
		x = 9
		y = 0
		completion_reward = {
			navy_experience = 20
		}
	}
	focus = {
		id = NOR_norske_haeren
		icon = GFX_goal_generic_army_doctrines
		cost = 10
		x = 3
		y = 0
		completion_reward = {
			army_experience = 20
		}
	}
	focus = {
		id = NOR_bergensbanen_electrification
		icon = GFX_goal_generic_construct_infrastructure
		cost = 10
		x = 16
		y = 0
		available = {
			any_owned_state = { is_core_of = ROOT is_fully_controlled_by = ROOT }
		}
		completion_reward = {
			142 = {
				limit = {
					free_building_slots = {
						building = infrastructure
						size > 0
						include_locked = yes
					}
					NOT = { has_state_flag = NOR_bergensbanen_electrification }
				}
				add_building_construction = {
					type = infrastructure
					level = 1
					instant_build = yes
				}
				set_state_flag = NOR_bergensbanen_electrification
			}
			110 = {
				limit = {
					free_building_slots = {
						building = infrastructure
						size > 0
						include_locked = yes
					}
					NOT = { has_state_flag = NOR_bergensbanen_electrification }
				}
				add_building_construction = {
					type = infrastructure
					level = 1
					instant_build = yes
				}
				set_state_flag = NOR_bergensbanen_electrification
			}
		}
	}
	focus = {
		id = NOR_krag_jorgensen_manufactures
		icon = GFX_goal_generic_small_arms
		cost = 10
		prerequisite = {
			focus = NOR_norske_haeren
		}
		x = 1
		y = 1
		available = {
			any_owned_state = { is_core_of = ROOT is_fully_controlled_by = ROOT }
		}
		completion_reward = {
			random_owned_controlled_state = {
				limit = {
					free_building_slots = {
						building = arms_factory
						size > 0
						include_locked = yes
					}
					is_core_of = ROOT
				}
				add_building_construction = {
					type = arms_factory
					level = 1
					instant_build = yes
				}
				add_extra_state_shared_building_slots = 1
			}
		}
	}
	focus = {
		id = NOR_konsberg_modernization
		icon = GFX_goal_generic_construct_mil_factory
		cost = 10
		prerequisite = {
			focus = NOR_krag_jorgensen_manufactures
		}
		x = 1
		y = 2
		available = {
			any_owned_state = { is_core_of = ROOT is_fully_controlled_by = ROOT }
		}
		completion_reward = {
			random_owned_controlled_state = {
				limit = {
					free_building_slots = {
						building = arms_factory
						size > 0
						include_locked = yes
					}
					is_core_of = ROOT
				}
				add_building_construction = {
					type = arms_factory
					level = 2
					instant_build = yes
				}
				add_extra_state_shared_building_slots = 2
			}
		}
	}
	focus = {
		id = NOR_konsberg_heavy_arms
		icon = GFX_goal_generic_army_artillery
		cost = 10
		prerequisite = {
			focus = NOR_konsberg_modernization
		}
		x = 1
		y = 3
		available = {
			any_owned_state = { is_core_of = ROOT is_fully_controlled_by = ROOT }
		}
		completion_reward = {
			add_tech_bonus = {
				name = NOR_konsberg_heavy_arms
				bonus = 1.0 
				uses = 2
				category = artillery
			}
			random_owned_controlled_state = {
				limit = {
					free_building_slots = {
						building = arms_factory
						size > 0
						include_locked = yes
					}
					is_core_of = ROOT
				}
				add_building_construction = {
					type = arms_factory
					level = 1
					instant_build = yes
				}
				add_extra_state_shared_building_slots = 1
			}
		}
	}
	focus = {
		id = NOR_krag_jorgensen
		icon = GFX_goal_generic_build_tank
		cost = 10
		prerequisite = {
			focus = NOR_norske_haeren
		}
		x = 3
		y = 1
		completion_reward = {
			add_tech_bonus = {
				name = NOR_krag_jorgensen
				bonus = 1.0 
				uses = 2
				technology = infantry_weapons2
				technology = improved_infantry_weapons
			}
		}
	}
	focus = {
		id = NOR_support_units
		icon = GFX_goal_generic_defence
		cost = 10
		prerequisite = {
			focus = NOR_krag_jorgensen
		}
		x = 3
		y = 2
		completion_reward = {
			add_tech_bonus = {
				name = NOR_support_units
				bonus = 1.0 
				uses = 2
				technology = support_weapons
				technology = support_weapons2
				technology = support_weapons3
				technology = support_weapons4
			}
		}
	}
	focus = {
		id = NOR_humanitarianism
		icon = GFX_focus_generic_commonwealth_build_infantry
		cost = 10
		prerequisite = {
			focus = NOR_support_units
		}
		x = 3
		y = 3
		completion_reward = {
			add_tech_bonus = {
				name = NOR_humanitarianism
				bonus = 1.0 
				uses = 1
				category = hospital_tech
				category = logistics_tech
			}
		}
	}
	focus = {
		id = NOR_motorization
		icon = GFX_goal_generic_production2
		cost = 10
		prerequisite = {
			focus = NOR_humanitarianism
			focus = NOR_konsberg_heavy_arms
		}
		x = 1
		y = 4
		completion_reward = {
			add_tech_bonus = {
				name = NOR_motorization
				bonus = 1.0 
				uses = 2
				category = motorized_equipment
				category = cat_light_armor
			}
		}
	}
	focus = {
		id = NOR_mountain_jagers
		icon = GFX_goal_generic_secret_weapon
		cost = 10
		prerequisite = {
			focus = NOR_humanitarianism
		}
		x = 2
		y = 5
		completion_reward = {
			add_tech_bonus = {
				name = NOR_motorization
				bonus = 1.0 
				uses = 2
				category = motorized_equipment
				category = cat_light_armor
			}
		}
	}
	focus = {
		id = NOR_officer_training
		icon = GFX_goal_generic_cavalry
		cost = 10
		prerequisite = {
			focus = NOR_norske_haeren
		}
		x = 5
		y = 1
		completion_reward = {
			add_tech_bonus = {
				name = NOR_officer_training
				bonus = 1.0 
				uses = 1
				category = land_doctrine
			}
		}
	}
	focus = {
		id = NOR_forsvaret
		icon = GFX_focus_generic_military_mission
		cost = 10
		prerequisite = {
			focus = NOR_officer_training
		}
		x = 5
		y = 2
		completion_reward = {
			army_experience = 10
			air_experience = 10
			navy_experience = 10
			add_tech_bonus = {
				name = NOR_forsvaret
				bonus = 1.0 
				uses = 2
				category = land_doctrine
			}
		}
	}
	focus = {
		id = NOR_born_of_aviation
		icon = GFX_goal_generic_build_airforce
		cost = 10
		prerequisite = {
			focus = NOR_forsvaret
		}
		x = 5
		y = 3
		completion_reward = {
			air_experience = 15
			add_tech_bonus = {
				name = NOR_born_of_aviation
				bonus = 1.0 
				uses = 1
				technology = aircraft_engine
				technology = early_fighter
				technology = airship_bomber
			}
		}
	}
	focus = {
		id = NOR_flyvevesen
		icon = GFX_goal_generic_air_production
		cost = 10
		prerequisite = {
			focus = NOR_born_of_aviation
		}
		x = 4
		y = 4
		completion_reward = {
			navy_experience = 5
			add_tech_bonus = {
				name = NOR_flyvevesen
				bonus = 1.0 
				uses = 1
				category = naval_air
			}
			add_tech_bonus = {
				name = NOR_flyvevesen
				bonus = 1.0 
				uses = 1
				category = air_doctrine
			}
		}
	}
	focus = {
		id = NOR_HNoMS_start
		icon = GFX_goal_generic_air_fighter
		cost = 10
		prerequisite = {
			focus = NOR_born_of_aviation
		}
		x = 6
		y = 4
		completion_reward = {
			air_experience = 15
			add_tech_bonus = {
				name = NOR_HNoMS_start
				bonus = 1.0 
				uses = 1
				category = light_fighter
			}
		}
	}
	focus = {
		id = NOR_NoAAS
		icon = GFX_goal_generic_CAS
		cost = 10
		prerequisite = {
			focus = NOR_HNoMS_start
		}
		prerequisite = {
			focus = NOR_flyvevesen
		}
		x = 5
		y = 5
		completion_reward = {
			air_experience = 5
			add_tech_bonus = {
				name = NOR_NoAAS
				bonus = 1.0 
				uses = 2
				category = air_doctrine
			}
		}
	}
	focus = {
		id = NOR_dreadnought_race
		icon = GFX_goal_generic_navy_battleship
		cost = 10
		prerequisite = {
			focus = NOR_sjoforsvaret
		}
		mutually_exclusive = {
			focus = NOR_fleet_modernization
		}
		x = 7
		y = 1
		completion_reward = {
			add_timed_idea = { idea = NOR_joins_dreadnought_race days = 210 }
			add_tech_bonus = {
				name = NOR_dreadnought_race
				bonus = 1.0 
				uses = 1
				category = bb_tech
			}
		}
	}
	focus = {
		id = NOR_north_atlantic_doctrine
		icon = GFX_focus_generic_navy_battleship2
		cost = 10
		prerequisite = {
			focus = NOR_dreadnought_race
		}
		x = 7
		y = 2
		completion_reward = {
			add_tech_bonus = {
				name = NOR_north_atlantic_doctrine
				bonus = 1.0 
				uses = 2
				category = fleet_in_being_tree
			}
		}
	}
	focus = {
		id = NOR_marinejeger_focus
		icon = GFX_goal_generic_amphibious_assault
		cost = 10
		prerequisite = {
			focus = NOR_north_atlantic_doctrine
		}
		x = 7
		y = 3
		completion_reward = { add_ideas = NOR_marinejeger }
	}
	focus = {
		id = NOR_fleet_modernization
		icon = GFX_goal_generic_navy_submarine
		cost = 10
		prerequisite = {
			focus = NOR_sjoforsvaret
		}
		mutually_exclusive = {
			focus = NOR_dreadnought_race
		}
		x = 9
		y = 1
		completion_reward = {
			add_tech_bonus = {
				name = NOR_fleet_modernization
				bonus = 1.0 
				uses = 2
				category = ss_tech
			}
		}
	}
	focus = {
		id = NOR_coastal_defense_doctrine
		icon = GFX_goal_generic_navy_doctrines_tactics
		cost = 10
		prerequisite = {
			focus = NOR_fleet_modernization
		}
		x = 9
		y = 3
		completion_reward = {
			add_ideas = { NOR_coastal_navy }
			add_tech_bonus = {
				name = NOR_north_atlantic_doctrine
				bonus = 1.0 
				uses = 2
				category = trade_interdiction_tree
			}
		}
	}
	focus = {
		id = NOR_naval_aviation
		icon = GFX_goal_generic_air_naval_bomber
		cost = 10
		prerequisite = {
			focus = NOR_born_of_aviation
		}
		prerequisite = {
			focus = NOR_coastal_defense_doctrine
		}
		x = 8
		y = 4
		completion_reward = {
			add_ideas = { NOR_coastal_navy }
			add_tech_bonus = {
				name = NOR_north_atlantic_doctrine
				bonus = 1.0 
				uses = 2
				category = trade_interdiction_tree
			}
		}
	}
	focus = {
		id = NOR_merchant_fleet
		icon = GFX_goal_generic_construct_naval_dockyard
		cost = 10
		prerequisite = {
			focus = NOR_sjoforsvaret
		}
		x = 11
		y = 1
		completion_reward = {
			add_tech_bonus = {
				name = NOR_merchant_fleet
				bonus = 1.0 
				uses = 1
				category = dd_tech
			}
		}
	}
	focus = {
		id = NOR_defence_of_trade_routes
		icon = GFX_goal_generic_navy_cruiser
		cost = 10
		prerequisite = {
			focus = NOR_merchant_fleet
		}
		x = 11
		y = 2
		completion_reward = {
			add_ideas = { NOR_merchant_fleet_at_war }
			add_tech_bonus = {
				name = NOR_defence_of_trade_routes
				bonus = 1.0 
				uses = 1
				category = dd_tech
			}
		}
	}
	focus = {
		id = NOR_strengthen_trade_ties
		icon = GFX_goal_generic_positive_trade_relations
		cost = 10
		prerequisite = {
			focus = NOR_merchant_fleet
		}
		x = 13
		y = 2
		available = { NOT = { has_idea = NOR_port_strike } }
		completion_reward = {
			if = {
				limit = { NOT = { has_idea = free_trade } }
				add_ideas = free_trade
			}
			every_country = {
				limit = {
					is_major = yes
					any_owned_state = {
						is_on_continent = europe
						is_coastal = yes
					}
				}
				add_opinion_modifier = {
					target = NOR
					modifier = NOR_trade_diplomacy
				}
				add_ai_strategy = {
					type =	befriend
					id = "NOR"
					value = 5
				}
			}
		}
	}
	focus = {
		id = NOR_british_trade
		icon = GFX_focus_chi_british_cooperation
		cost = 10
		prerequisite = {
			focus = NOR_strengthen_trade_ties
		}
		x = 11
		y = 3
		available = { NOT = { has_war_with = ENG } NOT = { has_idea = NOR_port_strike } }
		completion_reward = {
			ENG = {
				add_ai_strategy = {
					type = protect
					id = "NOR"
					value = 25
				}
			}
		}
	}
	focus = {
		id = NOR_british_investments
		icon = GFX_goal_generic_construct_civ_factory
		cost = 10
		prerequisite = {
			focus = NOR_british_trade
		}
		x = 11
		y = 4
		available = { NOT = { has_war_with = ENG } NOT = { is_in_faction_with = GER } }
		completion_reward = {
			
		}
	}
	focus = {
		id = NOR_german_trade
		icon = GFX_focus_deal_with_german_empire
		cost = 10
		prerequisite = {
			focus = NOR_strengthen_trade_ties
		}
		x = 13
		y = 3
		available = { NOT = { has_war_with = GER } NOT = { has_idea = NOR_port_strike } }
		completion_reward = {
			GER = {
				add_ai_strategy = {
					type = protect
					id = "NOR"
					value = 25
				}
			}
		}
	}
	focus = {
		id = NOR_german_investments
		icon = GFX_goal_generic_construct_civ_factory
		cost = 10
		prerequisite = {
			focus = NOR_german_trade
		}
		x = 13
		y = 4
		available = { NOT = { has_war_with = GER } NOT = { is_in_faction_with = ENG } }
		completion_reward = {
			
		}
	}
	focus = {
		id = NOR_machine_tools_purchase
		icon = GFX_goal_generic_construction2
		cost = 10
		prerequisite = {
			focus = NOR_bergensbanen_electrification
		}
		x = 15
		y = 1
		completion_reward = {
			add_tech_bonus = {
				name = NOR_machine_tools_purchase
				bonus = 1.0 
				uses = 1
				technology = early_machine_tools
				technology = machine_tools2
				technology = machine_tools3
			}
			add_tech_bonus = {
				name = NOR_machine_tools_purchase
				bonus = 1.0 
				uses = 1
				technology = industrial_complex1
				technology = industrial_complex2
			}
		}
	}	
	focus = {
		id = NOR_economy_2
		icon = GFX_focus_generic_industry_2
		cost = 10
		prerequisite = {
			focus = NOR_machine_tools_purchase
		}
		x = 15
		y = 2
		available = { 110 = { is_fully_controlled_by = NOR } }
		completion_reward = {
			110 = {
				limit = {
					free_building_slots = {
						building = industrial_complex
						size > 0
						include_locked = yes
					}
					is_core_of = ROOT
				}
				add_building_construction = {
					type = industrial_complex
					level = 1
					instant_build = yes
				}
				add_extra_state_shared_building_slots = 1
			}
		}
	}
	focus = {
		id = NOR_kongsberg_civil_production
		icon = GFX_focus_generic_industry_3
		cost = 10
		prerequisite = {
			focus = NOR_economy_2
		}
		prerequisite = {
			focus = NOR_strengthen_trade_ties
		}
		x = 15
		y = 3
		available = { 110 = { is_fully_controlled_by = NOR } }
		completion_reward = {
			110 = {
				limit = {
					free_building_slots = {
						building = industrial_complex
						size > 0
						include_locked = yes
					}
					is_core_of = ROOT
				}
				add_building_construction = {
					type = industrial_complex
					level = 2
					instant_build = yes
				}
				add_extra_state_shared_building_slots = 2
			}
		}
	}
	focus = {
		id = NOR_economy_bonus
		icon = GFX_goal_generic_consumer_goods
		cost = 10
		prerequisite = {
			focus = NOR_kongsberg_civil_production
		}
		x = 15
		y = 4
		available = { any_owned_state = { is_fully_controlled_by = ROOT is_core_of = ROOT } }
		completion_reward = {
			country_event = ww1_norway.3
			random_owned_controlled_state = {
				limit = {
					free_building_slots = {
						building = industrial_complex
						size > 0
						include_locked = yes
					}
					is_core_of = ROOT
				}
				add_building_construction = {
					type = industrial_complex
					level = 1
					instant_build = yes
				}
				add_extra_state_shared_building_slots = 1
			}
		}
	}
	focus = {
		id = NOR_survive_isolation
		icon = GFX_goal_generic_alliance
		cost = 10
		prerequisite = {
			focus = NOR_economy_bonus
		}
		x = 15
		y = 5
		available = {
			has_global_flag = kis_war
			has_war = no
		}
		bypass = { has_global_flag = great_war_ends }
		completion_reward = {
			add_stability = 0.05
			remove_ideas = NOR_economic_shock
		}
	}
	focus = {
		id = NOR_mine_expansion
		icon = GFX_goal_generic_construction2
		cost = 10
		prerequisite = {
			focus = NOR_bergensbanen_electrification
		}
		x = 17
		y = 1
		completion_reward = {
			add_tech_bonus = {
				name = NOR_mine_expansion
				bonus = 1.0 
				uses = 2
				category = excavation_tech
			}
		}
	}
	focus = {
		id = NOR_gjaerde_og_metaldukfabrik
		icon = GFX_goal_generic_position_armies
		cost = 10
		prerequisite = {
			focus = NOR_mine_expansion
		}
		x = 17
		y = 2
		available = { 
			142 = { is_fully_controlled_by = NOR } 
			110 = { is_fully_controlled_by = NOR } 
		}
		completion_reward = {
			110 = {
				limit = {
					free_building_slots = {
						building = industrial_complex
						size > 0
						include_locked = yes
					}
					is_core_of = ROOT
				}
				add_building_construction = {
					type = industrial_complex
					level = 1
					instant_build = yes
				}
				add_extra_state_shared_building_slots = 1
			}
			add_resource = {
				type = steel
				amount = 10
				state = 142
			}
			add_resource = {
				type = steel
				amount = 14
				state = 110
			}
		}
	}
	focus = {
		id = NOR_invent_fortification
		icon = GFX_goal_generic_construct_military
		cost = 10
		prerequisite = {
			focus = NOR_gjaerde_og_metaldukfabrik
		}
		x = 17
		y = 3
		available = { 
			142 = { is_fully_controlled_by = NOR } 
			110 = { is_fully_controlled_by = NOR } 
		}
		completion_reward = {
			110 = {
				add_building_construction = {
					type = coastal_bunker
					level = 2
					province = 6115
					instant_build = yes
				}
			}
			142 = {
				add_building_construction = {
					type = coastal_bunker
					level = 2
					province = 122
					instant_build = yes
				}
				add_building_construction = {
					type = coastal_bunker
					level = 2
					province = 53
					instant_build = yes
				}
				add_building_construction = {
					type = coastal_bunker
					level = 2
					province = 9296
					instant_build = yes
				}
			}
		}
	}
	focus = {
		id = NOR_politics_0
		icon = GFX_focus_generic_treaty
		cost = 10
		prerequisite = {
			focus = NOR_young_kingdom
		}
		x = 21
		y = 1
		completion_reward = {
			add_stability = 0.05
		}
	}
	focus = {
		id = NOR_reform_0
		icon = GFX_goal_generic_national_unity
		cost = 10
		prerequisite = {
			focus = NOR_politics_0
		}
		x = 20
		y = 2

	}
	focus = {
		id = NOR_institute_of_technology
		icon = GFX_goal_generic_intelligence_exchange
		cost = 10
		prerequisite = {
			focus = NOR_reform_0
		}
		x = 20
		y = 3
		completion_reward = { add_research_slot = 1 }
	}
	focus = {
		id = NOR_awaken_the_army
		icon = GFX_focus_generic_support_the_left_right
		cost = 10
		prerequisite = {
			focus = NOR_institute_of_technology
		}
		x = 20
		y = 4
		available = {
			OR = {
				has_global_flag = kis_war
				threat > 0.5
				has_war = yes
			}
		}
		completion_reward = {
			remove_ideas = NOR_poorly_funded_army
		}
	}
	focus = {
		id = NOR_friend_denmark
		icon = GFX_focus_deal_with_denmark
		cost = 10
		prerequisite = {
			focus = NOR_awaken_the_army
		}
		x = 17
		y = 5

	}
	focus = {
		id = NOR_diplomatic_reforms_0
		icon = GFX_goal_generic_propaganda
		cost = 10
		prerequisite = {
			focus = NOR_awaken_the_army
		}
		x = 19
		y = 6
	}
	focus = {
		id = NOR_deplomatic_reforms_1
		icon = GFX_goal_generic_military_sphere
		cost = 10
		prerequisite = {
			focus = NOR_diplomatic_reforms_0
		}
		x = 19
		y = 7

	}
	focus = {
		id = NOR_friend_sweden
		icon = GFX_focus_deal_with_sweden
		cost = 10
		prerequisite = {
			focus = NOR_friend_denmark
		}
		x = 17
		y = 7

	}
	focus = {
		id = NOR_democratic_way_0
		icon = GFX_goal_support_democracy
		cost = 10
		prerequisite = {
			focus = NOR_politics_0
		}
		mutually_exclusive = {
			focus = NOR_change_course
		}
		x = 22
		y = 3
		
	}
	focus = {
		id = NOR_unite_the_government
		icon = GFX_focus_generic_self_management
		cost = 10
		prerequisite = {
			focus = NOR_democratic_way_0
		}
		x = 22
		y = 4
		completion_reward = {
			remove_ideas = NOR_unprepared_government
		}
	}
	focus = {
		id = NOR_the_neutral_ally
		icon = GFX_goal_generic_major_alliance
		cost = 10
		prerequisite = {
			focus = NOR_unite_the_government
		}
		prerequisite = {
			focus = NOR_awaken_the_army
		}
		x = 21
		y = 6
		bypass = { NOT = { has_idea = NOR_trade_neutrality } }
		completion_reward = {
			swap_ideas = {
				remove_idea = NOR_trade_neutrality
				add_idea = NOR_neutral_ally
			}
		}
	}
	focus = {
		id = NOR_north_entente
		icon = GFX_goal_generic_demand_territory
		cost = 10
		prerequisite = {
			focus = NOR_deplomatic_reforms_1
		}
		prerequisite = {
			focus = NOR_friend_sweden
		}
		prerequisite = {
			focus = NOR_the_neutral_ally
		}
		mutually_exclusive = {
			focus = NOR_fortress_norway
		}
		x = 20
		y = 8
		available = { has_government = democratic }
		completion_reward = {
			set_rule = {
				can_create_factions = yes
			} 
			create_faction = scandinavian_entente
			remove_ideas = NOR_neutral_ally
			add_ai_strategy = {
				type =	alliance
				id = "SWE"
				value = 100
			}
			SWE = {
				add_ai_strategy = {
					type =	alliance
					id = "NOR"
					value = 100
				}
			}
			add_ai_strategy = {
				type =	alliance
				id = "FIN"
				value = 100
			}
			FIN = {
				add_ai_strategy = {
					type =	alliance
					id = "NOR"
					value = 100
				}
			}
			add_ai_strategy = {
				type =	alliance
				id = "DEN"
				value = 100
			}
			DEN = {
				add_ai_strategy = {
					type =	alliance
					id = "NOR"
					value = 100
				}
			}
		}
	}
	focus = {
		id = NOR_fortress_norway
		icon = GFX_goal_generic_defence
		cost = 10
		prerequisite = {
			focus = NOR_the_neutral_ally
		}
		mutually_exclusive = {
			focus = NOR_fortress_norway
		}
		x = 22
		y = 8
		completion_reward = {
			swap_ideas = {
				remove_idea = NOR_unionsopplosningen
				add_idea = NOR_fortress_norway 
			}
		}
	}
	focus = {
		id = NOR_democratic_bonus
		icon = GFX_focus_generic_the_giant_wakes
		cost = 10
		prerequisite = {
			focus = NOR_unite_the_government
		}
		x = 23
		y = 6

	}
	focus = {
		id = NOR_politics_1
		icon = GFX_goal_tfv_strengthen_commonwealth_ties
		cost = 10
		prerequisite = {
			focus = NOR_politics_0
		}
		x = 24
		y = 2

	}
	focus = {
		id = NOR_change_course
		icon = GFX_focus_generic_strike_at_democracy2
		cost = 10
		prerequisite = {
			focus = NOR_politics_1
		}
		mutually_exclusive = {
			focus = NOR_democratic_way_0
		}
		x = 24
		y = 3

	}
	focus = {
		id = NOR_force_monarchism_0
		icon = GFX_focus_generic_monarchy_2
		cost = 10
		prerequisite = {
			focus = NOR_change_course
		}
		mutually_exclusive = {
			focus = NOR_conservatism_way_0
		}
		x = 24
		y = 4
		completion_reward = {
			swap_ideas = {
				remove_idea = NOR_haakon_vii
				add_idea = NOR_haakon_vii_empowered
			}
		}
	}
	focus = {
		id = NOR_conservatism_way_0
		icon = GFX_focus_generic_strike_at_democracy1
		cost = 10
		prerequisite = {
			focus = NOR_change_course
		}
		mutually_exclusive = {
			focus = NOR_force_monarchism_0
		}
		x = 26
		y = 4

	}
	focus = {
		id = NOR_force_monarchism_1
		icon = GFX_goal_generic_neutrality_focus
		cost = 10
		prerequisite = {
			focus = NOR_force_monarchism_0
			focus = NOR_conservatism_way_0
		}
		x = 24
		y = 5

	}
	focus = {
		id = NOR_conservatism_way_1
		icon = GFX_focus_generic_diplomatic_treaty
		cost = 10
		prerequisite = {
			focus = NOR_conservatism_way_0
			focus = NOR_force_monarchism_0
		}
		x = 26
		y = 5

	}
	focus = {
		id = NOR_monarchy_bonus
		icon = GFX_focus_rom_royal_dictatorship
		cost = 10
		prerequisite = {
			focus = NOR_conservatism_way_1
		}
		prerequisite = {
			focus = NOR_force_monarchism_1
		}
		x = 25
		y = 6

	}
	focus = {
		id = NOR_nordic_neutral_0
		icon = GFX_goal_generic_forceful_treaty
		cost = 10
		prerequisite = {
			focus = NOR_monarchy_bonus
		}
		mutually_exclusive = {
			focus = NOR_seek_protection_0
		}
		x = 25
		y = 7

	}
	focus = {
		id = NOR_protection_of_scandinavia
		icon = GFX_focus_generic_little_entente
		cost = 10
		prerequisite = {
			focus = NOR_nordic_neutral_0
		}
		x = 25
		y = 8

	}
	focus = {
		id = NOR_junta_politics_0
		icon = GFX_focus_rom_handle_king
		cost = 10
		prerequisite = {
			focus = NOR_break_neutrality
		}
		x = 32
		y = 1

	}
	focus = {
		id = NOR_socialism_way_0
		icon = GFX_goal_tfv_sever_ties_with_uk
		cost = 10
		prerequisite = {
			focus = NOR_junta_politics_0
		}
		mutually_exclusive = {
			focus = NOR_nordic_junta
		}
		x = 29
		y = 2

	}
	focus = {
		id = NOR_socialism_economy_0
		icon = GFX_focus_prc_agrarian_socialism
		cost = 10
		prerequisite = {
			focus = NOR_socialism_way_0
		}
		x = 27
		y = 3

	}
	focus = {
		id = NOR_socialism_way_1
		icon = GFX_focus_renounce_the_treaty_of_triannon
		cost = 10
		prerequisite = {
			focus = NOR_socialism_way_0
		}
		x = 29
		y = 3

	}
	focus = {
		id = NOR_socialism_way_2
		icon = GFX_goal_tripartite_pact
		cost = 10
		prerequisite = {
			focus = NOR_socialism_way_1
		}
		x = 29
		y = 4

	}
	focus = {
		id = NOR_socialism_bonus
		icon = GFX_focus_yug_pan_slavic_congress
		cost = 10
		prerequisite = {
			focus = NOR_socialism_way_2
		}
		x = 28
		y = 5
		
	}
	focus = {
		id = NOR_after_revolution
		icon = GFX_goal_generic_war_with_comintern
		cost = 10
		prerequisite = {
			focus = NOR_socialism_way_2
		}
		x = 30
		y = 5

	}
	focus = {
		id = NOR_free_iceland
		icon = GFX_goal_tfv_SAF_anti_colonialist_crusade
		cost = 10
		prerequisite = {
			focus = NOR_after_revolution
		}
		x = 30
		y = 6

	}
	focus = {
		id = NOR_scandinavian_council
		icon = GFX_goal_generic_national_unity
		cost = 10
		prerequisite = {
			focus = NOR_free_iceland
		}
		mutually_exclusive = {
			focus = NOR_remember_kalmar
		}
		x = 29
		y = 7

	}
	focus = {
		id = NOR_remember_kalmar
		icon = GFX_goal_generic_territory_or_war
		cost = 10
		prerequisite = {
			focus = NOR_free_iceland
		}
		mutually_exclusive = {
			focus = NOR_scandinavian_council
		}
		x = 31
		y = 7

	}
	focus = {
		id = NOR_strike_south_imperialist
		icon = GFX_goal_generic_major_war
		cost = 10
		prerequisite = {
			focus = NOR_remember_kalmar
		}
		x = 31
		y = 8

	}
	focus = {
		id = NOR_nordic_junta
		icon = GFX_goal_generic_wolf_pack
		cost = 10
		prerequisite = {
			focus = NOR_junta_politics_0
		}
		mutually_exclusive = {
			focus = NOR_socialism_way_0
		}
		x = 35
		y = 2

	}
	focus = {
		id = NOR_ensure_trade_security
		icon = GFX_focus_generic_support_the_left_right
		cost = 10
		prerequisite = {
			focus = NOR_nordic_junta
			focus = NOR_socialism_way_0
		}
		x = 32
		y = 3
		completion_reward = {
			add_
			if = {
				limit = { has_idea = NOR_port_strike }
				remove_ideas = NOR_port_strike
			}
		}
	}
	focus = {
		id = NOR_rep_diplomacy_bonus
		icon = GFX_goal_generic_major_alliance
		cost = 10
		prerequisite = {
			focus = NOR_ensure_trade_security
		}
		x = 32
		y = 4

	}
	focus = {
		id = NOR_release_finland
		icon = GFX_goal_generic_political_pressure
		cost = 10
		prerequisite = {
			focus = NOR_rep_diplomacy_bonus
		}
		x = 32
		y = 5

	}
	focus = {
		id = NOR_baltic_independence
		icon = GFX_goal_generic_propaganda
		cost = 10
		prerequisite = {
			focus = NOR_release_finland
		}
		mutually_exclusive = {
			focus = NOR_real_ally
		}
		x = 32
		y = 6

	}
	focus = {
		id = NOR_scandinavian_bastion
		icon = GFX_goal_generic_fortify_city
		cost = 10
		prerequisite = {
			focus = NOR_nordic_junta
		}
		prerequisite = {
			focus = NOR_ensure_trade_security
		}
		x = 34
		y = 4

	}
	focus = {
		id = NOR_real_ally
		icon = GFX_goal_unknown
		cost = 10
		prerequisite = {
			focus = NOR_scandinavian_bastion
		}
		mutually_exclusive = {
			focus = NOR_baltic_independence
		}
		x = 34
		y = 6

	}
	focus = {
		id = NOR_open_third_front
		icon = GFX_goal_unknown
		cost = 10
		prerequisite = {
			focus = NOR_real_ally
		}
		x = 34
		y = 7

	}
	focus = {
		id = NOR_junta_politics_1
		icon = GFX_goal_unknown
		cost = 10
		prerequisite = {
			focus = NOR_nordic_junta
		}
		x = 37
		y = 3

	}
	focus = {
		id = NOR_junta_politics_2
		icon = GFX_goal_unknown
		cost = 10
		prerequisite = {
			focus = NOR_junta_politics_1
		}
		x = 37
		y = 4

	}
	focus = {
		id = NOR_junta_politics_3
		icon = GFX_goal_unknown
		cost = 10
		prerequisite = {
			focus = NOR_junta_politics_2
		}
		x = 37
		y = 5

	}
	focus = {
		id = NOR_junta_economy_0
		icon = GFX_goal_unknown
		cost = 10
		prerequisite = {
			focus = NOR_junta_politics_3
		}
		x = 36
		y = 6

	}
	focus = {
		id = NOR_seek_protection_0
		icon = GFX_goal_unknown
		cost = 10
		prerequisite = {
			focus = NOR_monarchy_bonus
		}
		mutually_exclusive = {
			focus = NOR_nordic_neutral_0
		}
		x = 27
		y = 7

	}
	focus = {
		id = NOR_seek_protection_1
		icon = GFX_goal_unknown
		cost = 10
		prerequisite = {
			focus = NOR_seek_protection_0
		}
		x = 27
		y = 8

	}
	focus = {
		id = NOR_modern_jagers
		icon = GFX_goal_unknown
		cost = 10
		prerequisite = {
			focus = NOR_mountain_jagers
		}
		x = 2
		y = 6

	}
	focus = {
		id = NOR_public_education
		icon = GFX_goal_unknown
		cost = 10
		prerequisite = {
			focus = NOR_socialism_bonus
		}
		x = 28
		y = 6
		completion_reward = { add_research_slot = 1 }
	}

	focus = {
		id = NOR_fight_for_scandinavian_unity
		icon = GFX_goal_unknown
		cost = 10
		prerequisite = {
			focus = NOR_scandinavian_council
		}
		x = 29
		y = 8

	}
	focus = {
		id = NOR_junta_economy_1
		icon = GFX_goal_unknown
		cost = 10
		prerequisite = {
			focus = NOR_junta_economy_0
		}
		x = 36
		y = 7

	}
	focus = {
		id = NOR_nordic_fascism
		icon = GFX_goal_unknown
		cost = 10
		prerequisite = {
			focus = NOR_junta_politics_3
		}
		x = 38
		y = 6

	}
	focus = {
		id = NOR_nordic_rise
		icon = GFX_goal_unknown
		cost = 10
		prerequisite = {
			focus = NOR_nordic_fascism
		}
		x = 38
		y = 7

	}
	focus = {
		id = NOR_great_war_experience
		icon = GFX_goal_unknown
		cost = 10
		prerequisite = {
			focus = NOR_modern_jagers
		}
		prerequisite = {
			focus = NOR_NoAAS
		}
		x = 4
		y = 7

	}
	focus = {
		id = NOR_military_revision
		icon = GFX_goal_unknown
		cost = 10
		prerequisite = {
			focus = NOR_great_war_experience
		}
		x = 4
		y = 8

	}
}
