autonomy_state = {
	id = autonomy_sphered_nation
	
	min_freedom_level = 0.8
	manpower_influence = 0.2
	
	rule = {
		can_not_declare_war = yes
		can_decline_call_to_war = no
		can_be_spymaster = yes
	}
	
	modifier = {
		autonomy_manpower_share = 0.0
		extra_trade_to_overlord_factor = 0.5
		overlord_trade_cost_factor = -0.5
	}
	
	ai_subject_wants_higher = {
		factor = 0.0
	}
	
	ai_overlord_wants_lower = {
		factor = 1.0
	}

	ai_overlord_wants_garrison = {
		always = no
	}

	allowed = {
		has_dlc = "Together for Victory" 
		OVERLORD = {
			has_government = neutrality
		}
		if = {
			limit = { OVERLORD = { has_idea = CHI_china_broken } }
			NOT = {
				is_chinese_warlord = yes
			}
		}
		if = {
			limit = { OVERLORD = { has_idea = western_empire } }
			NOT = {
				OR = {
					OVERLORD = { capital_scope = { is_on_continent = asia } }
					has_idea = etgi_laws_leadership_structure_d
					has_country_flag = prev_undeveloped_colony
				}
			}
		}
	}
	
	can_take_level = {
	}

	can_lose_level = {
	}
}