ETH_end_of_war_category = {
	ETH_end_of_war_mission_eth = {
		
		icon = generic_nationalism
		visible = {
			tag = ETH
			has_war_with = ITA
		}	

		available = {
			OR = {
				NOT = { has_full_control_of_state = 1111 }
				NOT = { has_full_control_of_state = 1113 }
				NOT = { has_full_control_of_state = 271 }
				NOT = { has_full_control_of_state = 550 }
				NOT = { has_full_control_of_state = 559 }
			}
		}
		
		activation = {
			original_tag = ETH
			has_war = yes
			NOT = { has_global_flag = DARK_end_of_ita_eth_war }
			NOT = { has_global_flag = war_over_ETH }
			has_full_control_of_state = 271
			has_full_control_of_state = 1111
			has_full_control_of_state = 1113
			has_full_control_of_state = 550
			has_full_control_of_state = 559
		}
		
		Is_good = yes
		
		days_mission_timeout = 90
		
		timeout_effect = {
			effect_tooltip = {
				ITA = { country_event = NOS_ethiopia.1 }
			}
			hidden_effect = {
				set_global_flag = DARK_end_of_ita_eth_war
			}
		}
	}
	ETH_end_of_war_mission_ita = {
		
		icon = generic_nationalism
		visible = {
			tag = ITA
			has_war_with = ETH
		}	

		available = {
			ETH = {
				OR = {
					NOT = { has_full_control_of_state = 271 }
					NOT = { has_full_control_of_state = 1111 }
					NOT = { has_full_control_of_state = 1113 }
					NOT = { has_full_control_of_state = 550 }
					NOT = { has_full_control_of_state = 559 }
				}
			}
		}
		
		activation = {
			original_tag = ITA
			has_war = yes
			NOT = { has_global_flag = DARK_end_of_ita_eth_war }
			NOT = { has_global_flag = war_over_ETH }
			ETH = {
				has_full_control_of_state = 271
				has_full_control_of_state = 1111
				has_full_control_of_state = 1113
				has_full_control_of_state = 550
				has_full_control_of_state = 559
			}
		}
		
		Is_good = no
		
		days_mission_timeout = 90
		
		timeout_effect = {
			country_event = NOS_ethiopia.1
			hidden_effect = {
				set_global_flag = DARK_end_of_ita_eth_war
			}
		}
	}
}

ETH_join_ita_eth_war_category = {
	ETH_join_ita_decision = {
		
		icon = generic_ignite_civil_war
		visible = {
			ITA = { has_war_with = ETH }
			is_subject = no
			NOT = { is_in_faction_with = ETH }
			NOT = { has_war_with = ITA }
		}
		
		fire_only_once = yes
		war_with_on_complete = ETH
		
		available = {
			has_war = no
			OR = {
				has_opinion = {
					target = ITA
					value > 50
				}
				has_opinion = {
					target = ETH
					value < -25
				}
			
			}
			NOT = { has_idea = neutrality_idea }
		}
			
		complete_effect = {
			if = {
				limit = {
					is_faction_leader = no
					is_in_faction = no
					OR = {
						ITA = { is_faction_leader = yes }
						ITA = { is_in_faction = yes }
					}
				}
				every_other_country = {
					limit = {
						is_faction_leader = yes
						OR = {
							tag = ITA
							is_in_faction_with = ITA
						}
					}
					country_event = generic.2
				}
			}
			declare_war_on = {
				type = puppet_wargoal_focus
				target = ETH
			}
		}
		
		ai_will_do = {
			base = 0
			modifier = {
				add = 1
				OR = {
					is_in_faction_with = ITA
					AND = {
						tag = CZE
						GER = { has_war_with = ITA } #Chance at containment!
					}
					AND = {
						tag = AUS
						OR = {
							AND = {
								GER = { has_war_with = ITA } #Chance at containment!
								fascism < 0.36
							}
							AND = {
								has_government = fascism
								GER = { has_war_with = ETH }
							}
							#has_completed_focus = AUS_no_ger USE FOR SEASON PASS
						}
					}
					AND = {
						tag = POL
						GER = { has_war_with = ITA } #Chance at containment!
					}
					AND = {
						has_government = fascism
						ITA = { is_in_faction_with = GER } #We want in on this powerhouse combo
						any_owned_state = {
							is_capital = yes
							OR = {
								is_on_continent = europe
								is_on_continent = africa
							}
						}
					}
					AND = {
						tag = HUN
						OR = {
							has_completed_focus = HUN_renew_the_rome_protocols
							AUS = { is_in_faction_with = ITA }
						}
					}
					AND = {
						tag = GER
						has_completed_focus = GER_create_axis
					}
					AND = {
						original_tag = SPR
						GER = { has_war_with = ETH }
						GER = { has_completed_focus = GER_nationalist_spain_ally }
					}
					AND = {
						tag = IRQ
						ENG = { has_war_with = ITA }
						ENG = { has_completed_focus = uk_iraq_focus }
					}
					AND = {
						tag = PER
						ENG = { has_war_with = ITA }
						ENG = { has_completed_focus = uk_iran_focus }
					}
					AND = {
						tag = NOR
						ENG = { has_war_with = ITA }
						ENG = { has_completed_focus = ENG_norwegian_intervention }
					}
					AND = {
						tag = DEN
						ENG = { has_war_with = ITA }
						ENG = { has_completed_focus = ENG_danish_intervention }
					}
					AND = {
						tag = HOL
						ENG = { has_war_with = ITA }
						ENG = { has_completed_focus = ENG_dutch_security }
					}
				}
			}
			modifier = {
				add = -1
				tag = YUG #YUG hates ITA, period
			}
		}
	}
	ETH_join_eth_decision = {
		
		icon = generic_ignite_civil_war
		visible = {
			ITA = { has_war_with = ETH }
			is_subject = no
			NOT = { is_in_faction_with = ITA }
			NOT = { has_war_with = ETH }
		}
		
		fire_only_once = yes
		war_with_on_complete = ITA
		
		available = {
			has_war = no
			OR = {
				has_opinion = {
					target = ITA
					value < 51
				}
				has_opinion = {
					target = ETH
					value > 50
				}
			}	
			NOT = { has_idea = neutrality_idea }
		}
		
		complete_effect = {
			if = {
				limit = {
					is_faction_leader = no
					is_in_faction = no
					OR = {
						ETH = { is_faction_leader = yes }
						ETH = { is_in_faction = yes }
					}
				}
				every_other_country = {
					limit = {
						is_faction_leader = yes
						OR = {
							tag = ETH
							is_in_faction_with = ETH
						}
					}
					country_event = generic.2
				}
			}
			declare_war_on = {
				type = puppet_wargoal_focus
				target = ITA
			}
		}
		
		ai_will_do = {
			base = 0
			modifier = {
				add = 1
				OR = {
					is_in_faction_with = ETH
					AND = {
						tag = GER
						NOT = { has_completed_focus = GER_create_axis }
					}
					AND = {
						tag = CZE
						GER = { has_war_with = ETH } #Chance at containment!
					}
					AND = {
						tag = YUG
						OR = {
							has_completed_focus = YUG_crush_the_ustasa #Has dealt with internal problems
							has_completed_focus = YUG_establish_the_banovina_of_croatia
						}
					}
					AND = {
						tag = AUS
						OR = {
							AND = {
								GER = { has_war_with = ETH } #Chance at containment!
								fascism < 0.36
							}
							AND = {
								has_government = fascism
								GER = { has_war_with = ITA }
							}
							#has_completed_focus = AUS_no_ger USE FOR SEASON PASS
						}
					}
					AND = {
						tag = POL
						GER = { has_war_with = ETH } #Chance at containment!
					}
					AND = {
						tag = SWE
						OR = {
							NOT = { ENG = { has_war_with = ETH } }
							ENG = { has_completed_focus = uk_scandinavian_focus }
							has_completed_focus = foreign_expeditions
						}
					}
					AND = {
						tag = BEL
						OR = {
							AND = {
								FRA = { is_in_faction_with = ETH }
								OR = {
									GER = { has_war = no }
									GER = { is_in_faction_with = FRA }
								}
							}
							AND = {
								ENG = { has_war_with = ETH }
								has_completed_focus = ENG_belgium_security
							}
						}
					}
					AND = {
						original_tag = SPR
						GER = { has_war_with = ITA }
						GER = { has_completed_focus = GER_nationalist_spain_ally }
					}
					AND = {
						original_tag = TUR
						has_government = fascism
					}
					AND = {
						tag = IRQ
						ENG = { has_war_with = ETH }
						ENG = { has_completed_focus = uk_iraq_focus }
					}
					AND = {
						tag = PER
						ENG = { has_war_with = ETH }
						ENG = { has_completed_focus = uk_iran_focus }
					}
					AND = {
						tag = NOR
						ENG = { has_war_with = ETH }
						ENG = { has_completed_focus = ENG_norwegian_intervention }
					}
					AND = {
						tag = DEN
						ENG = { has_war_with = ETH }
						ENG = { has_completed_focus = ENG_danish_intervention }
					}
					AND = {
						tag = HOL
						ENG = { has_war_with = ETH }
						ENG = { has_completed_focus = ENG_dutch_security }
					}
					AND = {
						tag = LIB #We must side with the other free African Nation!
						has_completed_focus = LIB_trade_concessions
						NOT = { has_idea = LIB_corrupt_army1 }
						NOT = { has_idea = LIB_corrupt_army2 }
					}
				}
			}
		}
	}
}

ETH_supporting_the_war_category = {
	
	ETH_close_the_suez_decision = {
		
		icon = generic_naval
		
		visible = {
			is_subject = no
			OR = {
				has_full_control_of_state = 446
				has_full_control_of_state = 453
				any_other_country = {
					is_subject_of = ROOT
					OR = {
						has_full_control_of_state = 446
						has_full_control_of_state = 453
					}
				}
			}
			NOT = { has_global_flag = SUEZ_CANAL_BLOCKED }
		}
		
		available = {
			NOT = { has_government = fascism }
			OR = {
				has_full_control_of_state = 446
				has_full_control_of_state = 453
				any_other_country = {
					is_subject_of = ROOT
					OR = {
						has_full_control_of_state = 446
						has_full_control_of_state = 453
					}
				}
			}
		}
		
		complete_effect = {
			add_political_power = -200
			add_stability = -0.1
			add_war_support = 0.05
			if = {
				limit = { has_government = democratic }
				add_popularity = { ideology = democratic popularity = -0.15 }
			}
			else_if = {
				limit = { has_government = neutrality }
				add_popularity = { ideology = neutrality popularity = -0.15 }
			}
			custom_effect_tooltip = ETH_close_the_suez_tt
			hidden_effect = {
				set_global_flag = SUEZ_CANAL_BLOCKED
				set_global_flag = DARK_SUEZ_CLOSED
				news_event = {id = NOS_ethiopia.109 hours = 24 }
			}
			add_ideas = DARK_closed_suez
		}
		
		ai_will_do = {
			base = 0
			modifier = {
				add = 10
				OR = {
					has_government = communism
					has_country_leader = { ruling_only = yes name = "Winston Churchill" }
				}
			}
		}
	}
	
	ETH_send_weapons_hidden_decision = {
		
		icon = generic_industry
		
		visible = {
			OR = {
				original_tag = SWE
				original_tag = BEL
				original_tag = TUR
				AND = {
					original_tag = SOV
					has_government = neutrality
				}
				has_country_flag = ETH_can_send_weapons
			}
			NOT = { has_global_flag = ETH_end_of_embargo }
		}
		
		available = {
			has_war = no
			custom_trigger_tooltip = {
				tooltip = ETH_not_recently_sent_weapons_tt
				NOT = { has_country_flag = ETH_recently_sent_weapons }
			}
			NOT = { is_in_faction_with = ITA }
			NOT = { is_subject_of = ITA }
		}
		
		cost = 25
		fixed_random_seed = no
		
		complete_effect = {
			if = {
				limit = { 
					has_equipment = {
						infantry_equipment > 500
					}
				}
				add_equipment_to_stockpile = {
					type = infantry_equipment
					amount = -500
				}
			}
			else = {
				add_timed_idea = { idea = DARK_weapons_produced days = 90 }
			}
			custom_effect_tooltip = ETH_sneak_weapon_attempt_tt
			effect_tooltip = {
				ETH = {
					add_equipment_to_stockpile = {
						type = infantry_equipment
						amount = 500
					}
				}
			}
			hidden_effect = {
				set_country_flag = ETH_recently_sent_weapons
				country_event = { id = NOS_ethiopia.74 days = 90 }
				random_list = {
					50 = {
						country_event = NOS_ethiopia.75
						ETH = { country_event = NOS_ethiopia.75 }
					}
					50 = {
						country_event = NOS_ethiopia.76
					}
				}
			}
		}
		
		ai_will_do = {
			base = 0
			modifier = {
				add = 1
				date > 1937.1.1
			}
		}
	}
	
	ETH_send_weapons_openly_decision = {
		
		icon = generic_industry
		
		visible = {
			OR = {
				original_tag = SWE
				original_tag = BEL
				original_tag = TUR
				AND = {
					original_tag = SOV
					has_government = neutrality
				}
				has_country_flag = ETH_can_send_weapons
			}
		}
		
		available = {
			has_war = no
			custom_trigger_tooltip = {
				tooltip = ETH_not_recently_sent_weapons_tt
				NOT = { has_country_flag = ETH_recently_sent_weapons }
			}
			NOT = { is_in_faction_with = ITA }
			NOT = { is_subject_of = ITA }
		}
		
		cost = 25
		
		complete_effect = {
			if = {
				limit = { 
					has_equipment = {
						infantry_equipment > 1000
					}
				}
				add_equipment_to_stockpile = {
					type = infantry_equipment
					amount = -1000
				}
			}
			else = {
				add_timed_idea = { idea = DARK_weapons_produced days = 180 }
			}
			if = {
				limit = { NOT = { has_global_flag = ETH_end_of_embargo } }
				custom_effect_tooltip = ETH_open_weapon_attempt_tt
				ENG = { country_event = { id = NOS_ethiopia.78 hours = 24 } }
			}
			else = {
				ETH = { country_event = { id = NOS_ethiopia.81 hours = 24 } }
			}
			effect_tooltip = {
				ETH = {
					add_equipment_to_stockpile = {
						type = infantry_equipment
						amount = 1000
					}
				}
			}
			if = {
				limit = {
					NOT = {
						ITA = { has_opinion_modifier = ETH_helped_enemies }
					}
				}
				ITA = {
					add_opinion_modifier = {
						target = ROOT
						modifier = ETH_helped_enemies
					}
				}
			}
			hidden_effect = {
				set_country_flag = ETH_recently_sent_weapons
				country_event = { id = NOS_ethiopia.74 days = 180 }
			}
		}
		
		ai_will_do = {
			base = 0
			modifier = {
				add = 1
				has_global_flag = ETH_end_of_embargo
			}
			modifier = {
				add = 1
				original_tag = GER
				NOT = { has_completed_focus = GER_create_axis }
			}
		}
	}
	
	ETH_end_the_arms_embargo_decision = {
		
		icon = ger_military_buildup
		
		visible = {
			NOT = { has_global_flag = ETH_end_of_embargo }
			tag = ENG
			NOT = { is_in_faction_with = ITA }
			NOT = { is_subject_of = ITA }
		}
		
		available = {
			always = yes
		}
		
		fire_only_once = yes
		
		complete_effect = {
			custom_effect_tooltip = DARK_end_the_embargo_tt
			hidden_effect = {
				set_global_flag = ETH_end_of_embargo
			}
			if = {
				limit = { 
					OR = {
						NOT = { has_government = communism } 
						has_war = yes
					}
				}
				add_political_power = -100
			}
			add_popularity = { ideology = communism popularity = 0.05 }
			news_event = NOS_ethiopia.111
		}
		
		ai_will_do = {
			base = 0
			modifier = {
				add = 1
				has_war = yes
			}
			modifier = {
				add = 1
				has_country_leader = { ruling_only = yes name = "Winston Churchill" }
			}
			modifier = {
				add = 10
				has_government = communism
			}
			modifier = {
				add = 1000
				is_in_faction_with = ETH
			}
		}
	}
	
	ETH_force_britain_to_end_embargo_decision = {
		
		icon = ger_military_buildup
		
		visible = {
			NOT = { has_global_flag = ETH_end_of_embargo }
			tag = FRA
			NOT = { is_in_faction_with = ITA }
			NOT = { is_subject_of = ITA }
		}
		
		available = {
			has_war = no
		}
		
		fire_only_once = yes
		cost = 100
		
		complete_effect = {
			ENG = { country_event = NOS_ethiopia.82 }
		}
		
		ai_will_do = {
			base = 0
			modifier = {
				add = 1
				date > 1938.1.1
			}
			modifier = {
				add = 5
				GER = { has_completed_focus = GER_create_axis }
			}
			modifier = {
				add = 10
				has_government = communism
			}
			modifier = {
				add = 1000
				is_in_faction_with = ETH
			}
		}
	}
}

ETH_noble_influence_category = {

	ETH_limit_noble_influence_decision = {
		
		icon = generic_break_treaty
		
		available = {
			custom_trigger_tooltip = {
				tooltip = ETH_not_recently_affected_nobles_tt
				#NOT = { has_country_flag = ETH_recently_affected_nobles }
				NOT = { has_idea = ETH_recent_noble_activity_idea }
			}
		}
		
		cost = 100
		
		complete_effect = {
			custom_effect_tooltip = ETH_remove_noble_influence_10
			hidden_effect = {
				subtract_from_variable = { ETH_noble_influence_value = 10 }
				clamp_variable = {
					max = 200
					min = 0
				}
				#set_country_flag = ETH_recently_affected_nobles
				#country_event = { id = NOS_ethiopia.232 days = 360 }
				add_timed_idea = { idea = ETH_recent_noble_activity_idea days = 360 }				
			}
		}
		
		ai_will_do = {
			base = 1
		}
	}
	ETH_expand_noble_influence_decision = {
		
		icon = generic_decision
		
		available = {
			custom_trigger_tooltip = {
				tooltip = ETH_not_recently_affected_nobles_tt
				#NOT = { has_country_flag = ETH_recently_affected_nobles }
				NOT = { has_idea = ETH_recent_noble_activity_idea }
			}
		}
		
		cost = 0
		
		complete_effect = {
			custom_effect_tooltip = ETH_add_noble_influence_10
			add_political_power = 100
			hidden_effect = {
				add_to_variable = { ETH_noble_influence_value = 10 }
				clamp_variable = {
					max = 200
					min = 0
				}
				#set_country_flag = ETH_recently_affected_nobles
				#country_event = { id = NOS_ethiopia.232 days = 360 }
				add_timed_idea = { idea = ETH_recent_noble_activity_idea days = 360 }	
			}
		}
		
		ai_will_do = {
			base = 0
			modifier = {
				add = 10
				has_manpower < 1000
				NOT = { has_idea = scraping_the_barrel }
			}
		}
	}
	
	ETH_ask_for_noble_support_decision = {
		
		icon = generic_civil_support
		
		visible = {
			has_government = neutrality
		}
		
		cost = 5
		days_re_enable = 180
		
		complete_effect = {
			custom_effect_tooltip = ETH_add_noble_influence_10
			add_popularity = { ideology = neutrality popularity = 0.1 }
			
			hidden_effect = {
				add_to_variable = { ETH_noble_influence_value = 10 }
				clamp_variable = {
					max = 200
					min = 0
				}
			}
		}
		
		ai_will_do = {
			base = 0
			modifier = {
				add = 10
				neutrality < 0.5
				OR = {
					NOT = { has_idea = ETH_peoples_voice }
					has_idea = ETH_solomonic_restoration
				}
				OR = {
					NOT = { has_idea = ETH_the_darkness }
					has_idea = ETH_solomonic_restoration
				}
				OR = {
					NOT = { has_idea = ETH_beacon_of_hope }
					has_idea = ETH_solomonic_restoration
				}
			}
		}
	}
	
	ETH_noble_war_support_decision = {
		
		icon = generic_nationalism
		
		cost = 5
		days_re_enable = 180
		
		complete_effect = {
			custom_effect_tooltip = ETH_add_noble_influence_5
			add_war_support = 0.05
			
			hidden_effect = {
				add_to_variable = { ETH_noble_influence_value = 5 }
				clamp_variable = {
					max = 200
					min = 0
				}
			}
		}
		
		ai_will_do = {
			base = 0
			modifier = {
				add = 10
				has_war_support < 0.55
			}
		}
	}
	
	ETH_noble_raise_levies_decision = {
		
		icon = generic_prepare_civil_war
		
		cost = 5
		days_re_enable = 540
		
		complete_effect = {
			custom_effect_tooltip = ETH_add_noble_influence_15
			add_manpower = 15000
			
			hidden_effect = {
				add_to_variable = { ETH_noble_influence_value = 15 }
				clamp_variable = {
					max = 200
					min = 0
				}
			}
		}
		
		ai_will_do = {
			base = 0
			modifier = {
				add = 10
				has_manpower < 25000
			}
		}
	}
	
	ETH_imprison_balcha_decision = {
		
		icon = generic_independence
		
		visible = {
			NOT = { has_country_flag = ETH_balcha_dealt_with }
		}
		
		available = {
			has_war = no
			has_army_experience > 25
		}
		
		fire_only_once = yes
		cost = 25
		
		complete_effect = {
			army_experience = -25
			custom_effect_tooltip = ETH_remove_noble_influence_10
			custom_effect_tooltip = ETH_removed_balcha_tt
			
			hidden_effect = {
				subtract_from_variable = { ETH_noble_influence_value = 10 }
				clamp_variable = {
					max = 200
					min = 0
				}
				set_country_flag = ETH_balcha_dealt_with
			}
		}
		
		ai_will_do = {
			base = 1
		}
	}
	
	ETH_noble_pro_democracy_decision = {
		
		icon = generic_prepare_civil_war
		
		available = {
			has_completed_focus = ETH_more_congress
		}
		
		cost = 25
		days_re_enable = 360
		
		complete_effect = {
			custom_effect_tooltip = ETH_remove_noble_influence_10
			add_popularity = { ideology = democratic popularity = 0.1 }
			
			hidden_effect = {
				subtract_from_variable = { ETH_noble_influence_value = 10 }
				clamp_variable = {
					max = 200
					min = 0
				}
			}
		}
		
		ai_will_do = {
			base = 1
		}
	}
}

ETH_governmental_reform_category = {
	
	ETH_swap_to_nothing_idea_decision = {
		
		icon = generic_decision
		
		visible = {
			OR = {
				has_idea = ETH_the_darkness
				has_idea = ETH_peoples_voice
				has_idea = ETH_beacon_of_hope
			}
		}
		
		available = {
			NOT = { has_government = fascism }
		}
		
		cost = 25
		
		complete_effect = {
			remove_ideas = ETH_the_darkness
			remove_ideas = ETH_peoples_voice
			remove_ideas = ETH_beacon_of_hope
		}
		
		ai_will_do = {
			base = 0
			modifier = {
				add = 10
				has_government = neutrality
				has_completed_focus = ETH_restoration
			}
		}
	}
	ETH_swap_to_democratic_idea_decision = {
		
		icon = generic_decision
		
		visible = {
			has_completed_focus = ETH_stand_against_expansionism
			NOT = { has_completed_focus = ETH_ethiopian_revolution }
		}
		
		available = {
			NOT = { has_idea = ETH_beacon_of_hope }
			NOT = { has_government = fascism }
		}
		
		cost = 75
		
		complete_effect = {
			remove_ideas = ETH_the_darkness
			remove_ideas = ETH_peoples_voice
			add_ideas = ETH_beacon_of_hope
		}
		
		ai_will_do = {
			base = 0
			modifier = {
				add = 1
				has_government = democratic
				NOT = { has_idea = ETH_beacon_of_hope }
			}
		}
	}
	ETH_swap_to_fascism_idea_decision = {
		
		icon = generic_decision
		
		visible = {
			has_completed_focus = ETH_turn_evil
			NOT = { has_completed_focus = ETH_ethiopian_revolution }
			NOT = { has_completed_focus = ETH_another_light }
		}
		
		available = {
			NOT = { has_idea = ETH_the_darkness }
		}
		
		cost = 75
		
		complete_effect = {
			remove_ideas = ETH_beacon_of_hope
			remove_ideas = ETH_peoples_voice
			add_ideas = ETH_the_darkness
		}
		
		ai_will_do = {
			base = 0
			modifier = {
				add = 1
				has_government = fascism
				NOT = { has_idea = ETH_the_darkness }
			}
		}
	}
	ETH_swap_to_communism_idea_decision = {
		
		icon = generic_decision
		
		visible = {
			has_completed_focus = ETH_go_communist
			NOT = { has_completed_focus = ETH_another_light }
		}
		
		available = {
			NOT = { has_idea = ETH_peoples_voice }
			NOT = { has_government = fascism }
		}
		
		cost = 75
		
		complete_effect = {
			remove_ideas = ETH_the_darkness
			remove_ideas = ETH_beacon_of_hope
			add_ideas = ETH_peoples_voice
			if = {
				limit = { 
					has_completed_focus = ETH_com_militias 
					NOT = { has_idea = ETH_militias }
				}
				add_ideas = ETH_militias
			}
		}
		
		ai_will_do = {
			base = 0
			modifier = {
				add = 1
				has_government = communism
				NOT = { has_idea = ETH_peoples_voice }
			}
		}
	}
	
	ETH_neutrality_reform_decision = {
		
		icon = generic_nationalism
		
		visible = {
			NOT = { has_government = neutrality }
		}
		
		available = {
			has_idea = ETH_wubneh_amoraw
			neutrality > 0.4
		}
		
		complete_effect = {
			add_popularity = { ideology = neutrality popularity = 0.2 }
			if = {
				limit = {
					NOT = { has_completed_focus = ETH_election_prep }
				}
				set_politics = {
					ruling_party = neutrality
					elections_allowed = no
				}
			}
			else = {
				set_politics = {
					ruling_party = neutrality
					last_election = date
					election_frequency = 48
					elections_allowed = yes
				}
			}
		}
		
		ai_will_do = {
			base = 0
			modifier = {
				add = 1
				NOT = { has_idea = ETH_beacon_of_hope }
				NOT = { has_idea = ETH_the_darkness }
				NOT = { has_idea = ETH_peoples_voice }
			}
		}
	}
	
	ETH_democratic_reform_decision = {
	
		icon = generic_political_discourse
		
		visible = {
			NOT = { has_government = democratic }
		}
		
		available = {
			has_idea = ETH_beacon_of_hope
			democratic > 0.4
		}
		
		complete_effect = {
			add_popularity = { ideology = democratic popularity = 0.2 }
			set_politics = {
				ruling_party = democratic
				election_frequency = 48
				elections_allowed = yes
			}
		}
		
		ai_will_do = {
			base = 1
		}
	}
	
	ETH_communism_reform_decision = {
		
		icon = generic_civil_support
		
		visible = {
			NOT = { has_government = communism }
		}
		
		available = {
			has_idea = ETH_peoples_voice
			communism > 0.4
		}
		
		complete_effect = {
			add_popularity = { ideology = communism popularity = 0.2 }
			set_politics = {
				ruling_party = communism
				elections_allowed = no
			}
		}
		
		ai_will_do = {
			base = 1
		}
	}
	
	ETH_fascism_reform_decision = {
		
		icon = ger_reichskommissariats
		
		visible = {
			NOT = { has_government = fascism }
		}
		
		available = {
			has_idea = ETH_the_darkness
			fascism > 0.4
			custom_trigger_tooltip = {
				tooltip = ETH_no_dead_haile_tt
				NOT = { has_country_flag = ETH_dead_haile }
			}
		}
		
		complete_effect = {
			add_popularity = { ideology = fascism popularity = 0.2 }
			set_party_name = { ideology = fascism long_name = "Solomonic Dynasty" name = "Solomonic Dynasty" }
			set_party_name = { ideology = neutrality long_name = "Noble Houses" name = "Noble Houses" }
			set_politics = {
				ruling_party = fascism
				elections_allowed = no
			}
			hidden_effect = {
				set_cosmetic_tag = DARK_evil_ethiopia
			}
			create_country_leader = {
				name = "Haile Selassie"
				desc = "POLITICS_HAILE_SELASSIE_DESC"
				picture = "Portrait_Ethiopia_Haile_Selassie.dds"
				expire = "1965.1.1"
				ideology = rexism
				traits = { DARK_lion_of_judah }
				
				id = 30103
			}
			create_country_leader = {
				name = "Hailu Tekle Haimonot"
				desc = "POLITICS_HAILU_TEKLE_HAIMONOT_DESC"
				picture = "gfx/leaders/SYR/Portrait_Arabia_Generic_navy_1.dds"
				expire = "1965.1.1"
				ideology = oligarchism
				traits = {
					war_industrialist
				}
			}			
		}
		
		ai_will_do = {
			base = 1
		}
	}
}


ETH_anti_colonialist_crusade_category = {	
	
	ETH_cause_civil_war_country_decision = {
		
		icon = generic_independence
		
		target_trigger = {
			FROM = {
				NOT = { has_government = communism }
				NOT = {
					any_state = {
						is_core_of = FROM
						NOT = { is_on_continent = africa }
					}
				}
				ROOT = {
					any_state = {
						NOT = { is_core_of = ROOT }
						is_core_of = FROM
						NOT = { state = 559 }
						NOT = { state = 269 }
						NOT = { state = 268 }
					}
				}
			}
		}
		
		available = {
			is_faction_leader = yes
			any_state = {
				NOT = { is_core_of = ROOT }
				is_core_of = FROM
				CONTROLLER = { tag = ROOT }
			}
			FROM = { has_civil_war = no }
		}
		
		complete_effect = {
			effect_tooltip = {
				FROM = {
					start_civil_war = {
						ideology = communism
						size = 0
						only_own_territory = yes
					}
				}
			}
			hidden_effect = {
				FROM = {
					every_state = {
						limit = {
							NOT = { is_controlled_by = ROOT }
							is_core_of = FROM
						}
						set_state_flag = ETH_civil_flag
					}
					if = {
						limit = {
							NOT = {
								any_state = {
									is_core_of = FROM
									has_state_flag = ETH_civil_flag
								}
							}
						}
						every_state = {
							limit = {
								is_core_of = FROM
							}
							FROM = { set_state_controller = PREV }
						}
					}
					start_civil_war = {
						ideology = communism
						size = 0
						#only_own_territory = yes
					}					
				}
				random_other_country = {
					limit = {
						original_tag = FROM
						NOT = { tag = FROM }
					}
					ROOT = { add_to_faction = PREV }
					save_event_target_as = ETH_caused_civil_war
					if = {
						limit = {
							NOT = {
								any_state = {
									is_core_of = FROM
									has_state_flag = ETH_civil_flag
								}
							}
						}
						every_state = {
							limit = {
								is_core_of = FROM
							}
							event_target:ETH_caused_civil_war = { set_state_controller = PREV }
						}
					}
					else = {
						every_state = {
							limit = {
								is_controlled_by = ROOT
								is_core_of = FROM
							}
							event_target:ETH_caused_civil_war = { transfer_state = PREV }
						}
					}
					every_state = {
						limit = {
							is_core_of = FROM
						}
						event_target:ETH_caused_civil_war = { add_state_core = PREV }
					}
				}
				FROM = {
					every_state = {
						limit = { has_state_flag = ETH_civil_flag }
						FROM = { transfer_state = PREV }
						clr_state_flag = ETH_civil_flag
					}
				}
			}
		}
		
		ai_will_do = {
			base = 1
		}
	}
	
	ETH_liberate_angola = {

		icon = generic_independence

		available = {
			tag = ETH
			has_completed_focus = ETH_pan_african_congress
			AND = {
				ETH = {
					controls_state = 540
				}
				ANG = { exists = no }
			}
		}
		
		visible = {
			ANG = { exists = no }
		}

		cost = 0
		fire_only_once = yes
		
		complete_effect = {
			country_event = { id = tfv_south_africa.60 days = 180 random = 370 }
		}
		
		ai_will_do = {
			factor = 200
		}		
	}

	ETH_liberate_mozambique = {

		icon = generic_independence

		available = {
			tag = ETH
			has_completed_focus = ETH_pan_african_congress
			AND = {
				ETH = {
					controls_state = 544
				}
				MZB = { exists = no }
			}
		}
		
		visible = {
			MZB = { exists = no }
		}

		cost = 0
		fire_only_once = yes
		
		complete_effect = {
			country_event = { id = tfv_south_africa.61 days = 180 random = 370 }
		}
		
		ai_will_do = {
			factor = 200
		}		
	}

	ETH_liberate_congo = {

		icon = generic_independence

		available = {
			tag = ETH
			has_completed_focus = ETH_pan_african_congress
			AND = {
				ETH = {
					controls_state = 295
					controls_state = 718
					controls_state = 538
					controls_state = 1137
				}
				COG = { exists = no }
			}
		}
		
		visible = {
			COG = { exists = no }
		}

		cost = 0
		fire_only_once = yes
		
		complete_effect = {
			country_event = { id = tfv_south_africa.62 days = 180 random = 370 }
		}
		
		ai_will_do = {
			factor = 200
		}		
	}

	ETH_liberate_zimbabwe = {

		icon = generic_independence

		available = {
			tag = ETH
			has_completed_focus = ETH_pan_african_congress
			AND = {
				ETH = {
					controls_state = 545
				}
				ZIM = { exists = no }
			}
		}
		
		visible = {
			ZIM = { exists = no }
		}

		cost = 0
		fire_only_once = yes
		
		complete_effect = {
			country_event = { id = tfv_south_africa.63 days = 180 random = 370 }
		}
		
		ai_will_do = {
			factor = 200
		}
	}

	ETH_liberate_kenya = {

		icon = generic_independence
	
		available = {
			tag = ETH
			has_completed_focus = ETH_pan_african_congress
			AND = {
				ETH = {
					controls_state = 546
					controls_state = 547
					controls_state = 548
				}
				KEN = { exists = no }
			}
		}
		
		visible = {
			KEN = { exists = no }
		}

		cost = 0
		fire_only_once = yes
		
		complete_effect = {
			country_event = { id = tfv_south_africa.64 days = 180 random = 370 }
		}

		ai_will_do = {
			factor = 200
		}		
	}
	
	ETH_liberate_botswana = {

		icon = generic_independence
	
		available = {
			tag = ETH
			has_completed_focus = ETH_pan_african_congress
			AND = {
				ETH = {
					controls_state = 542
				}
				BOT = { exists = no }
			}
		}
		
		visible = {
			BOT = { exists = no }
		}

		cost = 0
		fire_only_once = yes
		
		complete_effect = {
			country_event = { id = DARK_dark.1 days = 180 random = 370 }
		}	

		ai_will_do = {
			factor = 200
		}
	}
	
	ETH_liberate_egypt = {

		icon = generic_independence
	
		available = {
			tag = ETH
			has_completed_focus = ETH_pan_african_congress
			AND = {
				ETH = {
					controls_state = 551
					controls_state = 457
					controls_state = 456
					controls_state = 446
					controls_state = 447
					controls_state = 452
					controls_state = 453
					controls_state = 552
				}
				EGY = { exists = no }
			}
		}
		
		visible = {
			EGY = { exists = no }
		}

		cost = 0
		fire_only_once = yes	
		
		complete_effect = {
			country_event = { id = DARK_dark.2 days = 180 random = 370 }
		}	

		ai_will_do = {
			factor = 200
		}
	}	
	ETH_liberate_libya = {

		icon = generic_independence
	
		available = {
			tag = ETH
			has_completed_focus = ETH_pan_african_congress
			AND = {
				ETH = {
					controls_state = 451
					controls_state = 663
					controls_state = 450
					controls_state = 273
					controls_state = 449
					controls_state = 661
					controls_state = 662
					controls_state = 448
				}		
			}
			LBA = { exists = no }
		}
		
		visible = {
			LBA = { exists = no }
		}

		cost = 0
		fire_only_once = yes
		
		complete_effect = {
			country_event = { id = DARK_dark.3 days = 180 random = 370 }
		}	

		ai_will_do = {
			factor = 200
		}
	}
	ETH_liberate_south_africa = {

		icon = generic_independence
	
		available = {
			tag = ETH
			has_completed_focus = ETH_pan_african_congress
			AND = {
				ETH = {
					controls_state = 541
					controls_state = 681
					controls_state = 275
					controls_state = 719
				}		
			}
			SAF = { exists = no }
		}
		
		visible = {
			SAF = { exists = no }
		}

		cost = 0
		fire_only_once = yes
		
		complete_effect = {
			country_event = { id = DARK_dark.9 days = 180 random = 370 }
		}	

		ai_will_do = {
			factor = 200
		}
	}
	ETH_liberate_israel = {

		icon = generic_independence
	
		available = {
			tag = ETH
			has_completed_focus = ETH_pan_african_congress
			AND = {
				ETH = {
					controls_state = 454
				}		
			}
			ISR = { exists = no }
		}
		
		visible = {
			ISR = { exists = no }
			PAL = { exists = no }
		}

		cost = 0
		fire_only_once = yes
		
		complete_effect = {
			country_event = { id = DARK_dark.4 }
		}	

		ai_will_do = {
			factor = 200
		}
	}
	ETH_liberate_palestine = {

		icon = generic_independence
	
		available = {
			tag = ETH
			has_completed_focus = ETH_pan_african_congress
			AND = {
				ETH = {
					controls_state = 454
				}		
			}
			PAL = { exists = no }
		}
		
		visible = {
			ISR = { exists = no }
			PAL = { exists = no }
		}

		cost = 0
		fire_only_once = yes
		
		complete_effect = {
			country_event = { id = DARK_dark.5 }
		}	

		ai_will_do = {
			factor = 200
		}
	}
	ETH_liberate_jordan = {

		icon = generic_independence
	
		available = {
			tag = ETH
			has_completed_focus = ETH_pan_african_congress
			AND = {
				ETH = {
					controls_state = 455
				}		
			}
			JOR = { exists = no }
		}
		
		visible = {
			JOR = { exists = no }
		}

		cost = 0
		fire_only_once = yes
		
		complete_effect = {
			country_event = { id = DARK_dark.6 days = 180 random = 370 }
		}	

		ai_will_do = {
			factor = 200
		}
	}
	ETH_liberate_lebanon = {

		icon = generic_independence
	
		available = {
			tag = ETH
			has_completed_focus = ETH_pan_african_congress
			AND = {
				ETH = {
					controls_state = 553
				}		
			}
			LEB = { exists = no }
		}
		
		visible = {
			LEB = { exists = no }
		}

		cost = 0
		fire_only_once = yes
		
		complete_effect = {
			country_event = { id = DARK_dark.7 days = 180 random = 370 }
		}	

		ai_will_do = {
			factor = 200
		}
	}
	ETH_liberate_syria = {

		icon = generic_independence
	
		available = {
			tag = ETH
			has_completed_focus = ETH_pan_african_congress
			AND = {
				ETH = {
					controls_state = 554
					controls_state = 677
					controls_state = 680
				}		
			}
			SYR = { exists = no }
		}
		
		visible = {
			SYR = { exists = no }
		}

		cost = 0
		fire_only_once = yes
		
		complete_effect = {
			country_event = { id = DARK_dark.8 days = 180 random = 370 }
		}	

		ai_will_do = {
			factor = 200
		}
	}
}

DARK_revive_ethiopia_category = {
	
	DARK_revive_ethiopia_decision = {
		
		icon = generic_form_nation
		
		target_trigger = {
			FROM = {
				has_war_with = ROOT
				271 = { OWNER = { tag = FROM } }
			}
		}
		
		available = {
			271 = { is_controlled_by_ROOT_or_subject = yes }
		}
		
		visible = {
			271 = {
				OWNER = { has_war_with = ROOT }
			}
		}
		
		cost = 0
		fire_only_once = yes
		
		ai_will_do = {
			factor = 200
		}
		
		complete_effect = {
			if = {
				limit = { NOT = { country_exists = ETH } }
				set_global_flag = ETH_revived_during_ww2
				every_state = {
					limit = {
						is_core_of = ETH
						owner = { has_war_with = ROOT }
						is_controlled_by_ROOT_or_subject = yes
					}
					ETH = { transfer_state = PREV }
				}
				every_state = {
					limit = {
						is_core_of = ETH
						owner = { has_war_with = ROOT }
						is_controlled_by_ROOT_or_subject = no
					}
					ETH = { set_state_owner = PREV }
				}
				send_equipment = {
					type = infantry_equipment
					target = ETH
					amount = 1000
				}
				add_to_faction = ETH
				ETH = {
					declare_war_on = {
						type = take_state_focus
						target = FROM
						generator = { 550 271 }
					}
					add_ideas = { 
						POL_ulitmat_badass
					}
					hidden_effect = {
						if = {
							limit = { NOT = has_cosmetic_tag = DARK_evil_ethiopia }
							set_cosmetic_tag = DARK_ethiopia_reborn
						}
						
						division_template = {
							name = "Freedom Force"
							priority = 2
							division_names_group = ETH_INF_01
							regiments = {
								infantry = { x = 0 y = 0 }
								infantry = { x = 0 y = 1 }
								infantry = { x = 0 y = 2 }
								infantry = { x = 0 y = 3 }
								infantry = { x = 0 y = 4 }
								infantry = { x = 1 y = 0 }
								infantry = { x = 1 y = 1 }
								infantry = { x = 1 y = 2 }
								infantry = { x = 1 y = 3 }
								infantry = { x = 1 y = 4 }
							}
							support = {
								recon = { x = 0 y = 0 }
							}
						}
						random_owned_controlled_state = {
								prioritize = { 271 }
								create_unit = {
									division = "name = \"Gideon Force\" division_template = \"Freedom Force\" start_experience_factor = 0.5" 
									owner = PREV
								}
							}
						division_template = {
							name = "Arbegnoch" #Patriots, the various rebel groups in Ethiopia (Known as Shifta to Italy)
							priority = 1
							division_names_group = ETH_GAR_01
							regiments = {
								infantry = { x = 0 y = 0 }
								infantry = { x = 0 y = 1 }
								infantry = { x = 0 y = 2 }
								infantry = { x = 1 y = 0 }
								infantry = { x = 1 y = 1 }
								infantry = { x = 1 y = 2 }
							}
							support = {
								recon = { x = 0 y = 0 }
							}
						}
						random_owned_controlled_state = {
							prioritize = { 271 }
							create_unit = {
								division = "name = \"Gojjam Arbegnoch\" division_template = \"Arbegnoch\" start_experience_factor = 0.5" 
								owner = ETH
							}
						}
						random_owned_controlled_state = {
							prioritize = { 271 }
							create_unit = {
								division = "name = \"Gore Arbegnoch\" division_template = \"Arbegnoch\" start_experience_factor = 0.5" 
								owner = ETH
							}
						}
						random_owned_controlled_state = {
							prioritize = { 271 }
							create_unit = {
								division = "name = \"Ogaden Arbegnoch\" division_template = \"Arbegnoch\" start_experience_factor = 0.5" 
								owner = ETH
							}
						}
					}
				}
			}
			else = {
				ETH = {
					hidden_effect = {
						set_global_flag = ETH_revived_during_ww2
						every_state = {
							limit = {
								is_core_of = ETH
								owner = { has_war_with = ROOT }
								is_controlled_by_ROOT_or_subject = yes
							}
							set_state_flag = DARK_revolting_eth_state
							ETH = { transfer_state = PREV }
						}
						if = {
							limit = { NOT = has_cosmetic_tag = DARK_evil_ethiopia }
							set_cosmetic_tag = DARK_ethiopia_reborn
						}
					}
					if = {
						limit = { ETH = { has_government = neutrality } }
						start_civil_war = {
							ruling_party = neutrality
							ideology = monarchism
							size = 0.25
							states_filter = {
								has_state_flag = DARK_revolting_eth_state
							}
						}
					}
					if = {
						limit = { ETH = { has_government = fascism } }
						start_civil_war = {
							ruling_party = fascism
							ideology = monarchism
							size = 0.25
							states_filter = {
								has_state_flag = DARK_revolting_eth_state
							}
						}
					}
					if = {
						limit = { ETH = { has_government = unionism } }
						start_civil_war = {
							ruling_party = unionism
							ideology = monarchism
							size = 0.25
							states_filter = {
								has_state_flag = DARK_revolting_eth_state
							}
						}
					}
					else_if = {
						limit = { ETH = { has_government = communism } }
						start_civil_war = {
							ruling_party = communism
							ideology = monarchism
							size = 0.25
							states_filter = {
								has_state_flag = DARK_revolting_eth_state
							}
						}
					}
					else_if = {
						limit = { ETH = { has_government = democratic } }
						start_civil_war = {
							ruling_party = democratic
							ideology = monarchism
							size = 0.25
							states_filter = {
								has_state_flag = DARK_revolting_eth_state
							}
						}
					}
					else_if = {
						limit = { ETH = { has_government = conservative } }
						start_civil_war = {
							ruling_party = conservative
							ideology = monarchism
							size = 0.25
							states_filter = {
								has_state_flag = DARK_revolting_eth_state
							}
						}
					}
					else_if = {
						limit = { ETH = { has_government = social_democracy } }
						start_civil_war = {
							ruling_party = social_democracy
							ideology = monarchism
							size = 0.25
							states_filter = {
								has_state_flag = DARK_revolting_eth_state
							}
						}
					}
					random_other_country = {
						limit = {
							original_tag = ETH
							NOT = { tag = ETH }
						}						
						send_equipment = {
							type = infantry_equipment
							amount = 1000
						}
						ROOT = { add_to_faction = PREV }
						hidden_effect = {
							create_country_leader = {
								name = "Makonnen Endelkachew"
								desc = "POLITICS_MAKONNEN_ENDELKACHEW_DESC"
								picture = "gfx/leaders/SAF/Portrait_South_Africa_Political_Leader_Generic_2.dds"
								expire = "1965.1.1"
								ideology = liberalism
								traits = {
									#
								}
							}
							create_country_leader = {
								name = "Takele Wolde Hawariat"
								desc = "POLITICS_TAKELE_WOLDE_HAWARIAT_DESC"
								picture = "gfx/leaders/Africa/Portrait_Africa_Generic_1.dds"
								expire = "1965.1.1"
								ideology = anti_revisionism
								traits = {
									#
								}
							}
							create_country_leader = {
								name = "Hailu Tekle Haimonot"
								desc = "POLITICS_HAILU_TEKLE_HAIMONOT_DESC"
								picture = "gfx/leaders/SYR/Portrait_Arabia_Generic_navy_1.dds"
								expire = "1965.1.1"
								ideology = fascism_ideology
								traits = {
									war_industrialist
								}
							}
							save_event_target_as = DARK_revolting_eth_country
							every_unit_leader = {
								set_nationality = ETH
							}
							ETH = {
								every_unit_leader = {
									limit = {
										OR = {
											has_id = 30110
											#has_id = 30111 IS DEAD
											has_id = 30112
											has_id = 30113
											has_id = 30114
											#has_id = 30115 IS DEAD
										}
									}
									set_nationality = event_target:DARK_revolting_eth_country
								}
							}
							if = {
								limit = { NOT = { has_unit_leader = 30110 } }
								create_field_marshal = {
									name = "Haile Selassie"
									portrait_path = "gfx/leaders/ETH/Portrait_Ethiopia_Haile_Selassie.dds"
									traits = { media_personality brilliant_strategist offensive_doctrine inspirational_leader }
									skill = 3
									attack_skill = 3
									defense_skill = 3
									planning_skill = 3
									logistics_skill = 3
									
									id = 30110
								}
							}
							division_template = {
								name = "Freedom Force"
								priority = 2
								division_names_group = ETH_INF_01
								regiments = {
									infantry = { x = 0 y = 0 }
									infantry = { x = 0 y = 1 }
									infantry = { x = 0 y = 2 }
									infantry = { x = 0 y = 3 }
									infantry = { x = 0 y = 4 }
									infantry = { x = 1 y = 0 }
									infantry = { x = 1 y = 1 }
									infantry = { x = 1 y = 2 }
									infantry = { x = 1 y = 3 }
									infantry = { x = 1 y = 4 }
								}
								support = {
									recon = { x = 0 y = 0 }
								}
							}
							random_owned_controlled_state = {
								prioritize = { 271 }
								create_unit = {
									division = "name = \"Gideon Force\" division_template = \"Freedom Force\" start_experience_factor = 0.5" 
									owner = PREV
								}
							}
							division_template = {
								name = "Arbegnoch" #Patriots, the various rebel groups in Ethiopia (Known as Shifta to Italy)
								priority = 1
								division_names_group = ETH_GAR_01
								regiments = {
									infantry = { x = 0 y = 0 }
									infantry = { x = 0 y = 1 }
									infantry = { x = 0 y = 2 }
									infantry = { x = 1 y = 0 }
									infantry = { x = 1 y = 1 }
									infantry = { x = 1 y = 2 }
								}
								support = {
									recon = { x = 0 y = 0 }
								}
							}
							random_owned_controlled_state = {
								prioritize = { 271 }
								create_unit = {
									division = "name = \"Gojjam Arbegnoch\" division_template = \"Arbegnoch\" start_experience_factor = 0.5" 
									owner = PREV
								}
							}
							random_owned_controlled_state = {
								prioritize = { 271 }
								create_unit = {
									division = "name = \"Gore Arbegnoch\" division_template = \"Arbegnoch\" start_experience_factor = 0.5" 
									owner = PREV
								}
							}
							random_owned_controlled_state = {
								prioritize = { 271 }
								create_unit = {
									division = "name = \"Ogaden Arbegnoch\" division_template = \"Arbegnoch\" start_experience_factor = 0.5" 
									owner = PREV
								}
							}
						}
					}
				}
			}
			custom_effect_tooltip = DARK_eth_troops_tt
		}
		
		ai_will_do = {
			base = 10
			modifier = {
				factor = 0
				has_government = communism
				surrender_progress < 0.15
			}
		}
	}
}

DARK_restore_sultan_category = {
	
	DARK_restore_sultan_decision = {
		
		icon = generic_form_nation
		
		available = {
			is_subject = no
		}
		
		visible = {
			is_subject = no
			OR = {
				AND = {
					has_government = monarchism
					NOT = { has_country_leader = { name = "Ali Yusuf Kenadid" ruling_only = yes } }
				}
				AND = {
					has_government = fascism
					NOT = { has_country_leader = { name = "Osman Mahamuud" ruling_only = yes } }
				}
			}
		}
		
		cost = 0
		
		complete_effect = {		
			if = {
				limit = { has_government = fascism }
				retire_country_leader = yes
				if = {
					limit = { NOT = { has_unit_leader = 30311 } }
					create_field_marshal = {
						name = "Olol Dinke"
						portrait_path = "gfx/leaders/SYR/Portrait_Arabia_Generic_land_1.dds"
						traits = { brilliant_strategist cavalry_officer offensive_doctrine cavalry_leader commando skirmisher desert_fox }
						skill = 5
						attack_skill = 5
						defense_skill = 6
						planning_skill = 4
						logistics_skill = 5
						
						id = 30311
					}
				}
				create_country_leader = {
					name = "Osman Mahamuud"
					desc = "POLITICS_OSMAN_MAHAMUUD_DESC"
					picture = "gfx/leaders/DARK/Portrait_DARK_Osman_Mahamuud.tga"
					ideology = fascism_ideology
					traits = {
						#
					}
				}
			}
			else_if = {
				limit = { has_government = monarchism }
				retire_country_leader = yes
				if = {
					limit = { NOT = { has_unit_leader = 30310 } }
					create_field_marshal = {
						name = "Omar Samanthar"
						portrait_path = "gfx/leaders/SYR/Portrait_Arabia_Generic_land_2.dds"
						traits = { brilliant_strategist cavalry_officer offensive_doctrine cavalry_leader cavalry_expert trickster desert_fox }
						skill = 5
						attack_skill = 6
						defense_skill = 5
						planning_skill = 4
						logistics_skill = 5
						
						id = 30310
					}
				}
				create_country_leader = {
					name = "Ali Yusuf Kenadid"
					desc = "POLITICS_ALI_YUSUF_KENADID_DESC"
					picture = "gfx/leaders/YEM/portrait_yem_imam_yaha.dds"
					ideology = despotism
					traits = {
						#
					}
				}
			}
		}
		
		ai_will_do = {
			base = 1000
		}
	}
}

	
	
	
	