foreign_politics = {
	POL_sue_for_peace_SOV = {	
		allowed = {
			original_tag = POL
		}
		available = {
			POL = {
		        is_subject = no
				has_war_with = SOV			
				OR = {
					surrender_progress > 0.5
					casualties > 50000
					NOT = {
						controls_state = 10
					}
				}
			}
			SOV = { 
				is_subject = no 
			} 
		}
		visible = {
			SOV = { has_focus_tree = ww1_ussr }
			has_war_with = SOV
			NOT = { has_global_flag = soviet_polish_war_truce }
		}
		cost = 0
		fire_only_once = yes
		ai_will_do = {
			factor = 100
		}
		complete_effect = {
			SOV = {
				country_event = { id = ww1_soviet.18 } #Белый мир.
			}
			set_global_flag = soviet_polish_war_truce
		}
	}
}