version="0.01"
tags={
	"Alternative History"
	"Balance"
	"Events"
	"Fixes"
	"Gameplay"
	"Graphics"
	"Historical"
	"Ideologies"
	"Map"
	"Military"
	"National Focuses"
	"Sound"
	"Technologies"
}
name="HOI4: Nerves of Steel (ALPHA)"
supported_version="1.10.8"
remote_file_id="2288665785"