
strategic_region={
	id=38
	name="STRATEGICREGION_38"
	provinces={
		17 243 266 279 281 334 348 362 388 389 395 402 417 442 466 467 493 506 524 548 562 584 3230 3288 3295 3324 3351 3380 3381 3384 3410 3458 3460 3482 3497 3521 3532 3544 3559 3586 6259 6321 6332 6347 6375 6401 6402 6416 6464 6484 6499 6511 6522 6558 6567 6580 9263 9290 9316 9327 9346 9372 9398 9400 9412 9427 9439 9452 9494 9508 9521 9532 9544 9546 11232 11245 11265 11385 11386 11398 11399 11413 11428 11430 11466 11492 11507 11515 11532 11558 12562 13205 13239 
	}
	weather={
		period={
			between={ 0.0 30.0 }
			temperature={ -17.0 8.0 }
			no_phenomenon=0.400
			rain_light=0.300
			rain_heavy=0.050
			snow=0.200
			blizzard=0.050
			arctic_water=0.000
			mud=1.000
			sandstorm=0.000
			min_snow_level=0.000
		}
		period={
			between={ 0.1 27.1 }
			temperature={ -16.0 9.0 }
			no_phenomenon=0.350
			rain_light=0.300
			rain_heavy=0.050
			snow=0.150
			blizzard=0.050
			arctic_water=0.000
			mud=1.000
			sandstorm=0.000
			min_snow_level=0.000
		}
		period={
			between={ 0.2 30.2 }
			temperature={ -8.0 13.0 }
			no_phenomenon=0.400
			rain_light=0.300
			rain_heavy=0.100
			snow=0.000
			blizzard=0.000
			arctic_water=0.000
			mud=1.000
			sandstorm=0.000
			min_snow_level=0.000
		}
		period={
			between={ 0.3 29.3 }
			temperature={ -1.0 16.0 }
			no_phenomenon=0.500
			rain_light=0.200
			rain_heavy=0.050
			snow=0.000
			blizzard=0.000
			arctic_water=0.000
			mud=1.000
			sandstorm=0.000
			min_snow_level=0.000
		}
		period={
			between={ 0.4 30.4 }
			temperature={ 5.0 23.0 }
			no_phenomenon=0.550
			rain_light=0.150
			rain_heavy=0.050
			snow=0.000
			blizzard=0.000
			arctic_water=0.000
			mud=1.000
			sandstorm=0.000
			min_snow_level=0.000
		}
		period={
			between={ 0.5 29.5 }
			temperature={ 10.0 24.0 }
			no_phenomenon=0.550
			rain_light=0.300
			rain_heavy=0.150
			snow=0.000
			blizzard=0.000
			arctic_water=0.000
			mud=1.000
			sandstorm=0.000
			min_snow_level=0.000
		}
		period={
			between={ 0.6 30.6 }
			temperature={ 11.0 26.0 }
			no_phenomenon=0.450
			rain_light=0.300
			rain_heavy=0.150
			snow=0.000
			blizzard=0.000
			arctic_water=0.000
			mud=1.000
			sandstorm=0.000
			min_snow_level=0.000
		}
		period={
			between={ 0.7 30.7 }
			temperature={ 10.0 26.0 }
			no_phenomenon=0.450
			rain_light=0.300
			rain_heavy=0.100
			snow=0.000
			blizzard=0.000
			arctic_water=0.000
			mud=1.000
			sandstorm=0.000
			min_snow_level=0.000
		}
		period={
			between={ 0.8 29.8 }
			temperature={ 5.0 22.0 }
			no_phenomenon=0.500
			rain_light=0.250
			rain_heavy=0.050
			snow=0.000
			blizzard=0.000
			arctic_water=0.000
			mud=1.000
			sandstorm=0.000
			min_snow_level=0.000
		}
		period={
			between={ 0.9 30.9 }
			temperature={ 0.0 16.0 }
			no_phenomenon=0.500
			rain_light=0.400
			rain_heavy=0.000
			snow=0.000
			blizzard=0.000
			arctic_water=0.000
			mud=1.000
			sandstorm=0.000
			min_snow_level=0.000
		}
		period={
			between={ 0.10 29.10 }
			temperature={ -6.0 12.0 }
			no_phenomenon=0.300
			rain_light=0.300
			rain_heavy=0.000
			snow=0.200
			blizzard=0.050
			arctic_water=0.000
			mud=1.000
			sandstorm=0.000
			min_snow_level=0.000
		}
		period={
			between={ 0.11 30.11 }
			temperature={ -11.0 8.0 }
			no_phenomenon=0.400
			rain_light=0.350
			rain_heavy=0.050
			snow=0.250
			blizzard=0.050
			arctic_water=0.000
			mud=1.000
			sandstorm=0.000
			min_snow_level=0.000
		}
	}
}
