ideas = {
	# MILITARY


	political_advisor = {
	
		CMR_pot = {

			picture = generic_political_advisor_african_2

			allowed = {
				original_tag = CMR
			}
			
			traits = { prince_of_terror }
		}

		CMR_coi = {

			picture = generic_political_advisor_african_1
				
			allowed = {
				original_tag = CMR
			}
			
			traits = { captain_of_industry }
		}

		CMR_stc = {

			picture = generic_political_advisor_african_3
			
			allowed = {
				original_tag = CMR
			}
			
			traits = { smooth_talking_charmer }
		}
	}

	army_chief = {

		CMR_aco2 = {

			picture = generic_army_african_4
			
			allowed = {
				original_tag = CMR
			}		
			
			traits = { army_chief_organizational_2 }
			
			ai_will_do = {
				factor = 1
			}
		}

		CMR_acd2 = {

			picture = generic_army_african_1
			
			allowed = {
				original_tag = CMR
			}
			
			traits = { army_chief_defensive_2 }
			
			ai_will_do = {
				factor = 1
			}
		}
	}

	air_chief = {

		CMR_acr = {

			picture = generic_air_african_3
			
			allowed = {
				original_tag = CMR
			}
			
			traits = { air_chief_reform_2 }
			
			ai_will_do = {
				factor = 1
			}
		}

		CMR_acgs = {

			picture = generic_air_african_3
			
			allowed = {
				original_tag = CMR
			}
			
			traits = { air_chief_ground_support_2 }
			
			ai_will_do = {
				factor = 1
			}
		}

	}

	navy_chief = {

		CMR_nccr = {

			picture = generic_navy_african_2
			
			allowed = {
				original_tag = CMR
			}
					
			traits = { navy_chief_commerce_raiding_2 }
			
			ai_will_do = {
				factor = 1
			}
		}

		CMR_ncm = {

			picture = generic_navy_african_3
			
			allowed = {
				original_tag = CMR
			}
					
			traits = { navy_chief_maneuver_2 }
			
			ai_will_do = {
				factor = 1
			}
		}
	}

	high_command = {

		CMR_ar = {
			ledger = army
			
			picture = generic_army_african_5
			
			allowed = {
				original_tag = CMR
			}
			
			traits = { army_regrouping_2 }
			
			ai_will_do = {
				factor = 1
			}
		}
		
		CMR_ai2 = {
			ledger = army

			picture = generic_army_african_3
			
			allowed = {
				original_tag = CMR
			}
			
			traits = { army_infantry_2 }
			
			ai_will_do = {
				factor = 1
			}
		}

		CMR_aa2 = {
			ledger = army

			picture = generic_army_african_2
			
			allowed = {
				original_tag = CMR
			}
			
			traits = { army_armored_2 }
			
			ai_will_do = {
				factor = 1
			}
		}

		CMR_acas = {
			ledger = air

			picture = generic_air_african_2
			
			allowed = {
				original_tag = CMR
			}
			
			traits = { air_close_air_support_2 }
			
			ai_will_do = {
				factor = 1
			}
		}

		CMR_ncs = {
			ledger = navy

			picture = generic_navy_african_2
			
			allowed = {
				original_tag = CMR
			}
			
			traits = { navy_capital_ship_2 }
			
			ai_will_do = {
				factor = 1
			}
		}
	}	

	theorist = {
		CMR_mt = {
			ledger = army
			
			picture = generic_army_african_6

			allowed = {
				original_tag = CMR
			}
			
			research_bonus = {
				land_doctrine = 0.10
			}
			
			traits = { military_theorist }
		}
		
		CMR_nt = {
			ledger = navy

			picture = generic_navy_african_3
			
			allowed = {
				original_tag = CMR
			}
			
			research_bonus = {
				naval_doctrine = 0.10
			}
			
			traits = { naval_theorist }
		}	

		CMR_awt = {
			ledger = air

			picture = generic_air_african_2
			
			allowed = {
				original_tag = CMR
			}
			
			research_bonus = {
				air_doctrine = 0.10
			}
			
			traits = { air_warfare_theorist }
		}

	}
}