ideas = {

	country = { 

		GRE_disloyalty_porte_1 = {
			allowed = { always = no }
			allowed_civil_war = {}
			removal_cost = -1
			modifier = {
				political_power_factor = -0.20
				consumer_goods_factor = 0.02
				stability_weekly = -0.005
			}
		}
		GRE_disloyalty_porte_2 = {
			allowed = { always = no }
			allowed_civil_war = {}
			removal_cost = -1
			modifier = {
				political_power_factor = -0.20
				consumer_goods_factor = 0.02
			}
		}
		GRE_disloyalty_porte_3 = {
			allowed = { always = no }
			allowed_civil_war = {}
			removal_cost = -1
			modifier = {
				political_power_factor = -0.20
			}
		}
		GRE_agrarian_society = {
				
			allowed = {
				original_tag = GRE
			}

			allowed_civil_war = {
				always = yes
			}

			picture = generic_agrarian_society
				
			removal_cost = -1
				
			modifier = {
				industrial_capacity_factory = -0.30
				conscription_factor = -0.45
			}
		}

		GRE_farmer_culture = {
				
			allowed = {
				original_tag = GRE
			}

			allowed_civil_war = {
				always = yes
			}

			picture = gre_agricultural_communes2
				
			removal_cost = -1
				
			modifier = {
				consumer_goods_factor = -0.05	
				stability_factor = 0.1
				political_power_factor = 0.05
				conscription_factor = -0.15
			}
		}

		GRE_industrializing_society	= {
				
			allowed = {
				original_tag = GRE
			}

			allowed_civil_war = {
				always = yes
			}

			picture = man_five_year_plan_industry
				
			removal_cost = -1
				
			modifier = {
				industrial_capacity_factory = 0.05
				conscription_factor = -0.07	
			}
		}

		GRE_agricultural_communes_idea = {
				
			allowed = {
				original_tag = GRE
			}

			allowed_civil_war = {
				always = yes
			}

			picture = gre_agricultural_communes
				
			removal_cost = -1
				
			modifier = {
				consumer_goods_factor = -0.05		
				conscription_factor = -0.07				
			}
		}

		GRE_farmer_managed_communes = {
				
			allowed = {
				original_tag = GRE
			}

			allowed_civil_war = {
				always = yes
			}

			picture = gre_agricultural_communes
				
			removal_cost = -1
				
			modifier = {
				consumer_goods_factor = -0.05	
				stability_factor = 0.1
				political_power_factor = 0.05
				conscription_factor = -0.15	
			}
		}

		GRE_industrializing_society_communist = {
				
			allowed = {
				original_tag = GRE
			}

			allowed_civil_war = {
				always = yes
			}

			picture = eng_spirit_of_the_industrial_revolution
				
			removal_cost = -1
				
			modifier = {
				stability_factor = 0.05
				industrial_capacity_factory = 0.05
				conscription_factor = -0.05
			}
		}

		GRE_rural_exodus = {
				
			allowed = {
				original_tag = GRE	
			}

			available = {
				has_war = no
			}

			allowed_civil_war = {
				always = no
			}

			picture = prc_low_popular_support3
				
			removal_cost = -1
				
			modifier = {
				production_speed_industrial_complex_factor = 0.15
				production_speed_dockyard_factor = 0.1
				production_speed_arms_factory_factor = 0.05
				production_speed_infrastructure_factor = 0.05
				political_power_factor = -0.25
			}
		}	

		GRE_command_economy = {
				
			allowed = {
				original_tag = GRE
				NOT = {
					has_war_with = GER
				}
			}

			allowed_civil_war = {
				always = yes
			}

			picture = generic_central_management
				
			removal_cost = -1
				
			modifier = {
				min_export = -0.15
				consumer_goods_factor = -0.05
			}
		}	

		GRE_debt_to_the_ifc = {
				
			allowed = {
				original_tag = GRE
			}

			allowed_civil_war = {
				NOT = {
					OR = { 
						has_government = communism
						has_government = fascism 
					}
				}
			}

			picture = gre_debt_to_the_ifc
				
			removal_cost = -1
				
			modifier = {
				stability_factor = -0.1	
				consumer_goods_factor = 0.15	
			}
		}

		GRE_debt_to_the_ifc_2 = {
				
			allowed = {
				original_tag = GRE
			}

			allowed_civil_war = {
				NOT = {
					OR = { 
						has_government = communism
						has_government = fascism 
					}
				}
			}

			picture = gre_debt_to_the_ifc
				
			removal_cost = -1
				
			modifier = {
				stability_factor = -0.1	
				consumer_goods_factor = 0.1	
			}
		}

		GRE_debt_to_the_ifc_3 = {
				
			allowed = {
				original_tag = GRE
			}

			allowed_civil_war = {
				NOT = {
					OR = { 
						has_government = communism
						has_government = fascism 
					}
				}
			}

			picture = gre_debt_to_the_ifc
				
			removal_cost = -1
				
			modifier = {
				stability_factor = -0.1	
				consumer_goods_factor = 0.05	
			}
		}

		GRE_schachtplan = {
				
			allowed = {
				original_tag = GRE
				NOT = {
					has_war_with = GER
				}
			}

			allowed_civil_war = {
				always = yes
			}

			picture = gre_schachtplan
				
			removal_cost = -1
				
			modifier = {
				economy_cost_factor = 0.25
				min_export = 0.3
				consumer_goods_factor = -0.1
				production_speed_industrial_complex_factor = 0.15			
			}
		}

		GRE_schachtplan_modified = {
				
			allowed = {
				original_tag = GRE
				NOT = {
					has_war_with = GER
				}
			}

			allowed_civil_war = {
				always = yes
			}

			picture = gre_schachtplan2
				
			removal_cost = -1
				
			modifier = {
				consumer_goods_factor = -0.05
				min_export = 0.1				
				production_speed_industrial_complex_factor = 0.15
				production_speed_arms_factory_factor = 0.05
			}
		}

		GRE_schachtplan_fascistised = {
				
			allowed = {
				original_tag = GRE
				NOT = {
					has_war_with = GER
				}
			}

			allowed_civil_war = {
				always = yes
			}

			picture = gre_schachtplan3
				
			removal_cost = -1
				
			modifier = {
				stability_factor = 0.1
				consumer_goods_factor = -0.05	
				political_power_factor	= 0.05				
			}
		}

		GRE_sophistry_and_science_idea = {
			removal_cost = -1
			
			allowed = {
				original_tag = GRE
			}

			allowed_civil_war = {
				always = yes
			}
			
			picture = generic_research_bonus

			removal_cost = -1
			
			modifier = {
				political_power_factor	= 0.05
				research_speed_factor = 0.05
			}
		}

		GRE_memories_of_the_anatolian_catastrophe = {
				
			allowed = {
				original_tag = GRE
				NOT = {
					has_defensive_war = yes
				}
			}

			allowed_civil_war = {
				always = yes
			}

			picture = gre_martyrs_of_the_anatolian_catastrophe
				
			removal_cost = -1
				
			modifier = {
				conscription_factor = -0.15	
				war_support_factor = -0.15		
			}
		}

		GRE_martyrs_of_the_anatolian_catastrophe = {
				
			allowed = {
				original_tag = GRE
			}

			allowed_civil_war = {
				always = yes
			}

			picture = gre_martyrs_of_the_anatolian_catastrophe
				
			removal_cost = -1
				
			modifier = {
				conscription_factor = 0.1	
				war_support_factor = 0.05		
			}
		}	

		GRE_megali_idea_triumphant = {
				
			allowed = {
				original_tag = GRE
			}

			allowed_civil_war = {
				always = yes
			}

			picture = generic_victors_of_ww1
				
			removal_cost = -1
				
			modifier = {
				conscription_factor = 0.15	
				war_support_factor = 0.1
				stability_factor = 0.15		
			}
		}		

		GRE_eon = {
				
			allowed = {
				original_tag = GRE
			}

			allowed_civil_war = {
				always = yes
			}

			picture = generic_manpower_bonus
				
			removal_cost = -1
				
			modifier = {
				war_support_factor = 0.1
				training_time_factor = -0.1
				neutrality_drift = 0.03
				fascism_drift = 0.01
			}
		}

		GRE_eon_fascist = {
				
			allowed = {
				original_tag = GRE
			}

			allowed_civil_war = {
				always = yes
			}

			picture = generic_manpower_bonus
				
			removal_cost = -1
				
			modifier = {
				war_support_factor = 0.1
				training_time_factor = -0.1
				fascism_drift = 0.03
			}
		}

		GRE_political_instability = {
				
			allowed = {
				original_tag = GRE
			}

			allowed_civil_war = {
				always = no
			}

			picture = gre_political_instability
				
			removal_cost = -1
				
			modifier = {
				political_power_factor	= -0.15		
			}
		}

		GRE_political_instability_dummy = { #dummy idea for the start up menu
			name = GRE_political_instability
			allowed = {
				original_tag = GRE
			}

			allowed_civil_war = {
				always = no
			}

			picture = gre_political_instability
				
			removal_cost = -1
				
			modifier = {
				political_power_factor	= -0.15		
			}
		}

		GRE_state_of_the_nation_monarchism = {
				
			allowed = {
				original_tag = GRE
			}

			allowed_civil_war = {
				always = no
			}

			picture = gre_political_instability
				
			removal_cost = -1
				
		}

		GRE_political_instability_republican = {
				
			allowed = {
				original_tag = GRE
			}

			allowed_civil_war = {
				always = no
			}

			picture = gre_political_instability_republican
				
			removal_cost = -1
				
			modifier = {
				political_power_factor	= -0.05
				war_support_factor = -0.25
			}
		}

		GRE_political_instability_republican_2 = {
				
			allowed = {
				original_tag = GRE
			}

			allowed_civil_war = {
				always = no
			}

			picture = gre_political_instability_republican
				
			removal_cost = -1
				
			modifier = {
				political_power_factor	= -0.05	
			}
		}

		GRE_state_of_the_nation_republican = {
				
			allowed = {
				original_tag = GRE
			}

			allowed_civil_war = {
				always = no
			}

			picture = gre_political_instability_republican
				
			removal_cost = -1
				
		}

		GRE_political_instability_communist = {
				
			allowed = {
				original_tag = GRE
			}

			allowed_civil_war = {
				always = no
			}

			picture = gre_political_instability_communism
				
			removal_cost = -1
				
			modifier = {
				political_power_factor	= -0.05	
				production_speed_buildings_factor = 0.05	
			}
		}

		GRE_state_of_the_nation_communism = {
				
			allowed = {
				original_tag = GRE
			}

			allowed_civil_war = {
				always = no
			}

			picture = gre_political_instability_communism
				
			removal_cost = -1
				
		}

		GRE_political_instability_metaxas = {
				
			allowed = {
				original_tag = GRE
			}

			allowed_civil_war = {
				always = no
			}

			picture = gre_political_instability_metaxism
				
			removal_cost = -1
				
			modifier = {
				political_power_factor	= -0.05	
			}
		}

		GRE_state_of_the_nation_metaxism = {
				
			allowed = {
				original_tag = GRE
			}

			allowed_civil_war = {
				always = no
			}

			picture = gre_political_instability_metaxism
				
			removal_cost = -1
				
		}

		GRE_political_instability_fascism = {
				
			allowed = {
				original_tag = GRE
			}

			allowed_civil_war = {
				always = no
			}

			picture = gre_political_instability_fascism
				
			removal_cost = -1
				
			modifier = {
				political_power_factor	= -0.05	
			}
		}

		GRE_state_of_the_nation_fascism = {
				
			allowed = {
				original_tag = GRE
			}

			allowed_civil_war = {
				always = no
			}

			picture = gre_political_instability_fascism
				
			removal_cost = -1
				
		}

		GRE_george_ii = {
				
			allowed = {
				original_tag = GRE
			}

			allowed_civil_war = { has_government = neutrality }	

			picture = gre_george_ii
				
			removal_cost = -1
				
			modifier = {
				stability_factor = -0.05
				neutrality_drift = 0.01	
			}
		}

		GRE_george_ii_restrained = {
				
			allowed = {
				original_tag = GRE
			}

			allowed_civil_war = { has_government = neutrality }	

			picture = gre_george_ii
				
			removal_cost = -1
				
			modifier = {
				stability_factor = 0.05		
			}
		}

		GRE_foreign_monopolies = {
				
			allowed = {
				original_tag = GRE
			}

			allowed_civil_war = {
				always = yes
			}

			picture = generic_exploit_mines
				
			removal_cost = -1
				
			modifier = {
				economy_cost_factor	= 0.25
				consumer_goods_factor = 0.2
				trade_opinion_factor = 0.25
			}
		}

		GRE_foreign_monopolies_2 = {
				
			allowed = {
				original_tag = GRE
			}

			allowed_civil_war = {
				always = yes
			}

			picture = generic_exploit_mines
				
			removal_cost = -1
				
			modifier = {
				economy_cost_factor	= 0.25
				consumer_goods_factor = 0.15
				trade_opinion_factor = 0.25
			}
		}

		GRE_foreign_monopolies_3 = {
				
			allowed = {
				original_tag = GRE
			}

			allowed_civil_war = {
				always = yes
			}

			picture = generic_exploit_mines
				
			removal_cost = -1
				
			modifier = {
				economy_cost_factor	= 0.25
				consumer_goods_factor = 0.1
				trade_opinion_factor = 0.25
			}
		}

		GRE_foreign_monopolies_4 = {
				
			allowed = {
				original_tag = GRE
			}

			allowed_civil_war = {
				always = yes
			}

			picture = generic_exploit_mines
				
			removal_cost = -1
				
			modifier = {
				economy_cost_factor	= 0.25
				consumer_goods_factor = 0.05
				trade_opinion_factor = 0.25
			}
		}

		GRE_cooperate_with_foreign_monopolies_spirit = {
				
			allowed = {
				original_tag = GRE
			}

			allowed_civil_war = {
				always = yes
			}

			picture = generic_deal_with_the_devil2
				
			removal_cost = -1
				
			modifier = {
				economy_cost_factor	= -0.25
				research_speed_factor = 0.05
				trade_opinion_factor = 0.3
			}
		}

		GRE_eee_in_government = {
				
			allowed = {
				original_tag = GRE
			}

			allowed_civil_war = {
				has_government = fascism
			}

			picture = generic_fascism_drift_bonus
				
			removal_cost = -1
				
			modifier = {
				stability_factor = 0.05
				fascism_drift = 0.05
			}
		}

		GRE_booming_tourism = {
				
			allowed = {
				original_tag = GRE
			}

			available = {
				has_war = no
			}

			allowed_civil_war = {
				always = no
			}

			picture = generic_air_bonus
				
			removal_cost = -1
				
			modifier = {
				stability_factor = 0.1	
				political_power_factor	= 0.15
				consumer_goods_factor = -0.05
			}
		}
		GRE_four_year_plan_spirit = {
		
			allowed = {
				original_tag = GRE
				has_war = no
				has_country_leader = {
					name = "Ioannis Metaxas"
					ruling_only = yes
				}	
			}

			allowed_civil_war = {
				always = no
			}

			picture = generic_production_bonus
				
			removal_cost = -1
				
			modifier = {
				production_speed_industrial_complex_factor = 0.25
				production_speed_arms_factory_factor = 0.15
				production_speed_dockyard_factor = 0.1
				production_speed_infrastructure_factor = 0.05
				political_power_factor = -0.1
			}
		}

		GRE_protectors_of_the_mediterranean_spirit = {
				
			allowed = {
				original_tag = GRE
			}

			allowed_civil_war = {
				always = yes
			}

			picture = YUG_federal_defense_council
				
			removal_cost = -1
				
			modifier = {
				army_core_defence_factor = 0.05
			}

			equipment_bonus = { 
				ship_hull_light = {
					build_cost_ic = -0.05 
					instant = yes
				}
			}
		}	

		GRE_ancient_talents = {
				
			allowed = {
				original_tag = GRE
			}

			allowed_civil_war = {
				always = yes
			}

			picture = generic_coastal_navy
				
			removal_cost = -1
				
			modifier = {
				navy_leader_cost_factor = -0.50
				navy_leader_start_level = 1
				navy_leader_start_defense_level = 2
				navy_leader_start_maneuvering_level = 2
			}
		}

		GRE_improving_our_defensive_lines = {
				
			allowed = {
				original_tag = GRE
			}

			allowed_civil_war = {
				always = yes
			}

			picture = ast_all_in
				
			removal_cost = -1
				
			modifier = {
				production_speed_bunker_factor = 0.3
				production_speed_coastal_bunker_factor = 0.15
			}
		}

		GRE_hellenic_army = { 
				
			allowed = {
				original_tag = GRE
			}

			allowed_civil_war = {
				always = yes
			}

			picture = generic_reserve_divisions
				
			removal_cost = -1
				
			modifier = {
				conscription = 0.002
			}
		}

		GRE_hellenic_army_2 = { 
				
			allowed = {
				original_tag = GRE
			}

			allowed_civil_war = {
				always = yes
			}

			picture = generic_reserve_divisions
				
			removal_cost = -1
				
			modifier = {
				army_morale_factor = 0.10
			}
		}

		GRE_hellenic_army_3 = { 
				
			allowed = {
				original_tag = GRE
			}

			allowed_civil_war = {
				always = yes
			}

			picture = generic_reserve_divisions
				
			removal_cost = -1
				
			modifier = {
				conscription = 0.002
				army_morale_factor = 0.10 
			}
		}		

		GRE_byzantine_army = { 	
				
			allowed = {
				original_tag = GRE
			}

			allowed_civil_war = {
				always = yes
			}

			picture = MEX_politicised_army
				
			removal_cost = -1
				
			modifier = {
				conscription = 0.004
				army_morale_factor = 0.10 
				land_reinforce_rate = 0.05
			}
		}

		GRE_hellenic_air_force_academy = {
			
			allowed = {
				always = no
			}

			allowed_civil_war = {
				always = yes
			}
			
			picture = generic_air_payment

			removal_cost = -1
			
			equipment_bonus = {
				fighter_equipment = {
					build_cost_ic = -0.05 instant = yes
				}
			}

			modifier = {
				air_ace_generation_chance_factor = 0.1
				air_accidents_factor = -0.1
			}
		}

		GRE_venerate_the_ancient_hellenes_spirit = {
				
			allowed = {
				original_tag = GRE
			}

			allowed_civil_war = {
				always = yes
			}

			picture = gre_venerate_the_ancient_hellenes
				
			removal_cost = -1
				
			modifier = {
				stability_factor = 0.05	
			}
		}

		GRE_venerate_the_ancient_hellenes_2 = {
				
			allowed = {
				original_tag = GRE
			}

			allowed_civil_war = {
				always = yes
			}

			picture = gre_venerate_the_ancient_hellenes_hoplite
				
			removal_cost = -1
				
			modifier = {
				stability_factor = 0.05
				army_core_defence_factor = 0.05
			}
		}														

		GRE_venerate_the_ancient_hellenes_3 = {
				
			allowed = {
				original_tag = GRE
			}

			allowed_civil_war = {
				always = yes
			}

			picture = gre_venerate_the_ancient_hellenes_plato
				
			removal_cost = -1
				
			modifier = {
				stability_factor = 0.05
				research_speed_factor = 0.05
			}
		}

		GRE_venerate_the_ancient_hellenes_4 = {
				
			allowed = {
				original_tag = GRE
			}

			allowed_civil_war = {
				always = yes
			}

			picture = gre_venerate_the_ancient_hellenes_alexander_the_great
				
			removal_cost = -1
				
			modifier = {
				stability_factor = 0.05
				command_power_gain_mult = 0.05
			}
		}

		GRE_venerate_the_ancient_hellenes_5 = {
				
			allowed = {
				original_tag = GRE
			}

			allowed_civil_war = {
				always = yes
			}

			picture = gre_venerate_the_ancient_hellenes_hoplite_plato
				
			removal_cost = -1
				
			modifier = {
				stability_factor = 0.05
				army_core_defence_factor = 0.05
				research_speed_factor = 0.05				
			}
		}

		GRE_venerate_the_ancient_hellenes_6 = {
				
			allowed = {
				original_tag = GRE
			}

			allowed_civil_war = {
				always = yes
			}

			picture = gre_venerate_the_ancient_hellenes_hoplite_alexander
				
			removal_cost = -1
				
			modifier = {
				stability_factor = 0.05
				army_core_defence_factor = 0.05
				command_power_gain_mult = 0.05

			}
		}

		GRE_venerate_the_ancient_hellenes_7 = {
				
			allowed = {
				original_tag = GRE
			}

			allowed_civil_war = {
				always = yes
			}

			picture = gre_venerate_the_ancient_hellenes_plato_alexander
				
			removal_cost = -1
				
			modifier = {
				stability_factor = 0.05
				research_speed_factor = 0.05
				command_power_gain_mult = 0.05
			}
		}

		GRE_venerate_the_ancient_hellenes_8 = {
				
			allowed = {
				original_tag = GRE
			}

			allowed_civil_war = {
				always = yes
			}

			picture = gre_venerate_the_ancient_hellenes_complete
				
			removal_cost = -1
				
			modifier = {
				stability_factor = 0.1
				army_core_defence_factor = 0.05
				research_speed_factor = 0.05
				command_power_gain_mult = 0.05				
			}
		}

		GRE_metaxism = {
				
			allowed = {
				original_tag = GRE
				NOT = {
					OR = { 
						has_government = communism
						has_government = fascism 
						has_government = democratic 
					}
				}
			}

			allowed_civil_war = {
				always = yes
			}

			picture = gre_metaxism
				
			removal_cost = -1
				
			modifier = {
				stability_factor = 0.05
				drift_defence_factor = 0.5
				generate_wargoal_tension = 1.00
				join_faction_tension = 1.00
				lend_lease_tension = 0.50
				send_volunteers_tension = 0.50
				guarantee_tension = 1.0
				ai_badass_factor = 0.01    # Will receive 1% of the threat from others
				ai_get_ally_desire_factor = -100				
			}
		}

		GRE_metaxism_2 = {
				
			allowed = {
				original_tag = GRE
				NOT = {
					OR = { 
						has_government = communism
						has_government = fascism 
						has_government = democratic 
					}
				}
			}

			allowed_civil_war = {
				always = yes
			}

			picture = gre_metaxism
				
			removal_cost = -1
				
			modifier = {
				stability_factor = 0.1
				drift_defence_factor = 0.5
				generate_wargoal_tension = 0.85
				join_faction_tension = 1.00
				lend_lease_tension = 0.25
				send_volunteers_tension = 0.25
				guarantee_tension = 1.0
				ai_badass_factor = 0.01    # Will receive 1% of the threat from others
				ai_get_ally_desire_factor = -100				
			}
		}

		GRE_metaxism_3 = {
				
			allowed = {
				original_tag = GRE
				NOT = {
					OR = { 
						has_government = communism
						has_government = fascism 
						has_government = democratic 
					}
				}
			}

			allowed_civil_war = {
				always = yes
			}

			picture = gre_metaxism
				
			removal_cost = -1
				
			modifier = {
				stability_factor = 0.15
				consumer_goods_factor = -0.05
				drift_defence_factor = 0.75
				generate_wargoal_tension = 0.75
				join_faction_tension = 0.75
				guarantee_tension = 1.0
				ai_badass_factor = 0.01    # Will receive 1% of the threat from others
				ai_get_ally_desire_factor = -100				
			}
		}

		GRE_metaxism_4 = {
				
			allowed = {
				original_tag = GRE
				NOT = {
					OR = { 
						has_government = communism
						has_government = fascism 
						has_government = democratic 
					}
				}
			}

			allowed_civil_war = {
				always = yes
			}

			picture = gre_metaxism
				
			removal_cost = -1
				
			modifier = {
				war_support_factor = 0.1				
				stability_factor = 0.15	
				consumer_goods_factor = -0.05
				drift_defence_factor = 0.75
				generate_wargoal_tension = 0.5
				join_faction_tension = 0.5
				guarantee_tension = 1.0
				ai_badass_factor = 0.01    # Will receive 1% of the threat from others
				ai_get_ally_desire_factor = -100				
			}
		}

		GRE_metaxism_5 = {
				
			allowed = {
				original_tag = GRE
				NOT = {
					OR = { 
						has_government = communism
						has_government = fascism 
						has_government = democratic 
					}
				}
			}

			allowed_civil_war = {
				always = yes
			}

			picture = gre_metaxism
				
			removal_cost = -1
				
			modifier = {
				war_support_factor = 0.15				
				stability_factor = 0.15	
				consumer_goods_factor = -0.05
				army_core_defence_factor = 0.1
				drift_defence_factor = 0.75
				generate_wargoal_tension = 0.25
				join_faction_tension = 0.5
				guarantee_tension = 1.0
				ai_badass_factor = 0.01    # Will receive 1% of the threat from others
				ai_get_ally_desire_factor = -100				
			}
		}

		GRE_metaxism_6 = {
				
			allowed = {
				original_tag = GRE
				has_country_leader = { 
					name = "Ioannis Metaxas"
					ruling_only = yes
				}
				NOT = {
					OR = { 
						has_government = communism
						has_government = democratic 
					}
				}
			}

			allowed_civil_war = {
				always = yes
			}

			picture = gre_metaxism_empowered
				
			removal_cost = -1
				
			modifier = {
				war_support_factor = 0.15				
				stability_factor = 0.15	
				consumer_goods_factor = -0.05
				army_core_defence_factor = 0.1
				conscription_factor = 0.15	
				drift_defence_factor = 1.00	
				neutrality_drift = 0.05				
			}
		}

		GRE_metaxism_7 = {
				
			allowed = {
				original_tag = GRE
				has_country_leader = { 
					name = "Ioannis Metaxas"
					ruling_only = yes
				}
				NOT = {
					OR = { 
						has_government = communism
						has_government = democratic 
					}
				}
			}

			allowed_civil_war = {
				always = yes
			}

			picture = gre_metaxism_empowered
				
			removal_cost = -1
				
			modifier = {
				war_support_factor = 0.15				
				stability_factor = 0.15	
				consumer_goods_factor = -0.05
				army_core_defence_factor = 0.1
				conscription_factor = 0.15	
				drift_defence_factor = 1.00	
				fascism_drift = 0.05				
			}
		}

		GRE_reviving_the_double_headed_eagle_spirit = {
				
			allowed = {
				original_tag = GRE
			}

			allowed_civil_war = {
				always = yes
			}

			picture = air_support_focus
				
			removal_cost = -1
				
			modifier = {			
				war_support_factor = 0.1
				political_power_factor	= 0.15			
			}
		}

		GRE_reviving_the_double_headed_eagle_2 = {
				
			allowed = {
				original_tag = GRE
			}

			allowed_civil_war = {
				always = yes
			}

			picture = air_support_focus
				
			removal_cost = -1
				
			modifier = {			
				war_support_factor = 0.15
				political_power_factor	= 0.15
				non_core_manpower = 0.1			
			}
		}
		
		GRE_socialist_economy_spirit = {
				
			allowed = {
				original_tag = GRE
			}

			allowed_civil_war = {
				always = yes
			}

			picture = home_of_revolution
				
			removal_cost = -1
				
			modifier = {			
				communism_drift = 0.05
				production_speed_industrial_complex_factor = 0.05		
			}
		}	

		GRE_socialist_economy_2 = {
				
			allowed = {
				original_tag = GRE
			}

			allowed_civil_war = {
				always = yes
			}

			picture = home_of_revolution
				
			removal_cost = -1
				
			modifier = {			
				communism_drift = 0.05
				political_power_factor = 0.05
				production_speed_industrial_complex_factor = 0.05		
			}
		}

		GRE_socialist_economy_3 = {
				
			allowed = {
				original_tag = GRE
			}

			allowed_civil_war = {
				always = yes
			}

			picture = home_of_revolution
				
			removal_cost = -1
				
			modifier = {			
				communism_drift = 0.05
				war_support_factor = 0.1
				production_speed_infrastructure_factor = 0.05
				production_speed_industrial_complex_factor = 0.05		
			}
		}

		GRE_socialist_economy_4 = {
				
			allowed = {
				original_tag = GRE
			}

			allowed_civil_war = {
				always = yes
			}

			picture = home_of_revolution
				
			removal_cost = -1
				
			modifier = {
				communism_drift = 0.1
				political_power_factor = 0.05
				production_speed_infrastructure_factor = 0.1
				production_speed_industrial_complex_factor = 0.1		
			}
		}

		GRE_cooperative_trade_unions = {
				
			allowed = {
				original_tag = GRE
			}

			allowed_civil_war = {
				always = no
			}

			picture = SOV_scientist_defect
				
			removal_cost = -1
				
			modifier = {		
				production_factory_efficiency_gain_factor = 0.1		
			}
		}		

		GRE_red_militias_spirit = {
				
			allowed = {
				original_tag = GRE
			}

			allowed_civil_war = {
				always = yes
			}

			picture = smersh
				
			removal_cost = -1
				
			modifier = {		
				communism_drift = 0.1	
				political_power_factor = 0.05
				conscription = 0.02		
			}
		}	

		GRE_red_militias_2 = {
				
			allowed = {
				original_tag = GRE
			}

			allowed_civil_war = {
				always = yes
			}

			picture = smersh
				
			removal_cost = -1
				
			modifier = {	
				communism_drift = 0.1	
				political_power_factor = 0.05
				conscription = 0.02
				army_morale_factor = 0.08		
			}
		}

		GRE_red_militias_3 = {
				
			allowed = {
				original_tag = GRE
			}

			allowed_civil_war = {
				always = yes
			}

			picture = smersh
				
			removal_cost = -1
				
			modifier = {
				communism_drift = 0.1
				political_power_factor = 0.05
				conscription = 0.03
				army_org_factor = 0.04	
			}
		}

		GRE_paying_off_debt_small = {
				
			allowed = {
				original_tag = GRE
			}

			allowed_civil_war = {
				always = yes
			}

			picture = generic_foreign_capital
				
			removal_cost = -1
				
			modifier = {
				consumer_goods_factor = 0.05		
				min_export = 0.1			
			}
		}

		GRE_paying_off_debt_large = {
				
			allowed = {
				original_tag = GRE
			}

			allowed_civil_war = {
				always = yes
			}

			picture = SPR_relocate_the_gold_reserves
				
			removal_cost = -1
				
			modifier = {
				consumer_goods_factor = 0.15		
				min_export = 0.25			
			}
		}

		GRE_communist_protests = { 
				
			allowed = {
				original_tag = GRE
			}

			allowed_civil_war = {
				always = yes
			}

			picture = generic_communism_drift_bonus
				
			removal_cost = -1
				
			modifier = {
				communism_drift = 0.05
			}
		}

		GRE_economic_fluctuations = {
				
			allowed = {
				original_tag = GRE
			}

			allowed_civil_war = {
				always = yes
			}

			picture = chi_hyper_inflation3
				
			removal_cost = -1
				
			modifier = {
				consumer_goods_factor = 0.1	
			}
		}

		GRE_small_investment = {
				
			allowed = {
				NOT = {
					has_war_with = GRE
				}
			}

			allowed_civil_war = {
				always = no
			}

			picture = generic_foreign_capital
				
			removal_cost = -1
				
			modifier = {
				consumer_goods_factor = 0.05
			}
		}

		GRE_moderate_investment = {
				
			allowed = {
				NOT = {
					has_war_with = GRE
				}
			}

			allowed_civil_war = {
				always = no
			}

			picture = generic_foreign_capital
				
			removal_cost = -1
				
			modifier = {
				consumer_goods_factor = 0.07
			}
		}

		GRE_heavy_investment = {
				
			allowed = {
				NOT = {
					has_war_with = GRE
				}
			}

			allowed_civil_war = {
				always = no
			}

			picture = generic_foreign_capital
				
			removal_cost = -1
				
			modifier = {
				consumer_goods_factor = 0.1
			}
		}

		GRE_security_batallions = {
				
			allowed = {
				original_tag = GRE
			}

			allowed_civil_war = {
				always = yes
			}

			picture = generic_oppression
				
			removal_cost = -1
				
			modifier = {
				resistance_damage_to_garrison = -0.25
				resistance_decay_on_our_occupied_states = -0.25
			}
		}

		GRE_battle_for_the_bosporus = { 
				
			allowed = {
				original_tag = GRE
			}

			picture = bul_supremacy_on_the_bosphorus
				
			removal_cost = -1
				
			targeted_modifier = {
				tag = TUR
				attack_bonus_against = 0.25
				defense_bonus_against = 0.15
			}
		}																													
	}	 													

	political_advisor = {

	GRE_damaskinos = {

		picture = generic_political_advisor_europe_5
		
		allowed = {
			original_tag = GRE
			NOT = { has_dlc = "Battle for the Bosporus" }
		}
		
		traits = { compassionate_gentleman }
	}

	GRE_georgios_papandreou = {

		picture = generic_political_advisor_europe_2
			
		allowed = {
			original_tag = GRE
			NOT = { has_dlc = "Battle for the Bosporus" }
		}
		
		traits = { silent_workhorse }
	}

	GRE_evripidis_bakirtris = {

		picture = generic_political_advisor_europe_3
		
		allowed = {
			original_tag = GRE
			NOT = { has_dlc = "Battle for the Bosporus" }
		}
		
		traits = { war_industrialist }
	}

	GRE_ioannis_metaxas = {

		picture = gre_ioannis_metaxas
		
		allowed = {
			original_tag = GRE
			has_dlc = "Battle for the Bosporus"
		}
		
		available = {	
			AND =  {
				OR =  {
					custom_trigger_tooltip = {
						tooltip = GRE_monarchists_friendly_or_loyal
						check_variable = { var = GRE_monarchist_loyalty value = 1 compare = greater_than_or_equals }
					}
					custom_trigger_tooltip = {
						tooltip = GRE_fascists_friendly_or_loyal
						check_variable = { var = GRE_fascist_loyalty value = 1 compare = greater_than_or_equals }
					}
				}
				NOT = {
					has_country_leader = {
						name = "Ioannis Metaxas"
						ruling_only = yes
					}
					has_country_flag = GRE_metaxas_is_dead_crab_rave_flag
				}
			}
		}

		traits = { devoted_corporatist }
	}

	GRE_konstantinos_maniadakis = {

		picture = generic_political_advisor_south_america_3
		
		allowed = {
			original_tag = GRE
			has_dlc = "Battle for the Bosporus"
		}

		available = {	
			OR =  {
				custom_trigger_tooltip = {
					tooltip = GRE_monarchists_friendly_or_loyal
					check_variable = { var = GRE_monarchist_loyalty value = 1 compare = greater_than_or_equals }
				}
				custom_trigger_tooltip = {
					tooltip = GRE_fascists_friendly_or_loyal
					check_variable = { var = GRE_fascist_loyalty value = 1 compare = greater_than_or_equals }
				}
			}
		}
		
		traits = { prince_of_terror }
	}

	GRE_georgios_papandreou_bftb = {

		name = GRE_georgios_papandreou

		picture = gre_george_papandreou
			
		allowed = {
			original_tag = GRE
			has_dlc = "Battle for the Bosporus"
		}
		
		available = {
			has_government = democratic
		}

		traits = { resolute_social_democrat }
	}

	GRE_konstantinos_tsaldaris = {

		picture = gre_konstantinos_tsaldaris
		
		allowed = {
			original_tag = GRE
			has_dlc = "Battle for the Bosporus"
		}

		available = {
			custom_trigger_tooltip = {
				tooltip = GRE_monarchists_friendly_or_loyal
				check_variable = { var = GRE_monarchist_loyalty value = 1 compare = greater_than_or_equals }
			}
		}
		
		traits = { sharp_tongued_lawyer }
	}

	GRE_aristeidis_dimitratos = {

		picture = generic_political_advisor_south_america_1
		
		allowed = {
			original_tag = GRE
			has_dlc = "Battle for the Bosporus"
		}

		available = {
			custom_trigger_tooltip = {
				tooltip = GRE_monarchists_friendly_or_loyal
				check_variable = { var = GRE_monarchist_loyalty value = 1 compare = greater_than_or_equals }
			}
		}
		
		traits = { war_industrialist }
	}

	GRE_emmanouil_tsouderos = {

		picture = gre_emmanouil_tsouderos
		
		allowed = {
			original_tag = GRE
			has_dlc = "Battle for the Bosporus"
		}

		available = {
			has_completed_focus = GRE_fiscal_responsibility
			NOT = {
				OR = { 
					has_government = communism
					has_country_leader = {
						name = "Emmanouil Tsouderos"
						ruling_only = yes
					}
				}
			}
		}
		
		traits = { financial_expert }
	}

	GRE_sophoklis_venizelos = {

		picture = gre_sophoklis_venizelos
		
		allowed = {
			original_tag = GRE
			has_dlc = "Battle for the Bosporus"
		}

		available = {
			custom_trigger_tooltip = {
				tooltip = GRE_republicans_friendly_or_loyal
				check_variable = { var = GRE_republican_loyalty value = 1 compare = greater_than_or_equals }
			}
		}
		
		traits = { backroom_backstabber }
	}

	GRE_aristotle_onassis = {

		picture = gre_aristotle_onassis
		
		allowed = {
			original_tag = GRE
			has_dlc = "Battle for the Bosporus"
		}

		available = {
			has_country_flag = onassis_proposition_accepted
			NOT = {
				has_country_leader = {
					name = "Aristotle Onassis"
					ruling_only = yes
				}
			}
		}

		visible = {
			has_country_flag = onassis_proposition_accepted
		}
		
		traits = { gifted_shipping_magnate }
	}

	GRE_xenophon_giosmas = {

		picture = gre_xenophon_giosmas
		
		allowed = {
			original_tag = GRE
			has_dlc = "Battle for the Bosporus"
		}

		available = {
			OR = { 
				has_government = fascism
				has_completed_focus = GRE_recruit_the_fascists
			}
		}
		
		traits = { national_socialist_paramilitarist }
	}

	GRE_dimitris_glinos = {

		picture = gre_dimitris_glinos
		
		allowed = {
			original_tag = GRE
			has_dlc = "Battle for the Bosporus"
		}

		available = {
			has_government = communism
		}
		
		traits = { marxist_academic }
	}					


	GRE_dimitrios_holevas = {

		picture = gre_dimitrios_holevas
		
		allowed = {
			original_tag = GRE
			has_dlc = "Battle for the Bosporus"
		}
		
		available = {
			custom_trigger_tooltip = {
				tooltip = GRE_communists_friendly_or_loyal
				check_variable = { var = GRE_communist_loyalty value = 1 compare = greater_than_or_equals }
			}
		}
		
		traits = { marxist_priest }
	}

	GRE_markos_vafiadis = {

		picture = gre_markos_vafiadis
		
		allowed = {
			original_tag = GRE
			has_dlc = "Battle for the Bosporus"
		}

		available = {
			custom_trigger_tooltip = {
				tooltip = GRE_communists_friendly_or_loyal
				check_variable = { var = GRE_communist_loyalty value = 1 compare = greater_than_or_equals }
			}
		}
		
		traits = { guerilla_warfare_expert }
	}

	GRE_father_dimistrios = {

			picture = gre_father_dimistrios
			
			allowed = {
				original_tag = GRE
				AND = {
					has_dlc = "La Resistance"
					has_dlc = "Battle for the Bosporus"
				}
			}

			available = {
				has_intelligence_agency = yes
			}
			
			traits = { head_of_intelligence }
		}
}	



theorist = {

	GRE_nikolaos_plastiras = {
		ledger = army
				
		picture = generic_army_europe_3

		allowed = {
			original_tag = GRE
			NOT = { has_dlc = "Battle for the Bosporus" }
		}
		
		research_bonus = {
			land_doctrine = 0.10
		}
		
		traits = { military_theorist }
	}

	GRE_eleftherios_venizelos = {
		ledger = air
				
		picture = generic_political_advisor_europe_1
			
		allowed = {
			original_tag = GRE
			NOT = { has_dlc = "Battle for the Bosporus" }
		}
		
		research_bonus = {
			air_doctrine = 0.10
		}
		
		traits = { air_warfare_theorist }
	}

	GRE_alexandros_papagos_theorist = {
			
		picture = gre_alexandros_papagos

		ledger = army
		
		allowed = {
			original_tag = GRE
			has_dlc = "Battle for the Bosporus"
		}
			
		available = {
			custom_trigger_tooltip = {
				tooltip = GRE_monarchists_friendly_or_loyal
				check_variable = { var = GRE_monarchist_loyalty value = 1 compare = greater_than_or_equals }
			}
		}

		traits = { army_chief_entrenchment_expert }

		research_bonus = {
			land_doctrine = 0.10
		}
		
		ai_will_do = {
			factor = 1
		}
	}

	GRE_konstantinos_ventiris_bftb = {
		
		name = GRE_konstantinos_ventiris

		picture = gre_konstantinos_ventiris

		ledger = army

		allowed = {
			original_tag = GRE
			has_dlc = "Battle for the Bosporus"
		}
		
		cost = 250
			
		research_bonus = {
			cat_grand_battle_plan = 0.15
		}
		
		traits = { grand_battle_plan_expert }
	}

	GRE_marinos_mitralexis = {
		ledger = air
				
		picture = generic_air_warfare_theorist_south_american_2d
			
		allowed = {
			original_tag = GRE
			has_dlc = "Battle for the Bosporus"
		}
		
		research_bonus = {
			air_doctrine = 0.10
		}
		
		traits = { air_warfare_theorist }
	}

	spyridon_avgeris = {
		ledger = navy
				
		picture = generic_navy_anti_submarine_eastern_european_2d
			
		allowed = {
			original_tag = GRE
			has_dlc = "Battle for the Bosporus"
		}
		
		research_bonus = {
			naval_doctrine = 0.10
		}
		
		traits = { naval_theorist }
	}
}
	# MILITARY
	army_chief = {
		
		GRE_alexander_papagos = {
			
			picture = generic_army_europe_3
			
			allowed = {
				original_tag = GRE
				NOT = { has_dlc = "Battle for the Bosporus" }
			}
			

			
			traits = { army_chief_offensive_2 }
			
			ai_will_do = {
				factor = 1
			}
		}

		GRE_konstantinos_ventiris = {
			
			picture = generic_army_europe_5
			
			allowed = {
				original_tag = GRE
				NOT = { has_dlc = "Battle for the Bosporus" }
			}
			

			
			traits = { army_chief_defensive_2 }
			
			ai_will_do = {
				factor = 1
			}
		}

		GRE_alexandros_papagos = {
			
			picture = gre_alexandros_papagos
			
			allowed = {
				original_tag = GRE
				has_dlc = "Battle for the Bosporus"
			}
			
			available = {
				custom_trigger_tooltip = {
					tooltip = GRE_monarchists_friendly_or_loyal
					check_variable = { var = GRE_monarchist_loyalty value = 1 compare = greater_than_or_equals }
				}
			}

			traits = { army_chief_defensive_2 }
			
			ai_will_do = {
				factor = 1
			}
		}
			
		GRE_georgios_tsolakoglou = {
			
			picture = gre_georgios_tsolakoglou
			
			allowed = {
				original_tag = GRE
				has_dlc = "Battle for the Bosporus"
			}
			
			available = {
				custom_trigger_tooltip = {
					tooltip = GRE_fascists_friendly_or_loyal
					check_variable = { var = GRE_fascist_loyalty value = 1 compare = greater_than_or_equals }
				}
			}
			
			traits = { army_chief_offensive_1 }
			
			ai_will_do = {
				factor = 1
			}
		}

		 GRE_nikolaos_plastiras_bftb = {
			ledger = army

			name = GRE_nikolaos_plastiras
			
			picture = gre_nikolaos_plastiras
			
			allowed = {
				original_tag = GRE
				has_dlc = "Battle for the Bosporus"
			}
			
			available = {
				custom_trigger_tooltip = {
					tooltip = GRE_republicans_friendly_or_loyal
					check_variable = { var = GRE_republican_loyalty value = 1 compare = greater_than_or_equals }
				}	
			}

			traits = { army_chief_maneuver_3 }
			
			ai_will_do = {
				factor = 1
			}
		}

		GRE_aris_velouchiotis_bftb = {

			name = GRE_aris_velouchiotis
			
			picture = gre_aris_velouchiotis
			
			allowed = {
				original_tag = GRE
				has_dlc = "Battle for the Bosporus"
			}

			available = {
				custom_trigger_tooltip = {
					tooltip = GRE_communists_friendly_or_loyal
					check_variable = { var = GRE_communist_loyalty value = 1 compare = greater_than_or_equals }
				}
			}
			
			traits = { army_chief_defensive_2 }
			
			ai_will_do = {
				factor = 1
			}
		}
	}

	air_chief = {
		
		
		GRE_panagiotis_gazis = {
			
			picture = generic_air_europe_1
			
			allowed = {
				original_tag = GRE
				NOT = { has_dlc = "Battle for the Bosporus" }
			}
			

			
			traits = { air_chief_reform_2 }
			
			ai_will_do = {
				factor = 1
			}
		}

		GRE_vasilios_tsarpalis = {
			
			picture = generic_air_europe_2
			
			allowed = {
				original_tag = GRE
				NOT = { has_dlc = "Battle for the Bosporus" }
			}
			

			
			traits = { air_chief_safety_2 }
			
			ai_will_do = {
				factor = 1
			}
		}

		GRE_panagiotis_gazis_bftb = {

			name = GRE_panagiotis_gazis
			
			picture = gre_panagiotis_gazis
			
			allowed = {
				original_tag = GRE
				has_dlc = "Battle for the Bosporus"
			}
			
			traits = { air_chief_reform_2 }
			
			ai_will_do = {
				factor = 1
			}
		}

		GRE_vasilios_tsarpalis_bftb = {

			name = GRE_vasilios_tsarpalis
			
			picture = gre_vasilios_tsarpalis
			
			allowed = {
				original_tag = GRE
				has_dlc = "Battle for the Bosporus"
			}
			
			traits = { air_chief_safety_2 }
			
			ai_will_do = {
				factor = 1
			}
		}
	}

	navy_chief = {
	
		
		GRE_alexandros_sakellariou = {
			
			picture = generic_navy_europe_1
			
			allowed = {
				original_tag = GRE
				NOT = { has_dlc = "Battle for the Bosporus" }
			}
			

			
			traits = { navy_chief_commerce_raiding_2 }
			
			ai_will_do = {
				factor = 1
			}
		}

		GRE_petros_voulgaris = {
			
			picture = generic_navy_europe_1
			
			allowed = {
				original_tag = GRE
				NOT = { has_dlc = "Battle for the Bosporus" }
			}
			

			
			traits = { navy_chief_maneuver_2 }
			
			ai_will_do = {
				factor = 1
			}
		}

		GRE_alexandros_sakellariou_bftb = {

			name = GRE_alexandros_sakellariou
			
			picture = gre_alexandros_sakellariou
			
			allowed = {
				original_tag = GRE
				has_dlc = "Battle for the Bosporus"
			}
			
			available = {
				custom_trigger_tooltip = {
					tooltip = GRE_monarchists_friendly_or_loyal
					check_variable = { var = GRE_monarchist_loyalty value = 1 compare = greater_than_or_equals }
				}		
			}

			traits = { navy_chief_decisive_battle_2 }
			
			ai_will_do = {
				factor = 1
			}
		}

		GRE_petros_voulgaris_bftb = {
			
			name = GRE_petros_voulgaris

			picture = gre_petros_voulgaris
			
			allowed = {
				original_tag = GRE
				has_dlc = "Battle for the Bosporus"
			}
			
			available = {
				custom_trigger_tooltip = {
					tooltip = GRE_republicans_friendly_or_loyal
					check_variable = { var = GRE_republican_loyalty value = 1 compare = greater_than_or_equals }
				}			
			}

			traits = { navy_chief_maneuver_2 }
			
			ai_will_do = {
				factor = 1
			}
		}
	}

	high_command = {

		GRE_aris_velouchiotis = {
			ledger = army
			
			allowed = {
				original_tag = GRE
				NOT = { has_dlc = "Battle for the Bosporus" }
			}
			
			picture = generic_army_europe_1
			
			traits = { army_artillery_2 }
			
			ai_will_do = {
				factor = 1
			}
		}
	
		GRE_napoleon_zervas = {
			ledger = army
			
			
			allowed = {
				original_tag = GRE
				NOT = { has_dlc = "Battle for the Bosporus" }
			}
			
			picture = generic_army_europe_2
			
			traits = { army_infantry_2 }
			
			ai_will_do = {
				factor = 1
			}
		}

		GRE_nikos_beloyannis = {
			ledger = navy
			
			
			allowed = {
				original_tag = GRE
				NOT = { has_dlc = "Battle for the Bosporus" }
			}
			
			picture = generic_air_europe_2
			
			traits = { air_naval_strike_2 }
			
			ai_will_do = {
				factor = 1
			}
		}

		GRE_aristeidis_moraitinis = {
			ledger = air
			
			
			allowed = {
				original_tag = GRE
				NOT = { has_dlc = "Battle for the Bosporus" }
			}
			
			picture = generic_air_europe_2
			
			traits = { air_bomber_interception_2 }
			
			ai_will_do = {
				factor = 1
			}
		}

		GRE_napoleon_zervas_bftb = {
			ledger = army

			name = GRE_napoleon_zervas	
			
			allowed = {
				original_tag = GRE
				has_dlc = "Battle for the Bosporus"
			}
			
			available = {
				OR = {
					custom_trigger_tooltip = {
						tooltip = GRE_republicans_friendly_or_loyal
						check_variable = { var = GRE_republican_loyalty value = 1 compare = greater_than_or_equals }
					}
					custom_trigger_tooltip = {
						tooltip = GRE_fascists_friendly_or_loyal
						check_variable = { var = GRE_fascist_loyalty value = 1 compare = greater_than_or_equals }
					}
				}
			}
			
			picture = gre_napoleon_zervas
			
			traits = { army_infantry_2 }
			
			ai_will_do = {
				factor = 1
			}
		}
	
		GRE_nikos_beloyannis_bftb = {
			ledger = army

			name = GRE_nikos_beloyannis
			
			allowed = {
				original_tag = GRE
				has_dlc = "Battle for the Bosporus"
			}
			
			available = {
				custom_trigger_tooltip = {
					tooltip = GRE_communists_friendly_or_loyal
					check_variable = { var = GRE_communist_loyalty value = 1 compare = greater_than_or_equals }
				}		
			}
			
			picture = gre_nikos_beloyannis
			
			traits = { army_regrouping_2 }
			
			ai_will_do = {
				factor = 1
			}
		}

		GRE_georgios_kosmas = {
			ledger = navy
			
			
			allowed = {
				original_tag = GRE
				has_dlc = "Battle for the Bosporus"
			}
			
			picture = gre_giorgios_kosmas
			
			traits = { army_artillery_2 }
			
			ai_will_do = {
				factor = 1
			}
		}

		GRE_epameinondas_kavvadias = {
			ledger = air
			
			picture = gre_epameinondas_kavvadias
			
			allowed = {
				original_tag = GRE
				has_dlc = "Battle for the Bosporus"
			}
			
			traits = { navy_screen_2 }
			
			ai_will_do = {
				factor = 1
			}
		}
			
		GRE_dimitrios_oikonomou = {
			
			picture = gre_dimitrios_oikonomou

			ledger = navy
			
			allowed = {
				original_tag = GRE
				has_dlc = "Battle for the Bosporus"
			}

			available = {
				custom_trigger_tooltip = {
					tooltip = GRE_monarchists_friendly_or_loyal
					check_variable = { var = GRE_monarchist_loyalty value = 1 compare = greater_than_or_equals }
				}
			}
			
			traits = { air_naval_strike_2 }
			
			ai_will_do = {
				factor = 1
			}
		}
	}

#DESIGNERS
	tank_manufacturer = { 
		
		designer = yes
		
		GRE_biamax = {
			
			picture = gre_biamax

			allowed = {
				original_tag = GRE
				has_dlc = "Battle for the Bosporus"
			}

			available = {
				has_completed_focus = GRE_crack_down_on_foreign_monopolies
			}
			
			research_bonus = {
				armor = 0.15
			}
			
			traits = { fast_tank_manufacturer }
				
			ai_will_do = {
				factor = 1
			}

			modifier = { 
				motorized_defence_factor = 0.05
				mechanized_defence_factor = 0.05
			}
		}

		GRE_man = {	

			picture = GER_MAN

			allowed = {
				original_tag = GRE
				has_dlc = "Battle for the Bosporus"
			}

			available = {
				NOT = { has_war_with = GER }
			}

			cost = 120
			
			research_bonus = {
				armor = 0.1
			}
			
			traits = { heavy_tank_manufacturer }
				
			ai_will_do = {
				factor = 1
			}
		}

		GRE_fiat = {	
		
			picture = fiat

			allowed = {
				original_tag = GRE
				has_dlc = "Battle for the Bosporus"
			}

			available = {
				has_completed_focus = GRE_rapprochement_with_the_italians
				NOT = { has_war_with = ITA }
			}

			cost = 120
			
			research_bonus = {
				armor = 0.1
			}
			
			traits = { infantry_tank_manufacturer }
				
			ai_will_do = {
				factor = 1
			}
		}

		GRE_vickers_armstrong = {
		
			picture = vickers_armstrong_eng

			allowed = {
				original_tag = GRE
				has_dlc = "Battle for the Bosporus"
			}

			available = {
				NOT = { has_war_with = ENG }
			}

			cost = 120
			
			research_bonus = {
				armor = 0.1
			}
			
			traits = { medium_tank_manufacturer }
				
			ai_will_do = {
				factor = 1
			}
		}
	}

	aircraft_manufacturer = { 
			
		designer = yes
		
		gnaf = {
			
			picture = generic_air_manufacturer_3

			
			allowed = {
				original_tag = GRE
			}
			
			research_bonus = {
				air_equipment = 0.15
			}
			
			traits = { light_aircraft_manufacturer_2 }
			
			# trainers for RAF, great handling
				
			ai_will_do = {
				factor = 1
			}
		}

		GRE_aekkea = {
			
			picture = gre_phaliron_aekka

			allowed = {
				original_tag = GRE
				has_dlc = "Battle for the Bosporus"
			}
			
			research_bonus = {
				air_equipment = 0.15
			}
			
			traits = { medium_aircraft_manufacturer }
				
			ai_will_do = {
				factor = 1
			}
		}

		GRE_phaliron_aircraft = {
			
			picture = gre_phaliron_aircraft
			
			allowed = {
				original_tag = GRE
				has_dlc = "Battle for the Bosporus"
			}
			
			research_bonus = {
				air_equipment = 0.15
			}
			
			traits = { CAS_manufacturer }
				
			ai_will_do = {
				factor = 1
			}
		}
	}

	naval_manufacturer = { 
			
		designer = yes
		
		royal_hellenic_naval_shipyard = {
			
			picture = generic_naval_manufacturer_1
			
			allowed = {
				original_tag = GRE
				NOT = { has_dlc = "Battle for the Bosporus" }
			}
			
			research_bonus = {
				naval_equipment = 0.15
			}
			
			traits = { naval_manufacturer }
		}

		GRE_royal_hellenic_naval_shipyard = {
			
			picture = gre_royal_hellenic_naval_shipyard
			
			allowed = {
				original_tag = GRE
				has_dlc = "Battle for the Bosporus"
			}

			available = {
				custom_trigger_tooltip = {
					tooltip = GRE_nation_is_monarchy_tt
					OR = {
						has_idea = GRE_george_ii
						has_idea = GRE_george_ii_restrained
						has_country_leader = { 
							name = "George II"
							ruling_only = yes
						}
						custom_trigger_tooltip = {
							tooltip = GRE_monarchists_friendly_or_loyal
							check_variable = { var = GRE_monarchist_loyalty value = 1 compare = greater_than_or_equals }
						}
					}
				}
			}
			
			research_bonus = {
				naval_equipment = 0.15
			}
			
			traits = { coastal_defence_naval_manufacturer }
		}

		GRE_basileiades = {
			
			picture = gre_basileiades
			
			allowed = {
				original_tag = GRE
				has_dlc = "Battle for the Bosporus"
			}
			
			research_bonus = {
				naval_equipment = 0.15
			}
			
			traits = { mediterranean_naval_manufacturer }
		}

		GRE_astilleros_onassis = {
			
			picture = gre_astilleros_onassis
			
			allowed = {
				original_tag = GRE
				has_dlc = "Battle for the Bosporus"
			}

			available = {
				OR = {
					has_country_leader = {
						name = "Aristotle Onassis"
						ruling_only = yes
					}
					has_idea = GRE_aristotle_onassis
				}
			}

			cost = 75
			
			research_bonus = {
				naval_equipment = 0.15
			}
			
			traits = { convoy_escort_naval_manufacturer }
		}
	}

	industrial_concern = {
		
		GRE_dep = {
			
			picture = gre_dep
		
			allowed = {
				original_tag = GRE
				has_dlc = "Battle for the Bosporus"
			}

			available = { 
				has_completed_focus = GRE_lignite_liquefaction
			}			
			
			research_bonus = {
				synth_resources = 0.1
			}
			
			traits = { refinery_concern }
			
			modifier = {
				fuel_gain_factor_from_states = 0.15
			}
		}

		GRE_english_electric = {
			
			picture = english_electric

			allowed = {
				original_tag = GRE
				has_dlc = "Battle for the Bosporus"
			}			

			available = { 
				has_completed_focus = GRE_cooperate_with_foreign_monopolies
				NOT = { has_war_with = ENG }
			}

			cost = 120
			
			research_bonus = {
				industry = 0.15
			}
			
			traits = { british_industrial_benefactor }
			
		}

		GRE_siemens = {
			
			picture = siemens

			allowed = {
				original_tag = GRE
				has_dlc = "Battle for the Bosporus"
			}

			available = { 
				has_completed_focus = GRE_cooperate_with_foreign_monopolies
				NOT = { has_war_with = GER }
			}

			cost = 120
			
			research_bonus = {
				electronics = 0.15
			}
			
			traits = { german_technological_patron }

			modifier = { 
				min_export = 0.05
			}
		}

		GRE_pitsos = {
			
			picture = gre_pitsos
		
			allowed = {
				original_tag = GRE
				has_dlc = "Battle for the Bosporus"
			}

			available = { 
				has_completed_focus = GRE_crack_down_on_foreign_monopolies
			}	
			
			research_bonus = {
				electronics = 0.05
			}
			
			traits = { electronics_developer }
			
			modifier = {
				consumer_goods_factor = -0.07
			}
		}

		GRE_aete = {
			
			picture = gre_aete

			allowed = {
				original_tag = GRE
				has_dlc = "Battle for the Bosporus"
			}

			available = { 
				has_completed_focus = GRE_crack_down_on_foreign_monopolies
			}
			
			research_bonus = {
				electronics = 0.1
			}
			
			traits = { electronics_developer }

			modifier = { 
				production_speed_radar_station_factor = 0.25
			}
		}

		GRE_neorion = {
			
			picture = gre_neorion
		
			allowed = {
				original_tag = GRE
				has_dlc = "Battle for the Bosporus"
			}

			available = { 
				has_completed_focus = GRE_crack_down_on_foreign_monopolies
			}		
			
			research_bonus = {
				industry = 0.1
			}
			
			traits = { construction_company }
			
			modifier = {
				production_speed_arms_factory_factor = 0.15
			}
		}
	}

	materiel_manufacturer = {
		
		designer = yes
		
		GRE_pyrkal = {

			picture = gre_pyrkal
			
			allowed = {
				original_tag = GRE
				has_dlc = "Battle for the Bosporus"
			}

			available = {
				has_completed_focus = GRE_crack_down_on_foreign_monopolies
			}
			
			research_bonus = {
				infantry_weapons = 0.15
			}
			
			traits = { infantry_equipment_manufacturer }
			
			modifier = {
				army_infantry_attack_factor = 0.05
			}
		}
		
		GRE_petropoulos = {

			picture = gre_petropoulos
			
			allowed = {
				original_tag = GRE
				has_dlc = "Battle for the Bosporus"
			}

			available = {
				has_completed_focus = GRE_crack_down_on_foreign_monopolies
			}
			
			research_bonus = {
				motorized_equipment = 0.15
			}
			
			traits = { motorized_equipment_manufacturer }

			modifier = {
				motorized_defence_factor = 0.1
			}
		}

		GRE_rsaf_enfield = {

			picture = rsaf_enfield
			
			allowed = {
				original_tag = GRE
				has_dlc = "Battle for the Bosporus"
			}

			available = {
				NOT = { has_war_with = ENG }
			}

			cost = 120
			
			research_bonus = {
				infantry_weapons = 0.1
			}
			
			traits = { infantry_equipment_manufacturer }
		}

		GRE_rheinmetall = {

			picture = rheinmetall
			
			allowed = {
				original_tag = GRE
				has_dlc = "Battle for the Bosporus"
			}

			available = {
				NOT = { has_war_with = GER }
			}

			cost = 120
			
			research_bonus = {
				artillery = 0.1
			}
			
			traits = { artillery_manufacturer }
		}

		GRE_ford_motor_company = {

			picture = ford_motor_company
			
			allowed = {
				original_tag = GRE
				has_dlc = "Battle for the Bosporus"
			}

			available = {
				NOT = { has_war_with = USA }
			}

			cost = 120

			research_bonus = {
				motorized_equipment = 0.1
			}
			
			traits = { motorized_equipment_manufacturer }
		}

		GRE_grabin_design_bureau = {

			picture = grabin_design_bureau
			
			allowed = {
				original_tag = GRE
				has_dlc = "Battle for the Bosporus"
			}

			available = {
				NOT = { has_war_with = SOV }
				has_completed_focus = GRE_appeal_to_the_soviet_union
			}

			cost = 120
			
			research_bonus = {
				artillery = 0.15
			}
			
			traits = { artillery_manufacturer }
		}
	}

	hidden_ideas = {

		GRE_friendly_monarchists = {

			allowed = {
				always = no
			}

			cancel = {
				check_variable = { GRE_monarchist_loyalty = 1 compare = less_than }
			}
			
			removal_cost = -1
			
			modifier = {
				stability_factor = 0.05
				conscription_factor = 0.15
			}

		}

		GRE_hostile_monarchists = {

			allowed = {
				always = no
			}

			cancel = {
				OR = {
					check_variable = { GRE_monarchist_loyalty = -1 compare = greater_than }
					check_variable = { GRE_monarchist_loyalty = -1 compare = less_than }
				}
			}
			
			removal_cost = -1
			
			modifier = {
				stability_factor = -0.15
			}

		}

		GRE_friendly_republicans = {

			allowed = {
				always = no
			}

			cancel = {
				check_variable = { GRE_republican_loyalty = 1 compare = less_than }
			}
			
			removal_cost = -1
			
			modifier = {
				stability_factor = 0.05
				conscription_factor = 0.15
			}

		}

		GRE_hostile_republicans = {

			allowed = {
				always = no
			}

			cancel = {
				OR = {
					check_variable = { GRE_republican_loyalty = -1 compare = greater_than }
					check_variable = { GRE_republican_loyalty = -1 compare = less_than }
				}
			}
			
			removal_cost = -1
			
			modifier = {
				stability_factor = -0.15
			}

		}

		GRE_friendly_communists = {

			allowed = {
				always = no
			}

			cancel = {
				check_variable = { GRE_communist_loyalty = 1 compare = less_than }
			}
			
			removal_cost = -1
			
			modifier = {
				stability_factor = 0.05
				conscription_factor = 0.15
			}

		}

		GRE_hostile_communists = {

			allowed = {
				always = no
			}

			cancel = {
				OR = {
					check_variable = { GRE_communist_loyalty = -1 compare = greater_than }
					check_variable = { GRE_communist_loyalty = -1 compare = less_than }
				}
			}
			
			removal_cost = -1
			
			modifier = {
				stability_factor = -0.15
			}

		}

		GRE_friendly_fascists = {

			allowed = {
				always = no
			}

			cancel = {
				check_variable = { GRE_fascist_loyalty = 1 compare = less_than }
			}
			
			removal_cost = -1
			
			modifier = {
				stability_factor = 0.05
				conscription_factor = 0.15
			}

		}

		GRE_hostile_fascists = {

			allowed = {
				always = no
			}

			cancel = {
				OR = {
					check_variable = { GRE_fascist_loyalty = -1 compare = greater_than }
					check_variable = { GRE_fascist_loyalty = -1 compare = less_than }
				}
			}
			
			removal_cost = -1
			
			modifier = {
				stability_factor = -0.15
			}

		}

	}
}