ideas = {

	political_advisor = {
	
		HAN_pot = {

			picture = generic_political_advisor_europe_1

			allowed = {
				original_tag = HAN
			}
			
			traits = { prince_of_terror }
		}

		HAN_pf = {

			picture = generic_political_advisor_europe_2
				
			allowed = {
				original_tag = HAN
			}
			
			traits = { popular_figurehead }
		}

		HAN_coi = {

			picture = generic_political_advisor_europe_3
			
			allowed = {
				original_tag = HAN
			}
			
			traits = { captain_of_industry }
		}
		HAN_wi = {

			picture = generic_political_advisor_europe_3
			
			allowed = {
				original_tag = HAN
			}
			
			traits = { war_industrialist }
		}
	}
	

	army_chief = {
		
		HAN_aco = {
			picture = generic_army_europe_1
			
			allowed = {
				original_tag = HAN
			}
			

			
			traits = { army_chief_offensive_2 }
			
			ai_will_do = {
				factor = 1
			}
		}

		HAN_acd = {
			picture = generic_army_europe_2
			
			allowed = {
				original_tag = HAN
			}
			

			
			traits = { army_chief_defensive_2 }
			
			ai_will_do = {
				factor = 1
			}
		}
		
		HAN_man = {
			picture = generic_army_europe_1
			
			allowed = {
				original_tag = HAN
			}
			

			
			traits = { army_chief_maneuver_2 }
			
			ai_will_do = {
				factor = 1
			}
		}

		HAN_ent = {
			picture = generic_army_europe_2
			
			allowed = {
				original_tag = HAN
			}
			

			
			traits = { army_entrenchment_2 }
			
			ai_will_do = {
				factor = 1
			}
		}
	}

	air_chief = {
		
		HANACR = {
			picture = generic_air_europe_1
			
			allowed = {
				original_tag = HAN
			}
			

			
			traits = { air_chief_reform_2 }
			
			ai_will_do = {
				factor = 1
			}
		}

		HAN_acgs = {
			picture = generic_air_europe_2
			
			allowed = {
				original_tag = HAN
			}
		
			traits = { air_chief_ground_support_2 }
			
			ai_will_do = {
				factor = 1
			}
		}


	}

	navy_chief = {
		
		HAN_ncdb = {
			picture = generic_navy_europe_1
			
			allowed = {
				original_tag = HAN
			}
			

			
			traits = { navy_chief_decisive_battle_2 }
			
			ai_will_do = {
				factor = 1
			}
		}

		HAN_ncav = {
			picture = generic_navy_europe_3
			
			allowed = {
				original_tag = HAN
			}
		
			traits = { navy_chief_naval_aviation_2 }
			
			ai_will_do = {
				factor = 1
			}
		}


	}

	high_command = {

		HAN_inf = {
			ledger = army
			picture = generic_army_europe_1
			
			allowed = {
				original_tag = HAN
			}
		
			traits = { army_infantry_2 }
			
			ai_will_do = {
				factor = 1
			}
		}
		
		HAN_abi = {
			ledger = air

			picture = generic_air_europe_2
			
			allowed = {
				original_tag = HAN
			}
			
			traits = { air_bomber_interception_2 }
			
			ai_will_do = {
				factor = 1
			}
		}

		HAN_arg = {
			ledger = army

			picture = generic_army_europe_4
			
			allowed = {
				original_tag = HAN
			}
			
			traits = { army_regrouping_2 }
			
			ai_will_do = {
				factor = 1
			}
		}

		HAN_acom = {
			ledger = army

			picture = generic_army_europe_5
			
			allowed = {
				original_tag = HAN
			}
			
			traits = { army_commando_2 }
			
			ai_will_do = {
				factor = 1
			}
		}
	}

	theorist = {
		HAN_mt = {
			ledger = army
			
			picture = generic_army_europe_3

			allowed = {
				original_tag = HAN
			}
			
			research_bonus = {
				land_doctrine = 0.10
			}
			
			traits = { military_theorist }
		}
		
		HAN_at = {
			ledger = air
			
			picture = generic_air_europe_1
			
			allowed = {
				original_tag = HAN
			}
			
			research_bonus = {
				air_doctrine = 0.10
			}
			
			traits = { air_warfare_theorist }
		}
		HAN_nt = {
			ledger = navy
			
			picture = generic_navy_europe_1
			
			allowed = {
				original_tag = HAN
			}
			
			research_bonus = {
				naval_doctrine = 0.10
			}
			
			traits = { naval_theorist }
		}

	}
}