ideas = {
	# MILITARY


	political_advisor = {
	
		IVO_pot = {

			picture = generic_political_advisor_african_2

			allowed = {
				original_tag = IVO
			}
			
			traits = { prince_of_terror }
		}

		IVO_coi = {

			picture = generic_political_advisor_african_1
				
			allowed = {
				original_tag = IVO
			}
			
			traits = { captain_of_industry }
		}

		IVO_stc = {

			picture = generic_political_advisor_african_3
			
			allowed = {
				original_tag = IVO
			}
			
			traits = { smooth_talking_charmer }
		}
	}

	army_chief = {

		IVO_aco2 = {

			picture = generic_army_african_4
			
			allowed = {
				original_tag = IVO
			}		
			
			traits = { army_chief_organizational_2 }
			
			ai_will_do = {
				factor = 1
			}
		}

		IVO_acd2 = {

			picture = generic_army_african_1
			
			allowed = {
				original_tag = IVO
			}
			
			traits = { army_chief_defensive_2 }
			
			ai_will_do = {
				factor = 1
			}
		}
	}

	air_chief = {

		IVO_acr = {

			picture = generic_air_african_3
			
			allowed = {
				original_tag = IVO
			}
			
			traits = { air_chief_reform_2 }
			
			ai_will_do = {
				factor = 1
			}
		}

		IVO_acgs = {

			picture = generic_air_african_3
			
			allowed = {
				original_tag = IVO
			}
			
			traits = { air_chief_ground_support_2 }
			
			ai_will_do = {
				factor = 1
			}
		}

	}

	navy_chief = {

		IVO_nccr = {

			picture = generic_navy_african_2
			
			allowed = {
				original_tag = IVO
			}
					
			traits = { navy_chief_commerce_raiding_2 }
			
			ai_will_do = {
				factor = 1
			}
		}

		IVO_ncm = {

			picture = generic_navy_african_3
			
			allowed = {
				original_tag = IVO
			}
					
			traits = { navy_chief_maneuver_2 }
			
			ai_will_do = {
				factor = 1
			}
		}
	}

	high_command = {

		IVO_ar = {
			ledger = army
			
			picture = generic_army_african_5
			
			allowed = {
				original_tag = IVO
			}
			
			traits = { army_regrouping_2 }
			
			ai_will_do = {
				factor = 1
			}
		}
		
		IVO_ai2 = {
			ledger = army

			picture = generic_army_african_3
			
			allowed = {
				original_tag = IVO
			}
			
			traits = { army_infantry_2 }
			
			ai_will_do = {
				factor = 1
			}
		}

		IVO_aa2 = {
			ledger = army

			picture = generic_army_african_2
			
			allowed = {
				original_tag = IVO
			}
			
			traits = { army_armored_2 }
			
			ai_will_do = {
				factor = 1
			}
		}

		IVO_acas = {
			ledger = air

			picture = generic_air_african_2
			
			allowed = {
				original_tag = IVO
			}
			
			traits = { air_close_air_support_2 }
			
			ai_will_do = {
				factor = 1
			}
		}

		IVO_ncs = {
			ledger = navy

			picture = generic_navy_african_2
			
			allowed = {
				original_tag = IVO
			}
			
			traits = { navy_capital_ship_2 }
			
			ai_will_do = {
				factor = 1
			}
		}
	}	

	theorist = {
		IVO_mt = {
			ledger = army
			
			picture = generic_army_african_6

			allowed = {
				original_tag = IVO
			}
			
			research_bonus = {
				land_doctrine = 0.10
			}
			
			traits = { military_theorist }
		}
		
		IVO_nt = {
			ledger = navy

			picture = generic_navy_african_3
			
			allowed = {
				original_tag = IVO
			}
			
			research_bonus = {
				naval_doctrine = 0.10
			}
			
			traits = { naval_theorist }
		}	

		IVO_awt = {
			ledger = air

			picture = generic_air_african_2
			
			allowed = {
				original_tag = IVO
			}
			
			research_bonus = {
				air_doctrine = 0.10
			}
			
			traits = { air_warfare_theorist }
		}

	}
}