focus_tree = {
	id = ww1_britain
	country = {
		factor = 0
		modifier = {
			add = 10
			original_tag = ENG
		}
	}
	default = no
	focus = {
		id = ENG_ww1_look_towards_the_future
		search_filters = { FOCUS_FILTER_INTERNAL_AFFAIRS } 
		icon = GFX_nosgoals_ENG_imperialconference
		x = 45
		y = 10
		cost = 10
		available_if_capitulated = no
		ai_will_do = {
			factor = 9000
		}
		available = {
			date > 1935.1.1
		}
		completion_reward = {
			if = {
				limit = { has_democratic_government = yes }
				load_focus_tree = ww2_britain
			}
			else = {
				load_focus_tree = ww2_generic
			}
			hidden_effect = {
				remove_ideas = {
					foreign_isolationism
					eng_fleet_at_rest
					ww1_Scramble_for_Africa
					liberal_conservative_government
					pax_britannica
					ENG_Staff
					african_settlement
				}
			}
		}
	}

	focus = {
		id = ENG_Pax_Britannica
		search_filters = { FOCUS_FILTER_INTERNAL_AFFAIRS FOCUS_FILTER_POLITICAL } 
		icon = GFX_hoi4tgw_britania
		cost = 10
		mutually_exclusive = {
			focus = ENG_Engage_Continental
		}
		available = {
			NOT = { OR = {
			has_war_with = GER
			has_war_with = FRA
			has_war_with = RUS
			has_war_with = BEL
			} }
		}
		x = 33
		y = 0
		completion_reward = {
			custom_effect_tooltip = eng_ww1_government_fall
			add_threat = -2
			add_war_support = -0.1
			add_ideas = pax_britannica
			hidden_effect = {
			FRA = { add_ideas = ENG_france_on_their_own }
				add_ai_strategy = {
					type = alliance
					id = FRA
					value = -200
				}
				add_ai_strategy = {
					type = befriend
					id = FRA
					value = -200
				}
				add_ai_strategy = {
					type = protect
					id = FRA
					value = -200
				}
				add_ai_strategy = {
					type = alliance
					id = HOL
					value = -200
				}
				add_ai_strategy = {
					type = befriend
					id = HOL
					value = -200
				}
				add_ai_strategy = {
					type = protect
					id = HOL
					value = -200
				}
				add_ai_strategy = {
					type = alliance
					id = BEL
					value = -200
				}
				add_ai_strategy = {
					type = befriend
					id = BEL
					value = -200
				}
				add_ai_strategy = {
					type = protect
					id = BEL
					value = -200
				}
				add_ai_strategy = {
					type = alliance
					id = LUX
					value = -200
				}
				add_ai_strategy = {
					type = befriend
					id = LUX
					value = -200
				}
				add_ai_strategy = {
					type = protect
					id = LUX
					value = -200
				}
				add_ai_strategy = {
					type = alliance
					id = DEN
					value = -200
				}
				add_ai_strategy = {
					type = befriend
					id = DEN
					value = -200
				}
				add_ai_strategy = {
					type = protect
					id = DEN
					value = -200
				}
				add_ai_strategy = {
					type = alliance
					id = NOR
					value = -200
				}
				add_ai_strategy = {
					type = befriend
					id = NOR
					value = -200
				}
				add_ai_strategy = {
					type = protect
					id = NOR
					value = -200
				}
			}
		}
		ai_will_do = {
			factor = 220
			modifier = {
				factor = 0
				threat < 0.1
			}
			modifier = {
				add = 180
				OR = {
					GER = { has_completed_focus = GER_contain_kaiser }
					RUS = { has_completed_focus = RUS_spirit_of_social_populism }
				}
			}
		}
	}
	focus = {
		id = ENG_Engage_Continental
		search_filters = { FOCUS_FILTER_POLITICAL } 
		icon = GFX_focus_belgium_flag_and_shield
		cost = 5
		mutually_exclusive = {
			focus = ENG_Pax_Britannica
		}
		x = 47
		y = 0
		available = {
			OR = {
				threat > 0.01
				GER = { has_war = yes }
			}
		}
		continue_if_invalid = yes
		completion_reward = {
			add_war_support = 0.1
		}
		ai_will_do = { 
			factor = 300
			modifier = {
				factor = 0
				threat < 0.1
			}
		}
	}
	focus = {
		id = ENG_Legacy_Of_Industrial_Revolution
		search_filters = { FOCUS_FILTER_INDUSTRY } 
		icon = GFX_focus_generic_industry_3
		cost = 10
		x = 18
		y = 0
		available = {
			has_full_control_of_state = 126
		}
		completion_reward = {
			every_state = {
				limit = { region = 1 }
				add_building_construction = {
					type = infrastructure
					level = 1
					instant_build = yes
				}
			}
		}
		ai_will_do = { 
			factor = 50
		}
	}
	focus = {
		id = ENG_free_saf
		search_filters = { FOCUS_FILTER_INTERNAL_AFFAIRS } 
		icon = GFX_goal_tfv_saf_secure_interests_in_africa
		cost = 5
		x = 3
		y = 0
		cancel_if_invalid = yes
		continue_if_invalid = no
		available_if_capitulated = no
		available = {
			has_full_control_of_state = 275
		}
		bypass = { 
			SAF = { is_subject = no } 
		}
		completion_reward = {
			SAF = { transfer_state = 275 }
			if = {
				limit = {
					has_dlc = "Together for Victory"
				}
				ENG = {
					set_autonomy = {
						target = SAF
						autonomous_state = autonomy_crown_colony
						freedom_level = 0.75
					}
				}
			}
			news_event = ww1_england.101
		}
		ai_will_do = { 
			factor = 200
		}
	}
	focus = {
		id = ENG_imperial_general_staff
		search_filters = { FOCUS_FILTER_MANPOWER } 
		icon = GFX_focus_generic_military_mission
		cost = 10
		x = 12
		y = 0
		completion_reward = {
			add_ideas = ENG_Staff
		}
	}
	focus = {
		id = ENG_naval_focus
		search_filters = { FOCUS_FILTER_MANPOWER } 
		icon = GFX_goal_generic_navy_doctrines_tactics
		cost = 10
		x = 7
		y = 0
		completion_reward = {
			navy_experience = 20
		}
	}
	focus = {
		id = ENG_Boer_Blues
		search_filters = { FOCUS_FILTER_MANPOWER } 
		icon = GFX_goal_cihad
		cost = 10
		prerequisite = {
			focus = ENG_free_saf
		}
		x = 1
		y = 1
		completion_reward = {
			army_experience = 20
		}
	}
	focus = {
		id = ENG_africa_regionalism
		search_filters = { FOCUS_FILTER_INTERNAL_AFFAIRS } 
		icon = GFX_focus_generic_voting
		cost = 10
		prerequisite = {
			focus = ENG_Boer_Blues
		}
		mutually_exclusive = {
			focus = ENG_encourage_africa_colony
		}
		x = 0
		y = 2
		available = { SAF = { is_subject_of = ENG } }
		completion_reward = {
			army_experience = 10
			navy_experience = 10
			air_experience = 10
			SAF = {
				transfer_state = 542
				add_ideas = ENG_trusted_with_government
				hidden_effect = { add_equipment_to_stockpile = { type = infantry_equipment amount = 1500 producer = ENG } }
			}
		}
	}
	focus = {
		id = ENG_encourage_africa_colony
		search_filters = { FOCUS_FILTER_MANPOWER } 
		icon = GFX_focus_eng_global_defense
		cost = 10
		prerequisite = {
			focus = ENG_Boer_Blues
		}
		mutually_exclusive = {
			focus = ENG_africa_regionalism
		}
		x = 2
		y = 2
		completion_reward = {
			add_ideas = african_settlement
		}

	}
	focus = {
		id = ENG_mozambique_bush_war
		search_filters = { FOCUS_FILTER_ANNEXATION } 
		icon = GFX_focus_eng_mozambique
		cost = 10
		ai_will_do = { factor = 6 }
		prerequisite = {
			focus = ENG_encourage_africa_colony
			focus = ENG_africa_regionalism
		}
		available = {
			has_global_flag = kis_war
			OR = {
				has_government = fascism
				has_government = neutrality
				has_government = monarchism
			}
			NOT = { is_in_faction_with = POR }
			POR = { owns_state = 544 }
		}
		x = 2
		y = 3
		completion_reward = {
			custom_effect_tooltip = explain_mozambique_affair_eng
			add_war_support = 0.10
			POR = { 
				country_event = { id = ww1_england.127 days = 1 }
			}
			hidden_effect = {
				add_state_claim = 544
			}
		}
	}
	focus = {
		id = ENG_Kenyan_Farmland
		search_filters = { FOCUS_FILTER_INDUSTRY } 
		icon = GFX_focus_generic_africa_factory
		cost = 10
		prerequisite = {
			focus = ENG_encourage_africa_colony
		}
		x = 4
		y = 3
		available = { has_full_control_of_state = 547 }
		completion_reward = {
			547 = {
				add_extra_state_shared_building_slots = 1
				add_building_construction = {
					type = industrial_complex
					level = 1
					instant_build = yes
				}
			}
		}
	}
	focus = {
		id = ENG_Fortify_Namibia
		search_filters = { FOCUS_FILTER_INDUSTRY } 
		icon = GFX_goal_generic_fortify_city
		cost = 10
		prerequisite = {
			focus = ENG_Kenyan_Farmland
			focus = ENG_africa_regionalism
		}
		x = 1
		y = 4
		available = {
			OR = {
				SAF = { has_full_control_of_state = 681 }
				has_full_control_of_state = 681
			}
			OR = {
				SAF = { has_full_control_of_state = 542 }
				has_full_control_of_state = 542
			}
		}
		completion_reward = {
			681 = {
				add_building_construction = {
					type = bunker
					level = 1
					province = 4528
					instant_build = yes
				}
				add_building_construction = {
					type = bunker
					level = 1
					province = 10442
					instant_build = yes
				}
				add_building_construction = {
					type = bunker
					level = 1
					province = 5203
					instant_build = yes
				}
			}
			542 = {
				add_building_construction = {
					type = bunker
					level = 1
					province = 12940
					instant_build = yes
				}
				add_building_construction = {
					type = bunker
					level = 1
					province = 1580
					instant_build = yes
				}
			}
		}

	}
	focus = {
		id = ENG_Cape_To_Cairo
		search_filters = { FOCUS_FILTER_INDUSTRY } 
		icon = GFX_focus_generic_africa_infrastructure
		cost = 30
		prerequisite = {
			focus = ENG_africa_regionalism
			focus = ENG_Kenyan_Farmland
		}
		prerequisite = {
			focus = ENG_Fortify_Namibia
		}
		x = 0
		y = 5
		available = {
			owns_state = 546
			owns_state = 547
			NOT = {
				any_state = {
					is_on_continent = africa
					is_owned_by = ROOT
					NOT = { is_controlled_by = ROOT }
				}
			}
		}
		completion_reward = {
			every_state = {
				limit = { 
					is_on_continent = africa 
					OWNER = { OR = { tag = ROOT is_subject_of = ROOT } }
					NOT = {
						state = 701
						state = 700
						state = 274
						state = 558
						state = 900
						state = 901
					}
				}
				add_building_construction = {
					type = infrastructure
					level = 1
					instant_build = yes
				}
			}
		}
	}
	focus = {
		id = ENG_Invest_In_Egypt
		search_filters = { FOCUS_FILTER_INDUSTRY } 
		icon = GFX_goal_generic_construction2
		cost = 10
		prerequisite = {
			focus = ENG_Kenyan_Farmland
			focus = ENG_africa_regionalism
		}
		prerequisite = {
			focus = ENG_Fortify_Namibia
		}
		x = 2
		y = 5
		available = {
			OR = {
				EGY = { has_full_control_of_state = 446 is_subject_of = ENG }
				has_full_control_of_state = 446
			}
			OR = {
				EGY = { has_full_control_of_state = 447 is_subject_of = ENG }
				has_full_control_of_state = 447
			}
		}
		completion_reward = {
			446 = {
				add_extra_state_shared_building_slots = 2
				add_building_construction = {
					type = industrial_complex
					level = 2
					instant_build = yes
				}
			}
			995 = {
				add_extra_state_shared_building_slots = 2
				add_building_construction = {
					type = industrial_complex
					level = 2
					instant_build = yes
				}
			}
			447 = {
				add_extra_state_shared_building_slots = 1
				add_building_construction = {
					type = industrial_complex
					level = 1
					instant_build = yes
				}
			}
		}
	}
	focus = {
		id = ENG_Legacy_Boer_War
		search_filters = { FOCUS_FILTER_RESEARCH } 
		icon = GFX_goal_generic_army_doctrines
		cost = 10
		prerequisite = {
			focus = ENG_free_saf
		}
		x = 4
		y = 1
		completion_reward = {
			army_experience = 5
			add_tech_bonus = {
				name = ENG_Legacy_Boer_War
				bonus = 1.0
				uses = 1
				category = land_doctrine
			}
		}
	}
	focus = {
		id = ENG_Camoflague
		search_filters = { FOCUS_FILTER_RESEARCH } 
		icon = GFX_focus_por_luso_tropicalism
		cost = 10
		prerequisite = {
			focus = ENG_Legacy_Boer_War
		}
		x = 4
		y = 2
		completion_reward = {
			army_experience = 10
			add_tech_bonus = {
				name = ENG_Camoflague
				bonus = 1.0
				uses = 1
				category = support_tech
				category = infantry_tech
			}
		}

	}
	focus = {
		id = ENG_expeditionary_special_forces
		search_filters = { FOCUS_FILTER_RESEARCH } 
		icon = GFX_goal_generic_special_forces
		cost = 10
		prerequisite = {
			focus = ENG_Camoflague
		}
		x = 5
		y = 4
		completion_reward = {
			add_tech_bonus = {
				name = ENG_expeditionary_special_forces
				bonus = 1.0
				uses = 2
				category = mountaineers_tech
			}
		}
	}
	focus = {
		id = ENG_intercontinental_dockyards
		search_filters = { FOCUS_FILTER_INDUSTRY } 
		icon = GFX_goal_generic_construct_naval_dockyard
		cost = 10
		prerequisite = {
			focus = ENG_naval_focus
		}
		x = 6
		y = 1
		available = {
			any_owned_state = {
				is_coastal = yes
				is_fully_controlled_by = ROOT
			}
		}
		completion_reward = {
			random_owned_controlled_state = {
				limit = {
					NOT = { is_in_home_area = yes }
					is_coastal = yes
					free_building_slots = {
						building = dockyard
						size > 1
						include_locked = yes
					}
				}
				add_extra_state_shared_building_slots = 1
				add_building_construction = {
					type = dockyard
					level = 1
					instant_build = yes
				}
			}
			random_owned_controlled_state = {
				limit = {
					NOT = { is_in_home_area = yes }
					is_coastal = yes
					free_building_slots = {
						building = dockyard
						size > 1
						include_locked = yes
					}
				}
				add_extra_state_shared_building_slots = 1
				add_building_construction = {
					type = dockyard
					level = 1
					instant_build = yes
				}
			}
			random_owned_controlled_state = {
				limit = {
					NOT = { is_in_home_area = yes }
					is_coastal = yes
					free_building_slots = {
						building = dockyard
						size > 1
						include_locked = yes
					}
				}
				add_extra_state_shared_building_slots = 1
				add_building_construction = {
					type = dockyard
					level = 1
					instant_build = yes
				}
			}
			random_owned_controlled_state = {
				limit = {
					NOT = { is_in_home_area = yes }
					is_coastal = yes
					free_building_slots = {
						building = dockyard
						size > 1
						include_locked = yes
					}
				}
				add_extra_state_shared_building_slots = 1
				add_building_construction = {
					type = dockyard
					level = 1
					instant_build = yes
				}
			}
		}
	}
	focus = {
		id = ENG_mobilization_of_repair_yards
		search_filters = { FOCUS_FILTER_RESEARCH } 
		icon = GFX_goal_generic_production
		cost = 10
		prerequisite = {
			focus = ENG_intercontinental_dockyards
		}
		x = 6
		y = 2
		completion_reward = {
			add_ideas = ENG_mobilization_of_repair_yards
		}
	}
	focus = {
		id = ENG_refresh_the_british_fleet
		search_filters = { FOCUS_FILTER_RESEARCH } 
		icon = GFX_focus_generic_navy_battleship2
		cost = 10
		prerequisite = {
			focus = ENG_naval_focus
		}
		x = 8
		y = 1
		completion_reward = {
			add_tech_bonus = {
				name = ENG_refresh_the_british_fleet
				bonus = 1.0
				uses = 2
				category = dd_tech
				category = cl_tech
				category = ss_tech
			}
		}
	}
	focus = {
		id = ENG_fleet_mobilization
		search_filters = { FOCUS_FILTER_WAR_SUPPORT } 
		icon = GFX_goal_generic_navy_cruiser
		cost = 5
		prerequisite = {
			focus = ENG_refresh_the_british_fleet
		}
		x = 8
		y = 2
		available = {
			OR = {
				has_war = yes
				threat > 0.5
			}
		}
		completion_reward = {
			remove_ideas = eng_fleet_at_rest
		}
	}
	focus = {
		id = ENG_masters_of_the_sea
		search_filters = { FOCUS_FILTER_RESEARCH } 
		icon = GFX_goal_generic_amphibious_assault
		cost = 10
		prerequisite = {
			focus = ENG_expeditionary_special_forces
			focus = ENG_fleet_mobilization
		}
		x = 6
		y = 5
		completion_reward = {
			add_tech_bonus = {
				name = ENG_masters_of_the_sea
				bonus = 1.0
				uses = 1
				category = marine_tech
				category = tp_tech
			}
		}
	}
	focus = {
		id = ENG_Land_Of_Explorer
		search_filters = { FOCUS_FILTER_INDUSTRY } 
		icon = GFX_goal_generic_navy_battleship
		cost = 10
		prerequisite = {
			focus = ENG_fleet_mobilization
		}
		x = 7
		y = 3
		available = {
			has_full_control_of_state = 126
		}
		completion_reward = {
			every_state = {
				limit = { 
					region = 1
					is_coastal = yes
					free_building_slots = {
						building = dockyard
						size > 0
						include_locked = no
					}
				}
				add_building_construction = {
					type = dockyard
					level = 1
					instant_build = yes
				}
			}
		}
	}
	focus = {
		id = ENG_aviation_focus
		search_filters = { FOCUS_FILTER_MANPOWER } 
		icon = GFX_goal_generic_air_doctrine
		cost = 10
		prerequisite = {
			focus = ENG_imperial_general_staff
		}
		x = 10
		y = 1
		completion_reward = {
			air_experience = 15
		}
	}
	focus = {
		id = ENG_fighter_focus
		search_filters = { FOCUS_FILTER_RESEARCH } 
		icon = GFX_goal_generic_air_fighter
		cost = 10
		prerequisite = {
			focus = ENG_aviation_focus
		}
		x = 10
		y = 2
		completion_reward = {
			add_tech_bonus = {
				name = ENG_fighter_focus
				bonus = 3.0
				uses = 1
				category = light_fighter
			}
		}
	}
	focus = {
		id = ENG_rule_the_waves_and_skies
		search_filters = { FOCUS_FILTER_RESEARCH } 
		icon = GFX_goal_generic_air_naval_bomber
		cost = 10
		prerequisite = {
			focus = ENG_fleet_mobilization
		}
		prerequisite = {
			focus = ENG_fighter_focus
		}
		x = 9
		y = 3
		completion_reward = {
			add_tech_bonus = {
				name = ENG_rule_the_waves_and_skies
				bonus = 1.0
				uses = 1
				category = naval_bomber
				category = naval_air
			}
		}
	}
	focus = {
		id = ENG_the_carrier
		search_filters = { FOCUS_FILTER_RESEARCH } 
		icon = GFX_goal_generic_navy_carrier
		cost = 10
		prerequisite = {
			focus = ENG_rule_the_waves_and_skies
		}
		x = 9
		y = 4
		completion_reward = {
			add_tech_bonus = {
				name = ENG_rule_the_waves_and_skies
				bonus = 1.0
				uses = 1
				category = cv_tech
			}
		}
	}
	focus = {
		id = ENG_bomber_raids
		search_filters = { FOCUS_FILTER_RESEARCH } 
		icon = GFX_goal_generic_CAS
		cost = 10
		prerequisite = {
			focus = ENG_fighter_focus
		}
		x = 10
		y = 5
		completion_reward = {
			add_tech_bonus = {
				name = ENG_bomber_raids
				bonus = 1.0
				uses = 2
				category = tactical_bomber
				category = cas_bomber
			}
		}
	}
	focus = {
		id = ENG_RAF
		search_filters = { FOCUS_FILTER_RESEARCH } 
		icon = GFX_focus_eng_chiefs_of_staff_committee
		cost = 10
		prerequisite = {
			focus = ENG_fighter_focus
		}
		x = 11
		y = 4
		available = {
			has_deployed_air_force_size = {
				size > 50
			}
		}
		completion_reward = {
			air_experience = 10
			add_tech_bonus = {
				name = ENG_bomber_raids
				bonus = 1.0
				uses = 2
				category = air_doctrine
			}
		}

	}
	focus = {
		id = ENG_Aircraft_Factories
		search_filters = { FOCUS_FILTER_INDUSTRY } 
		icon = GFX_goal_generic_air_production
		cost = 10
		prerequisite = {
			focus = ENG_RAF
		}
		x = 11
		y = 6
		
		completion_reward = {
			random_owned_controlled_state = {
				limit = { is_in_home_area = yes }
				add_extra_state_shared_building_slots = 1
				add_building_construction = {
					type = arms_factory
					level = 1
					instant_build = yes
				}
			}
			add_ideas = ENG_Aircraft_Factories
		}
	}
	focus = {
		id = ENG_Lee_Enfield
		search_filters = { FOCUS_FILTER_RESEARCH } 
		icon = GFX_goal_generic_small_arms
		cost = 10
		prerequisite = {
			focus = ENG_imperial_general_staff
		}
		x = 12
		y = 2
		completion_reward = {
			add_tech_bonus = {
				name = ENG_Lee_Enfield
				bonus = 2.0
				uses = 1
				category = infantry_weapons
			}
		}
	}
	focus = {
		id = ENG_Modern_Artillery
		search_filters = { FOCUS_FILTER_RESEARCH } 
		icon = GFX_goal_generic_army_artillery2
		cost = 10
		prerequisite = {
			focus = ENG_Lee_Enfield
		}
		x = 12
		y = 3
		completion_reward = {
			add_tech_bonus = {
				name = ENG_Modern_Artillery
				bonus = 2.0
				uses = 1
				category = artillery
			}
		}
	}
	focus = {
		id = ENG_joint_staff
		search_filters = { FOCUS_FILTER_RESEARCH } 
		icon = GFX_goal_molotov_ribbentrop_pact
		cost = 10
		prerequisite = {
			focus = ENG_imperial_general_staff
		}
		x = 13
		y = 1
		available = { is_in_faction = yes }
		completion_reward = {
			add_tech_bonus = {
				name = ENG_joint_staff
				bonus = 1.0
				uses = 3
				category = land_doctrine
			}
		}
	}
	focus = {
		id = ENG_BEF
		search_filters = { FOCUS_FILTER_RESEARCH } 
		icon = GFX_goal_generic_more_territorial_claims
		cost = 10
		prerequisite = {
			focus = ENG_joint_staff
		}
		x = 14
		y = 2
		completion_reward = {
			add_equipment_to_stockpile = {
				type = support_equipment
				amount = 500
				producer = ENG
			}
			add_tech_bonus = {
				name = ENG_BEF
				bonus = 0.5
				uses = 1
				category = land_doctrine
			}
			army_experience = 10
		}
	}
	focus = {
		id = ENG_Royal_Armament_Factories
		search_filters = { FOCUS_FILTER_INDUSTRY } 
		icon = GFX_goal_generic_construct_mil_factory
		cost = 10
		prerequisite = {
			focus = ENG_Legacy_Of_Industrial_Revolution
		}
		x = 18
		y = 2
		available_if_capitulated = no
		available = { has_war_support > 0.35 }
		completion_reward = {
			random_owned_controlled_state = {
				limit = { is_in_home_area = yes }
				add_extra_state_shared_building_slots = 2
				add_building_construction = {
					type = arms_factory
					level = 2
					instant_build = yes
				}
			}
			random_owned_controlled_state = {
				limit = { is_in_home_area = yes }
				add_extra_state_shared_building_slots = 2
				add_building_construction = {
					type = arms_factory
					level = 2
					instant_build = yes
				}
			}
		}
	}
	focus = {
		id = ENG_continental_army
		search_filters = { FOCUS_FILTER_RESEARCH } 
		icon = GFX_focus_generic_commonwealth_build_infantry
		cost = 10
		prerequisite = {
			focus = ENG_Royal_Armament_Factories
		}
		prerequisite = {
			focus = ENG_BEF
		}
		x = 14
		y = 3
		available = { has_war = yes }
		completion_reward = {
			add_tech_bonus = {
				name = ENG_continental_army
				bonus = 3.0
				uses = 1
				category = support_tech
				category = infantry_tech
			}
			add_equipment_to_stockpile = {
				type = infantry_equipment
				amount = 5000
				producer = ENG
			}
		}
	}
	focus = {
		id = ENG_new_paradigm_of_war
		search_filters = { FOCUS_FILTER_RESEARCH } 
		icon = GFX_goal_generic_major_war
		cost = 10
		prerequisite = {
			focus = ENG_continental_army
		}
		prerequisite = {
			focus = ENG_Modern_Artillery
		}
		x = 13
		y = 4
		available = {
			any_country = {
				casualties > 1000000
			}
		}
		bypass = { has_war = no }
		completion_reward = {
			add_tech_bonus = {
				name = ENG_new_paradigm_of_war
				bonus = 3.0
				uses = 1
				category = land_doctrine
				category = air_doctrine
				category = naval_doctrine
			}
		}
	}
	focus = {
		id = ENG_room_40
		search_filters = { FOCUS_FILTER_RESEARCH } 
		icon = GFX_focus_generic_strike_at_democracy1
		cost = 10
		prerequisite = {
			focus = ENG_joint_staff
		}
		x = 16
		y = 2
		completion_reward = {
			custom_effect_tooltip = ENG_room_40_tt 
			if = {
				limit = {
					NOT = { has_dlc = "La Resistance" }
				}
				add_tech_bonus = {
					name = ENG_room_40
					bonus = 1.0
					uses = 1
					category = encryption_tech
					category = decryption_tech
				}
			}
			else = {
				hidden_effect = {
					set_technology = { lar_decryption_bonus_tech = 0.1 }
				}
				custom_effect_tooltip = lar_decryption_bonus_tt
			}
		}
	}
	focus = {
		id = ENG_Motorisation
		search_filters = { FOCUS_FILTER_RESEARCH } 
		icon = GFX_goal_generic_army_motorized
		cost = 10
		prerequisite = {
			focus = ENG_Royal_Armament_Factories
		}
		x = 16
		y = 3
		completion_reward = {
			add_tech_bonus = {
				name = ENG_Motorisation
				bonus = 3.0
				uses = 1
				category = motorized_equipment
			}
		}

	}
	focus = {
		id = ENG_RAC
		search_filters = { FOCUS_FILTER_RESEARCH } 
		icon = GFX_goal_generic_production2
		cost = 10
		prerequisite = {
			focus = ENG_Motorisation
		}
		x = 16
		y = 4
		completion_reward = {
			add_tech_bonus = {
				name = ENG_RAC
				bonus = 1.0
				uses = 1
				technology = basic_armored_car
				technology = improved_armored_car
				technology = advanced_armored_car
			}
		}
	}
	focus = {
		id = ENG_Project_Tank
		search_filters = { FOCUS_FILTER_RESEARCH } 
		icon = GFX_focus_early_tank
		cost = 10
		prerequisite = {
			focus = ENG_RAC
		}
		x = 16
		y = 5
		available = {
			has_war = yes
			has_tech = improved_armored_car
		}
		completion_reward = {
			add_tech_bonus = {
				name = ENG_Project_Tank
				bonus = 1.0
				uses = 1
				category = armor
			}
			if = {
				limit = { NOT = { has_tech = tank_design } }
				set_technology = {
					tank_design = 1
				}
			}
		}
	}
	focus = {
		id = ENG_Combined_Offensive
		search_filters = { FOCUS_FILTER_RESEARCH } 
		icon = GFX_goal_generic_secret_weapon
		cost = 10
		prerequisite = {
			focus = ENG_Project_Tank
		}
		prerequisite = {
			focus = ENG_new_paradigm_of_war
		}
		x = 15
		y = 6
		available = {
			has_tech = gwtank
		}
		completion_reward = {
			add_tech_bonus = {
				name = ENG_Combined_Offensive
				bonus = 3.0
				uses = 1
				category = land_doctrine
			}
			add_tech_bonus = {
				name = ENG_Combined_Offensive
				bonus = 3.0
				uses = 1
				category = air_doctrine
			}
		}
	}
	focus = {
		id = ENG_Business_As_Usual
		search_filters = { FOCUS_FILTER_STABILITY } 
		icon = GFX_goal_generic_construct_civilian
		cost = 10
		prerequisite = {
			focus = ENG_Legacy_Of_Industrial_Revolution
		}
		x = 17
		y = 1
		available = {
			has_war = yes
			has_global_flag = kis_war
		}
		completion_reward = {
			add_stability = 0.05
			add_ideas = ENG_Business_As_Usual
		}
	}
	focus = {
		id = ENG_Sheffield_Steel
		search_filters = { FOCUS_FILTER_INDUSTRY } 
		icon = GFX_focus_generic_steel
		cost = 10
		prerequisite = {
			focus = ENG_Royal_Armament_Factories
		}
		x = 18
		y = 3
		available = { has_full_control_of_state = 129 }
		completion_reward = {
			add_resource = {
				type = steel
				amount = 32
				state = 129
			}
		}
	}
	focus = {
		id = ENG_The_Best
		search_filters = { FOCUS_FILTER_RESEARCH } 
		icon = GFX_goal_generic_construct_civ_factory
		cost = 10
		prerequisite = {
			focus = ENG_Legacy_Of_Industrial_Revolution
		}
		x = 20
		y = 1
		completion_reward = {
			add_tech_bonus = {
				name = ENG_The_Best
				bonus = 1
				uses = 2
				category = industry
			}
		}
	}
	focus = {
		id = ENG_No_Province_Left_Behind
		search_filters = { FOCUS_FILTER_INDUSTRY } 
		icon = GFX_goal_generic_construct_infrastructure
		cost = 15
		prerequisite = {
			focus = ENG_The_Best
		}
		x = 20
		y = 2
		available = {
			OR = {
				has_full_control_of_state = 119
				has_completed_focus = ENG_Fabian_Ascendancy
			}
			has_full_control_of_state = 121
		}
		completion_reward = {
			every_controlled_state = {
				limit = { 
					region = 3 
					free_building_slots = {
						building = infrastructure
						size < 7
					}
				}
				add_building_construction = {
					type = infrastructure
					level = 1
					instant_build = yes
				}
			}
			every_controlled_state = {
				limit = { 
					region = 4 
					free_building_slots = {
						building = infrastructure
						size < 7
					}
				}
				add_building_construction = {
					type = infrastructure
					level = 1
					instant_build = yes
				}
			}
		}
	}
	focus = {
		id = ENG_Wool
		search_filters = { FOCUS_FILTER_INDUSTRY } 
		icon = GFX_goal_generic_consumer_goods
		cost = 10
		prerequisite = {
			focus = ENG_No_Province_Left_Behind
		}
		x = 20
		y = 3
		available = { 
			has_full_control_of_state = 122 
			has_full_control_of_state = 131
		}
		completion_reward = {
			122 = {
				add_extra_state_shared_building_slots = 1
				add_building_construction = {
					type = industrial_complex
					level = 1
					instant_build = yes
				}
			}
			131 = {
				add_extra_state_shared_building_slots = 1
				add_building_construction = {
					type = industrial_complex
					level = 1
					instant_build = yes
				}
			}
		}

	}
	focus = {
		id = ENG_The_Brightest
		search_filters = { FOCUS_FILTER_RESEARCH } 
		icon = GFX_goal_generic_scientific_exchange
		cost = 10
		prerequisite = {
			focus = ENG_Wool
		}
		x = 20
		y = 4
		completion_reward = {
			add_tech_bonus = {
				name = ENG_The_Brightest
				bonus = 1.0
				uses = 1
				category = electronics
			}
		}
	}
	focus = {
		id = ENG_Land_Of_Inventors
		search_filters = { FOCUS_FILTER_RESEARCH } 
		icon = GFX_goal_tfv_generic_tech_sharing
		cost = 10
		prerequisite = {
			focus = ENG_The_Brightest
		}
		prerequisite = {
			focus = ENG_Sheffield_Steel
		}
		x = 19
		y = 5
		completion_reward = {
			add_research_slot = 1
		}
	}
	focus = {
		id = ENG_Dominion_Investment
		search_filters = { FOCUS_FILTER_INTERNAL_AFFAIRS } 
		icon = GFX_goal_tfv_strengthen_commonwealth_ties
		cost = 10
		prerequisite = {
			focus = ENG_Pax_Britannica
		}
		x = 24
		y = 1
		available = {
			any_country = {
				is_subject_of = ROOT
			}
		}
		completion_reward = {
			every_country = {
				limit = { is_subject_of = ROOT }
				add_political_power = 120
				add_autonomy_ratio = {
					value = -0.01
				}
			}
		}
	}
	focus = {
		id = ENG_Investment_Aus
		search_filters = { FOCUS_FILTER_INDUSTRY } 
		icon = GFX_focus_generic_self_management
		cost = 10
		prerequisite = {
			focus = ENG_Dominion_Investment
		}
		x = 22
		y = 2
		available = {
			517 = {
				CONTROLLER = {
					OR = {
						tag = ENG
						is_subject_of = ENG
					}
				}
			}
			522 = {
				CONTROLLER = {
					OR = {
						tag = ENG
						is_subject_of = ENG
					}
				}
			}
		}
		completion_reward = {
			517 = {
				add_extra_state_shared_building_slots = 1
				add_building_construction = {
					type = industrial_complex
					level = 1
					instant_build = yes
				}
			}
			522 = {
				add_extra_state_shared_building_slots = 1
				add_building_construction = {
					type = industrial_complex
					level = 1
					instant_build = yes
				}
				if = {
					limit = {
						CONTROLLER = {
							NOT = { tag = ENG }
						}
					}
					CONTROLLER = {
						add_autonomy_ratio = {
							value = -0.02
							localization = ENG_Investment_Aus
						}
					}
				}
			}
		}
	}
	focus = {
		id = ENG_Invest_NZL
		search_filters = { FOCUS_FILTER_INDUSTRY } 
		icon = GFX_focus_generic_self_management
		cost = 10
		prerequisite = {
			focus = ENG_Investment_Aus
		}
		x = 22
		y = 4
		available = {
			284 = {
				CONTROLLER = {
					OR = {
						tag = ENG
						is_subject_of = ENG
					}
				}
			}
		}
		completion_reward = {
			284 = {
				add_extra_state_shared_building_slots = 1
				add_building_construction = {
					type = industrial_complex
					level = 1
					instant_build = yes
				}
				if = {
					limit = {
						CONTROLLER = {
							NOT = { tag = ENG }
						}
					}
					CONTROLLER = {
						add_autonomy_ratio = {
							value = -0.02
							localization = ENG_Invest_NZL
						}
					}
				}
			}
		}
	}
	focus = {
		id = ENG_invest_CAN
		search_filters = { FOCUS_FILTER_INDUSTRY } 
		icon = GFX_focus_generic_self_management
		cost = 10
		prerequisite = {
			focus = ENG_Dominion_Investment
		}
		x = 23
		y = 3
		available = {
			468 = {
				CONTROLLER = {
					OR = {
						tag = ENG
						is_subject_of = ENG
					}
				}
			}
			276 = {
				CONTROLLER = {
					OR = {
						tag = ENG
						is_subject_of = ENG
					}
				}
			}
		}
		completion_reward = {
			276 = {
				add_extra_state_shared_building_slots = 1
				add_building_construction = {
					type = industrial_complex
					level = 1
					instant_build = yes
				}
			}
			468 = {
				add_extra_state_shared_building_slots = 1
				add_building_construction = {
					type = industrial_complex
					level = 1
					instant_build = yes
				}
				if = {
					limit = {
						CONTROLLER = {
							NOT = { tag = ENG }
						}
					}
					CONTROLLER = {
						add_autonomy_ratio = {
							value = -0.02
							localization = ENG_invest_CAN
						}
					}
				}
			}
		}
	}
	focus = {
		id = ENG_quebec_federalization
		search_filters = { FOCUS_FILTER_INTERNAL_AFFAIRS } 
		icon = GFX_goal_tfv_can_compromise_with_quebec
		cost = 10
		prerequisite = {
			focus = ENG_invest_CAN
		}
		x = 23
		y = 5
		bypass = {
			NOT = { CAN = { is_subject_of = ROOT } }
		}
		completion_reward = {
			add_war_support = -0.1
			CAN = { remove_ideas = CAN_idea_quebec_tension }
		}
	}
	focus = {
		id = ENG_dev_saf
		search_filters = { FOCUS_FILTER_INDUSTRY } 
		icon = GFX_focus_generic_self_management
		cost = 10
		prerequisite = {
			focus = ENG_Dominion_Investment
		}
		x = 24
		y = 2
		available = {
			has_completed_focus = ENG_free_saf
			681 = {
				CONTROLLER = {
					OR = {
						tag = ENG
						is_subject_of = ENG
					}
				}
			}
		}
		completion_reward = {
			681 = {
				add_extra_state_shared_building_slots = 2
				add_building_construction = {
					type = industrial_complex
					level = 2
					instant_build = yes
				}
				if = {
					limit = {
						CONTROLLER = {
							NOT = { tag = ENG }
						}
					}
					CONTROLLER = {
						add_autonomy_ratio = {
							value = -0.02
							localization = ENG_dev_saf
						}
					}
				}
			}
		}
	}
	focus = {
		id = ENG_campaign_for_Qualified_Franchise
		search_filters = { FOCUS_FILTER_INTERNAL_AFFAIRS } 
		icon = GFX_focus_usa_voter_registration_act
		cost = 10
		prerequisite = {
			focus = ENG_dev_saf
		}
		x = 24
		y = 4
		bypass = {
			NOT = { SAF = { is_subject_of = ROOT } }
		}
		completion_reward = {
			SAF = { 
				add_stability = 0.15 
				add_popularity = { ideology = fascism popularity = 0.20 }
			}
		}
	}
	focus = {
		id = ENG_dev_raj
		search_filters = { FOCUS_FILTER_INDUSTRY } 
		icon = GFX_focus_RAJ_all_india_forward_bloc
		cost = 10
		prerequisite = {
			focus = ENG_Dominion_Investment
		}
		x = 25
		y = 3
		available = {
			439 = {
				CONTROLLER = {
					OR = {
						tag = ENG
						is_subject_of = ENG
					}
				}
			}
		}
		completion_reward = {
			439 = {
				add_extra_state_shared_building_slots = 2
				add_building_construction = {
					type = industrial_complex
					level = 2
					instant_build = yes
				}
				if = {
					limit = {
						CONTROLLER = {
							NOT = { tag = ENG }
						}
					}
					CONTROLLER = {
						add_autonomy_ratio = {
							value = -0.02
							localization = ENG_dev_raj
						}
					}
				}
			}
		}
	}
	focus = {
		id = ENG_Principality_Integration
		search_filters = { FOCUS_FILTER_INDUSTRY } 
		icon = GFX_goal_generic_national_unity
		cost = 10
		prerequisite = {
			focus = ENG_dev_raj
		}
		x = 25
		y = 5
		available = {
			427 = {
				CONTROLLER = {
					OR = {
						tag = ENG
						is_subject_of = ENG
					}
				}
			}
		}
		completion_reward = {
			every_state = {
				limit = { 
					region = 153
					free_building_slots = {
						building = infrastructure
						size < 6
					}
				}
				add_building_construction = {
					type = infrastructure
					level = 1
					instant_build = yes
				}
			}
			every_state = {
				limit = { 
					region = 31
					free_building_slots = {
						building = infrastructure
						size < 6
					}
				}
				add_building_construction = {
					type = infrastructure
					level = 1
					instant_build = yes
				}
				if = {
					limit = {
						CONTROLLER = {
							NOT = { tag = ENG }
						}
					}
					CONTROLLER = {
						add_autonomy_ratio = {
							value = -0.02
							localization = ENG_dev_raj
						}
					}
				}
			}
		}
	}
	focus = {
		id = ENG_Imperial_Federation
		search_filters = { FOCUS_FILTER_INTERNAL_AFFAIRS } 
		icon = GFX_focus_eng_unite_the_anglosphere
		cost = 30
		prerequisite = {
			focus = ENG_quebec_federalization
		}
		prerequisite = {
			focus = ENG_Invest_NZL
		}
		prerequisite = {
			focus = ENG_campaign_for_Qualified_Franchise
		}
		prerequisite = {
			focus = ENG_Principality_Integration
		}
		x = 24
		y = 6
		available = {
			CAN = { 
				OR = {
					is_subject_of = ROOT
					exists = no
				}
			}
			AST = { 
				OR = {
					is_subject_of = ROOT
					exists = no
				}
			}
			NZL = { 
				OR = {
					is_subject_of = ROOT
					exists = no
				}
			}
			SAF = { 
				OR = {
					is_subject_of = ROOT
					exists = no
				}
			}
			MAL = { 
				OR = {
					is_subject_of = ROOT
					exists = no
				}
			}
		}
		completion_reward = {
			custom_effect_tooltip = quebec_wont_be_happy_about_this
			remove_ideas = eng_overextension
			if = {
				limit = {
					NOT = { has_completed_focus = ENG_Lord_Protector_England }
				}
				set_cosmetic_tag = ENG_imperial_federation_unified
			}
			else = {
				###
			}
			every_country = {
				limit = {
					is_subject_of = ENG
					NOT = { tag = RAJ }
					NOT = { tag = AFG }
					NOT = { tag = NEP }
					NOT = { tag = BHU }
					NOT = { tag = EGY }
					NOT = { tag = KEN }
					NOT = { tag = ZIM }
					NOT = { tag = SAF }
				}
				country_event = ww1_england.31
			}
		}
	}

	focus = {
		id = ENG_Claim_Thirteen_Colonies
		search_filters = { FOCUS_FILTER_ANNEXATION } 
		icon = GFX_focus_eng_thirteen_colonies
		cost = 20
		prerequisite = {
			focus = ENG_Imperial_Federation
		}
		x = 24
		y = 7
		available = {
		OR = {
		has_completed_focus = ENG_Kingdom_Eternal
		has_completed_focus = ENG_All_The_Kings_Men
		has_completed_focus = ENG_Grand_Campaign
			 }
		}
		completion_reward = {
		USA = {
			add_opinion_modifier = { 
				target = ENG modifier = ENG_renounce_declaration_independence
			}
		}
		add_state_claim = 357
		add_state_claim = 835
		add_state_claim = 836
		add_state_claim = 837
		add_state_claim = 838
		add_state_claim = 839
		add_state_claim = 840
		add_state_claim = 358
		add_state_claim = 360
		add_state_claim = 359
		add_state_claim = 361
		add_state_claim = 841
		add_state_claim = 844
		add_state_claim = 362
		add_state_claim = 816
		add_state_claim = 363
		add_state_claim = 364
		add_state_claim = 365
		add_state_claim = 366
		add_state_claim = 367
		add_state_claim = 386
		add_state_claim = 629
		add_state_claim = 626
		add_state_claim = 650
		}
	}

	focus = {
		id = ENG_The_British_Are_Coming
		search_filters = { FOCUS_FILTER_POLITICAL } 
		icon = GFX_focus_eng_the_british_are_coming
		cost = 11
		prerequisite = {
			focus = ENG_Claim_Thirteen_Colonies
		}
		x = 24
		y = 8
		available = {
		has_war_support > 0.90
		}
		completion_reward = {
			create_wargoal = {
    				type = puppet_wargoal_focus
    				target = USA
			}
		}
	}

	focus = {
		id = ENG_Support_Nigerian_Christ
		search_filters = { FOCUS_FILTER_INDUSTRY } 
		icon = GFX_focus_por_concordat
		cost = 10
		prerequisite = {
			focus = ENG_Dominion_Investment
		}
		x = 26
		y = 2
		available = { has_full_control_of_state = 558 }
		completion_reward = {
			558 = {
				add_extra_state_shared_building_slots = 1
				add_building_construction = {
					type = arms_factory
					level = 1
					instant_build = yes
				}
				add_building_construction = {
					type = infrastructure
					level = 1
					instant_build = yes
				}
			}
		}
	}
	focus = {
		id = ENG_Focus_Somalian_Forces
		search_filters = { FOCUS_FILTER_MANPOWER } 
		icon = GFX_focus_secret_rearmament
		cost = 10
		prerequisite = {
			focus = ENG_Support_Nigerian_Christ
		}
		x = 26
		y = 4
		available = { 
			owns_state = 269
			has_manpower > 10000
		}
		completion_reward = {
			add_manpower = -10000
			custom_effect_tooltip = dervish_revolt
			hidden_effect = {
				set_country_flag = no_dervish
			}
		}
	}
	focus = {
		id = ENG_Royal_Prerogative
		icon = GFX_goal_based_british_icon
		cost = 10
		prerequisite = {
			focus = ENG_Pax_Britannica
		}
		x = 33
		y = 1
		ai_will_do = {
			factor = 500
		}
		available = {
			has_country_leader = {
				name = "Fallen Government"
				ruling_only = yes
			}
		}		
		completion_reward = {
			add_threat = 1
			add_war_support = 0.1
			add_political_power = 120
			if = {
				limit = { has_government = conservative }
				create_country_leader = {
					name = "James Lowther"
					picture = "british_wilhelm.dds"
					expire = "1935.1.1"
					ideology = conservatism
					traits = {
					eng_hand_of_king
					}
				}
				hidden_effect = {
					set_party_name = {
						ideology = conservative
						long_name = ENG_house_of_commons_long
						name = ENG_house_of_commons
					}
				}
			}
			if = {
				limit = { has_government = social_democracy }
				create_country_leader = {
					name = "James Lowther"
					picture = "british_wilhelm.dds"
					expire = "1935.1.1"
					ideology = socialism
					traits = {
					eng_hand_of_king
					}
				}
				hidden_effect = {
					set_party_name = {
						ideology = social_democracy
						long_name = ENG_house_of_commons_long
						name = ENG_house_of_commons
					}
				}
			}
			if = {
				limit = { has_government = democratic }
				create_country_leader = {
					name = "James Lowther"
					picture = "british_wilhelm.dds"
					expire = "1935.1.1"
					ideology = libertarian
					traits = {
					eng_hand_of_king
					}
				}
				hidden_effect = {
					set_party_name = {
						ideology = democratic
						long_name = ENG_house_of_commons_long
						name = ENG_house_of_commons
					}
				}
			}
		}
	}
	focus = {
		id = ENG_God_Save_King
		search_filters = { FOCUS_FILTER_POLITICAL } 
		icon = GFX_focus_generic_ultranationalist_monarchy
		cost = 10
		prerequisite = {
			focus = ENG_Royal_Prerogative
		}
		mutually_exclusive = {
			focus = ENG_Red_Flag_London
		}
		x = 30
		y = 2
		available = { monarchism > 0.4 }
		bypass = { has_government = monarchism }
		completion_reward = {
			add_stability = 0.1
			set_politics = {
				ruling_party = monarchism
				elections_allowed = no
			}
			swap_ideas = {
				add_idea = pax_britannica_2
				remove_idea = pax_britannica
			}
		}
		ai_will_do = {
			factor = 100
		}
	}
	focus = {
		id = ENG_Intervene_Qing
		search_filters = { FOCUS_FILTER_POLITICAL } 
		icon = GFX_focus_chi_qing_china
		cost = 10
		prerequisite = {
			focus = ENG_Pax_Britannica
		}
		x = 28
		y = 1
		available = {
			QIN = { exists = yes }
		}
		bypass = {
			has_global_flag = warlord_era
		}
		completion_reward = {
			QIN = {
				add_equipment_to_stockpile = {
					type = infantry_equipment
					amount = 5000
					producer = ENG
				}
				add_equipment_to_stockpile = {
					type = artillery_equipment
					amount = 200
					producer = ENG
				}
			}
		}
	}
	focus = {
		id = ENG_Third_Positionism
		search_filters = { FOCUS_FILTER_POLITICAL } 
		icon = GFX_focus_AST_rats_tobruk
		cost = 10
		prerequisite = {
			focus = ENG_God_Save_King
		}
		x = 29
		y = 3
		available = { 
			NOT = { has_democratic_government = yes } 
		}
		completion_reward = {
			add_country_leader_trait = anti_democrat
		}

	}
	focus = {
		id = ENG_By_Order_Of_King
		search_filters = { FOCUS_FILTER_WAR_SUPPORT } 
		icon = GFX_focus_eng_imperial_federation
		cost = 10
		prerequisite = {
			focus = ENG_God_Save_King
		}
		x = 31
		y = 3
		completion_reward = {
			add_war_support = 0.1
			add_ideas = royal_militia
		}
	}
	focus = {
		id = ENG_Arrest_Sir_Grey
		search_filters = { FOCUS_FILTER_POLITICAL } 
		icon = GFX_focus_eng_move_to_secure_the_dominions
		cost = 10
		prerequisite = {
			focus = ENG_By_Order_Of_King
		}
		x = 31
		y = 4
		completion_reward = {
			add_political_power = 120
			remove_ideas = ENG_edward_grey
		}

	}
	focus = {
		id = ENG_Red_Flag_London
		search_filters = { FOCUS_FILTER_POLITICAL } 
		icon = GFX_goal_tfv_sever_ties_with_uk
		cost = 5
		prerequisite = {
			focus = ENG_Royal_Prerogative
		}
		mutually_exclusive = {
			focus = ENG_God_Save_King
		}
		x = 35
		y = 2
		available = { 
			democratic < 0.3
			conservative < 0.3
			social_democracy < 0.3
		}
		completion_reward = {
			126 = { set_demilitarized_zone = yes }
			113 = { set_demilitarized_zone = yes }
			135 = { set_demilitarized_zone = yes }
			134 = { set_demilitarized_zone = yes }
			122 = { set_demilitarized_zone = yes }
			create_country_leader = {
				name = "London Commune"
				desc = "POLITICS_LONDON_COMMUNE_DESC"
				picture = "portrait_spr_anarchist_commune.dds"
				expire = "1935.1.1"
				ideology = syndicalism
				traits = { eng_archaic_rule }
			}
			set_politics = {
				ruling_party = unionism
				elections_allowed = yes
			}
			set_party_name = {
				ideology = unionism
				long_name = ENG_london_commune_long
				name = ENG_london_commune
			}
			create_country_leader = {
				name = "King Edward VIII"
				picture = "ENG_edward_viii.dds"
				expire = "1935.1.1"
				ideology = absolutism
				traits = { revolution_trauma }
			}
			hidden_effect = {
				every_country = {
					limit = { 
						has_secondary_leader = yes
						OR = { 
							original_tag = ROOT 
							AND = { 
								is_subject_of = ROOT 
								is_imperial_puppet = yes 
							}
						} 
					}
					add_stability = -0.15
					remove_secondary_leader = yes
				}
			}
		}
		ai_will_do = {
			factor = 100
		}
	}
	focus = {
		id = ENG_Never_Let_Old_Flag
		icon = GFX_focus_eng_decolonization
		search_filters = { FOCUS_FILTER_POLITICAL } 
		cost = 5
		prerequisite = {
			focus = ENG_Red_Flag_London
		}
		x = 35
		y = 3
		completion_reward = {
			126 = { set_demilitarized_zone = no }
			113 = { set_demilitarized_zone = no }
			135 = { set_demilitarized_zone = no }
			134 = { set_demilitarized_zone = no }
			122 = { set_demilitarized_zone = no }
			set_politics = {
				ruling_party = fascism
				elections_allowed = no
			}
			swap_ideas = {
				add_idea = pax_britannica_3
				remove_idea = pax_britannica
			}
			hidden_effect = {
				set_party_name = {
					ideology = democratic
					long_name = ENG_churchill_pax_britannica
					name = ENG_churchill_pax_britannica
				}
				create_country_leader = {
					name = "Winston Churchill"
					desc = "POLITICS_MOHAMMED_ZAHIR_SHAH_DESC"
					picture = "Portrait_Britain_Winston_Churchill.dds"
					expire = "1935.1.1"
					ideology = liberalism
					traits = {
						###
					}
				}
			}
		}
		ai_will_do = {
			factor = 500
		}
	}
	focus = {
		id = ENG_All_The_Kings_Men
		icon = GFX_focus_ENG_All_The_Kings_Men
		search_filters = { FOCUS_FILTER_POLITICAL } 
		cost = 10
		prerequisite = {
			focus = ENG_Never_Let_Old_Flag
		}
		mutually_exclusive = {
			focus = ENG_Lord_Protector_England
		}
		x = 34
		y = 4
		completion_reward = {
			add_ideas = ENG_All_The_Kings_Men
		}
		ai_will_do = {
			factor = 100	
		}
	}
	focus = {
		id = ENG_Legitimate_King
		icon = GFX_focus_eng_god_save_the_king
		search_filters = { FOCUS_FILTER_POLITICAL } 
		cost = 10
		prerequisite = {
			focus = ENG_All_The_Kings_Men
		}
		mutually_exclusive = {
			focus = ENG_Victoria_Return
			focus = ENG_WildCard_Monarch
		}
		x = 31
		y = 7
		completion_reward = {
			add_political_power = 100
			create_country_leader = {
				name = "King Edward VIII"
				picture = "ENG_edward_viii.dds"
				expire = "1965.1.1"
				ideology = rexism
				traits = { revolution_trauma }
			}
		}
		ai_will_do = {
			factor = 100
			modifier = {
			    factor = 0
				OR = {
					has_game_rule = {
						rule = ENG_AI_BEHAVIOR
						option = VICTORIA
					}
                    has_game_rule = {
						rule = ENG_AI_BEHAVIOR
						option = AUWI
					}
				}
			}	
		}
	}
	focus = {
		id = ENG_Denounce_Liberalism
		search_filters = { FOCUS_FILTER_POLITICAL } 
		icon = GFX_goal_generic_political_pressure
		cost = 10
		prerequisite = {
			focus = ENG_All_The_Kings_Men
			focus = ENG_Arrest_Sir_Grey
		}
		x = 32
		y = 5
		available = { NOT = { has_democratic_government = yes } }
		completion_reward = {
			add_stability = 0.05
			add_popularity = {
				ideology = democratic
				popularity = -0.15
			}
			add_popularity = {
				ideology = conservative
				popularity = -0.05
			}
			add_popularity = {
				ideology = social_democracy
				popularity = -0.05
			}
		}
	}
	focus = {
		id = ENG_WildCard_Monarch
		search_filters = { FOCUS_FILTER_POLITICAL } 
		icon = GFX_focus_OHL
		cost = 10
		prerequisite = {
			focus = ENG_All_The_Kings_Men
		}
		mutually_exclusive = {
			focus = ENG_Legitimate_King
			focus = ENG_Victoria_Return
		}
		x = 35
		y = 7
		available = {
			GER = {
				exists = yes
				NOT = {
					has_war_with = ROOT
				}
			}
		}
		completion_reward = {
			create_country_leader = {
				name = "King William V"
				picture = "ENG_August_Wilhelm.dds"
				expire = "1965.1.1"
				ideology = militarism
				traits = { auwi }
			}
			set_party_name = {
				ideology = monarchism
				long_name = ENG_hohenzollern_long
				name = ENG_hohenzollern
			}
			hidden_effect = {
				set_party_name = {
					ideology = fascism
					long_name = ENG_hohenzollern_long
					name = ENG_hohenzollern
				}
				create_country_leader = {
					name = "King William V"
					picture = "ENG_August_Wilhelm.dds"
					expire = "1965.1.1"
					ideology = absolutism
					traits = { auwi }
				}
			}
		}
		ai_will_do = {
			factor = 60
			modifier = {
			    factor = 0
				OR = {
					has_game_rule = {
						rule = ENG_AI_BEHAVIOR
						option = VICTORIA
					}
                    has_game_rule = {
						rule = ENG_AI_BEHAVIOR
						option = EDWARD
					}
				}
			}	
		}
	}
	focus = {
		id = ENG_Join_Central_Powers
		search_filters = { FOCUS_FILTER_POLITICAL } 
		icon = GFX_focus_ger_oppose_hitler
		cost = 10
		prerequisite = {
			focus = ENG_WildCard_Monarch
		}
		x = 35
		y = 8
		available = {
			is_in_faction = no
			is_puppet = no
			GER = {
				is_faction_leader = yes
				NOT = {
					has_war_with = ROOT
				}
			}
		}
		completion_reward = {
			GER = { country_event = ww1_england.29 }
		}
	}
	focus = {
		id = ENG_Lord_Protector_England
		search_filters = { FOCUS_FILTER_POLITICAL } 
		icon = GFX_focus_spr_torchbearers_of_tomorrow
		cost = 10
		prerequisite = {
			focus = ENG_Never_Let_Old_Flag
		}
		mutually_exclusive = {
			focus = ENG_All_The_Kings_Men
		}
		x = 37
		y = 4
		available = {
			has_country_leader = {
				ruling_only = yes
				name = "Herbert Kitchener"
			}
		}
		completion_reward = {
			add_country_leader_trait = lord_protector
			if = {
				limit = {
					NOT = {
						has_completed_focus = ENG_Imperial_Federation
					}
				}
				set_cosmetic_tag = ENG_cromwealth
			}
		}
		ai_will_do = {
			factor = 100	
		}
	}
	focus = {
		id = ENG_No_Country_Red_Men
		search_filters = { FOCUS_FILTER_POLITICAL } 
		icon = GFX_focus_usa_voter_registration_act
		cost = 10
		prerequisite = {
			focus = ENG_Lord_Protector_England
			focus = ENG_All_The_Kings_Men
		}
		x = 36
		y = 5
		completion_reward = {
			add_ideas = eng_red_scare
		}
	}
	focus = {
		id = ENG_Grand_Campaign
		search_filters = { FOCUS_FILTER_POLITICAL } 
		icon = GFX_goal_generic_major_war
		cost = 10
		prerequisite = {
			focus = ENG_Lord_Protector_England
		}
		x = 37
		y = 7
		completion_reward = {
			add_state_claim = 546
			add_state_claim = 769
			add_state_claim = 768
			add_state_claim = 268
			add_state_claim = 559
			add_state_claim = 1087
			add_state_claim = 1088
			add_state_claim = 523
			add_state_claim = 918
			add_state_claim = 1141
			add_state_claim = 1142
			add_state_claim = 794
			add_state_claim = 777
			add_state_claim = 776
			add_state_claim = 781
			add_state_claim = 778
			add_state_claim = 515
			add_state_claim = 773
			add_state_claim = 774
			add_state_claim = 898
			add_state_claim = 660
			add_state_claim = 543
			add_state_claim = 114
			add_state_claim = 1
			add_state_claim = 177
			add_state_claim = 182
			add_state_claim = 337
			add_state_claim = 100
			add_state_claim = 101
			add_state_claim = 1152
			add_state_claim = 291
			add_state_claim = 946
			add_state_claim = 675
			add_state_claim = 945
			add_state_claim = 678
			add_state_claim = 743
			add_state_claim = 293
			add_state_claim = 747
			add_state_claim = 679
			add_state_claim = 948
			add_state_claim = 455
			add_state_claim = 947
			add_state_claim = 454
			add_state_claim = 879
			add_state_claim = 880
			add_state_claim = 1117
			add_state_claim = 1118
		}
	}
	focus = {
		id = ENG_Big_Wolf
		search_filters = { FOCUS_FILTER_POLITICAL } 
		icon = GFX_goal_generic_more_territorial_claims
		cost = 10
		prerequisite = {
			focus = ENG_Grand_Campaign
		}
		mutually_exclusive = {
			focus = ENG_false_lion
			focus = ENG_Desolate_Sun_Throne
		}
		x = 37
		y = 8
		available = {
			is_puppet = no
			TUR = { exists = yes }
			NOT = { is_in_faction_with = TUR }
		}
		bypass = {
			TUR = { is_puppet_of = ROOT }
		}	
		completion_reward = {
			add_named_threat = { threat = 3 name = ENG_Big_Wolf }
			create_wargoal = {
				target = TUR
				type = puppet_wargoal_focus
			}
		}
	}
	focus = {
		id = ENG_Military_Cult
		search_filters = { FOCUS_FILTER_POLITICAL } 
		icon = GFX_focus_generic_military_mission
		cost = 10
		prerequisite = {
			focus = ENG_Lord_Protector_England
		}
		x = 38
		y = 5
		completion_reward = {
			add_popularity = {
				ideology = fascism
				popularity = 0.1
			}
			add_ideas = militarism_focus
		}

	}
	focus = {
		id = ENG_Seize_Estates
		search_filters = { FOCUS_FILTER_INDUSTRY } 
		icon = GFX_focus_rom_abdicate
		cost = 10
		prerequisite = {
			focus = ENG_Military_Cult
		}
		x = 38
		y = 6
		completion_reward = {
			add_offsite_building = {
				type = arms_factory
				level = 2
			}
			add_offsite_building = {
				type = industrial_complex
				level = 1
			}
		}

	}
	focus = {
		id = ENG_Fabian_Ascendancy
		search_filters = { FOCUS_FILTER_POLITICAL } 
		icon = GFX_goal_generic_war_with_comintern
		cost = 10
		prerequisite = {
			focus = ENG_Engage_Continental
		}
		available = {
			has_elections = yes
		}
		mutually_exclusive = { focus = ENG_Liberal_Government }
		x = 41
		y = 1
		completion_reward = {
			add_popularity = {
				ideology = communism
				popularity = 0.05
			}
		}
		ai_will_do = {
			factor = 5
		}
	}
	focus = {
		id = ENG_Formation_Labour_Party
		search_filters = { FOCUS_FILTER_POLITICAL } 
		icon = GFX_goal_generic_soviet_construction
		cost = 10
		prerequisite = {
			focus = ENG_Fabian_Ascendancy
		}
		x = 40
		y = 2
		ai_will_do = { 
			factor = 100
			modifier = {
				factor = 500
				communism > 0.5
			}
		}
		completion_reward = {
			add_political_power = 120
			set_party_name = {
				ideology = communism
				long_name = ENG_united_socialist_council_long
				name = ENG_united_socialist_council
			}
		}
		ai_will_do = {
			factor = 100
		}
	}
	focus = {
		id = ENG_Endorse_Marxism
		search_filters = { FOCUS_FILTER_POLITICAL } 
		icon = GFX_focus_spr_unify_the_london_bureau
		cost = 10
		prerequisite = {
			focus = ENG_Fabian_Ascendancy
		}
		x = 38
		y = 2
		ai_will_do = { 
			factor = 100
			modifier = {
				factor = 500
				communism > 0.5
			}
		}
		completion_reward = {
			add_stability = -0.05
			add_popularity = {
				ideology = communism
				popularity = 0.20
			}
		}
		ai_will_do = {
			factor = 100
		}
	}
	focus = {
		id = ENG_Publicly_Support_White_Feather
		search_filters = { FOCUS_FILTER_POLITICAL } 
		icon = GFX_goal_generic_propaganda
		cost = 10
		prerequisite = {
			focus = ENG_Lord_Protector_England
		}
		x = 40
		y = 5
		available = {
			has_war = yes
		}
		bypass = { has_idea = extensive_conscription }
		completion_reward = {
			add_ideas = extensive_conscription
		}
	}
	focus = {
		id = ENG_Formal_Stratocracy
		search_filters = { FOCUS_FILTER_STABILITY FOCUS_FILTER_WAR_SUPPORT } 
		icon = GFX_focus_generic_little_entente
		cost = 10
		prerequisite = {
			focus = ENG_Publicly_Support_White_Feather
		}
		x = 40
		y = 6
		completion_reward = {
			add_stability = 0.1
			add_war_support = 0.1
		}
	}
	focus = {
		id = ENG_Cromwellianism
		search_filters = { FOCUS_FILTER_POLITICAL } 
		icon = GFX_focus_generic_manpower
		cost = 10
		prerequisite = {
			focus = ENG_Formal_Stratocracy
		}
		prerequisite = {
			focus = ENG_Seize_Estates
		}
		x = 39
		y = 7
		available = {
			has_country_leader = {
				ruling_only = yes
				name = "Herbert Kitchener"
			}
		}
		completion_reward = {
			add_country_leader_trait = generallissimo
		}
	}
	focus = {
		id = ENG_Meet_Lenin
		search_filters = { FOCUS_FILTER_POLITICAL } 
		icon = GFX_focus_spr_class_war
		cost = 10
		prerequisite = {
			focus = ENG_Fabian_Ascendancy
		}
		x = 42
		y = 2
		ai_will_do = { 
			factor = 100
			modifier = {
				factor = 500
				communism > 0.5
			}
		}
		completion_reward = {
			add_stability = -0.05
			add_timed_idea = { idea = ENG_Meet_Lenin days = 270 }
		}
		ai_will_do = {
			factor = 100
		}
	}
	focus = {
		id = ENG_Referendum_Monarchy
		search_filters = { FOCUS_FILTER_POLITICAL } 
		icon = GFX_goal_parlementogg
		cost = 10
		prerequisite = {
			focus = ENG_Meet_Lenin
		}
		prerequisite = {
			focus = ENG_Endorse_Marxism
		}
		prerequisite = {
			focus = ENG_Formation_Labour_Party
		}
		x = 41
		y = 3
		available = {
			democratic < 0.5
		}
		ai_will_do = { 
			factor = 100
			modifier = {
				factor = 500
				communism > 0.5
			}
		}
		completion_reward = {
			hidden_effect = {
				news_event = { id = eng_news.14 }
				every_unit_leader = {
					limit = { has_trait = ENG_royalist }
					remove_unit_leader_trait = ENG_royalist
				}
			}
			set_politics = {
				ruling_party = communism
				elections_allowed = yes
			}
			if = {
				limit = {
					CAN = {
						has_country_leader = { name = "Wilfrid Laurier" ruling_only = yes }
					}
				}
				CAN = { country_event = ww1_england.92 }
				else = {
					CAN = {
					country_event = ww1_england.33
					set_state_owner = 332
					set_state_owner = 331
					}
				}
			}
			AST = {
				country_event = ww1_england.33
			}
			NZL = {
				country_event = ww1_england.33
			}
		}
		ai_will_do = {
			factor = 100
		}
	}
	focus = {
		id = ENG_Vanguardism
		search_filters = { FOCUS_FILTER_POLITICAL } 
		icon = GFX_focus_chi_mission_to_the_soviet_union
		cost = 10
		prerequisite = {
			focus = ENG_Referendum_Monarchy
		}
		mutually_exclusive = {
			focus = ENG_Socialist_Democracy
		}
		x = 41
		y = 4
		completion_reward = {
			add_ideas = eng_dic_pro
			set_party_name = {
				ideology = communism
				long_name = ENG_national_socialist_party_long
				name = ENG_national_socialist_party
			}
			hidden_effect = {
				create_country_leader = {
					name = "Edward Pease"
					picture = "ENG_Edward_Pease.dds"
					expire = "1935.1.1"
					ideology = trotskyism
					traits = { }
				}
			}
		}
	}
	focus = {
		id = ENG_Socialist_Democracy
		search_filters = { FOCUS_FILTER_POLITICAL } 
		icon = GFX_focus_eng_concessions_to_the_trade_unions
		cost = 10
		prerequisite = {
			focus = ENG_Referendum_Monarchy
		}
		mutually_exclusive = {
			focus = ENG_Vanguardism
		}
		x = 43
		y = 4
		completion_reward = {
			add_ideas = trade_union_democracy
			set_party_name = {
				ideology = communism
				long_name = ENG_labour_party_long
				name = ENG_labour_party
			}
		}
	}
	focus = {
		id = ENG_Red_Empire
		search_filters = { FOCUS_FILTER_POLITICAL } 
		icon = GFX_focus_eng_red_empire
		cost = 20
		prerequisite = {
			focus = ENG_Socialist_Democracy
			focus = ENG_Vanguardism
		}
		x = 42
		y = 5
		available = {
			any_country = { is_subject_of = ROOT }
		}
		completion_reward = {
			every_country = {
				limit = { is_subject_of = ROOT }
				add_timed_idea = { idea = ENG_Red_Empire days = 300 }
			}
			remove_ideas = eng_overextension
		}
	}
	focus = {
		id = ENG_Liberal_Government
		search_filters = { FOCUS_FILTER_POLITICAL } 
		icon = GFX_goal_support_democracy
		cost = 10
		prerequisite = {
			focus = ENG_Engage_Continental
		}
		mutually_exclusive = {
			focus = ENG_Fabian_Ascendancy
		}
		available = {
			has_democratic_government = yes
		}
		x = 45
		y = 1
		completion_reward = {
			add_stability = 0.05	
		}
		ai_will_do = {
			factor = 5
			modifier = {
				factor = 0
				GER = { has_completed_focus = GER_contain_kaiser }					
			}	
		}
	}
	focus = {
		id = ENG_Pension_Act
		search_filters = { FOCUS_FILTER_INTERNAL_AFFAIRS } 
		icon = GFX_goal_generic_neutrality_focus
		cost = 10
		prerequisite = {
			focus = ENG_Liberal_Government
		}
		x = 44
		y = 2
		completion_reward = {
			add_ideas = eng_pension
		}
	}
	focus = {
		id = ENG_Neo_Liberalism
		search_filters = { FOCUS_FILTER_POLITICAL }
		icon = GFX_goal_tfv_strengthen_commonwealth_ties
		cost = 10
		prerequisite = {
			focus = ENG_Liberal_Government
		}
		x = 46
		y = 2
		completion_reward = {
			custom_effect_tooltip = ENG_no_further_appeasement_tt
			hidden_effect = {
				set_rule = { can_declare_war_on_same_ideology = yes }
				set_rule = { can_puppet = yes }
			}
		}
	}
	focus = {
		id = ENG_raise_patriotism
		search_filters = { FOCUS_FILTER_WAR_SUPPORT }
		icon = GFX_focus_generic_support_the_left_right
		cost = 10
		prerequisite = {
			focus = ENG_Neo_Liberalism
		}
		prerequisite = {
			focus = ENG_Pension_Act
		}
		x = 45
		y = 3
		available = {
			OR = {
				threat > 0.5
				has_war = yes
			}
		}
		completion_reward = {
			add_war_support = 0.1
			army_experience = 10
			navy_experience = 10
			air_experience = 10
		}
	}
	focus = {
		id = ENG_Pro_Patria_Mori
		search_filters = { FOCUS_FILTER_MANPOWER }
		icon = GFX_focus_generic_commonwealth_build_infantry
		cost = 5
		prerequisite = {
			focus = ENG_raise_patriotism
		}
		x = 45
		y = 4
		available = {
			OR = {
				threat > 0.5
				has_war = yes
			}
		}
		bypass = {
			has_idea = extensive_conscription
		}
		completion_reward = {
			add_ideas = extensive_conscription
		}

	}
	focus = {
		id = ENG_Reaffirm_Triple_Entente
		search_filters = { FOCUS_FILTER_POLITICAL }
		icon = GFX_goal_generic_demand_territory
		cost = 10
		prerequisite = {
			focus = ENG_Engage_Continental
		}
		x = 49
		y = 1
		available = {
			is_puppet = no
			is_in_faction = no
			NOT = { has_war_with = FRA }
			OR = {
				has_war = yes
				threat > 0.6
				date > 1915.1.1
			}
		}
		bypass = {
			is_in_faction_with = FRA 
		}
		completion_reward = {
			if = {
				limit = { FRA = { is_faction_leader = yes } }
				FRA = { country_event = ww1_england.29 }
			}
			if = {
				limit = { FRA = { is_faction_leader = no } }
				create_faction = ENG_coalition_of_free_commonwealth_states
			}
			set_rule = { can_create_factions = yes }
		}
		ai_will_do = { factor = 100 }

	}
	focus = {
		id = ENG_Counter_Offensive
		search_filters = { FOCUS_FILTER_WAR_SUPPORT }
		icon = GFX_goal_generic_occupy_states_ongoing_war
		cost = 5
		prerequisite = {
			focus = ENG_Remember_Kruger
		}
		x = 49
		y = 3
		available = {
			has_war = yes
			has_global_flag = kis_war
		}
		completion_reward = {
			add_timed_idea = {
				idea = eng_counterattack
				days = 70
			}
		}
		ai_will_do = { 
			factor = 50
		}
	}
	focus = {
		id = ENG_Fight_Turk
		search_filters = { FOCUS_FILTER_POLITICAL FOCUS_FILTER_ANNEXATION }
		icon = GFX_goal_centralpowers
		cost = 10
		prerequisite = {
			focus = ENG_Remember_Kruger
		}
		x = 47
		y = 3
		available = {
		    is_subject = no
		}
		bypass = {
			OR = {
				is_in_faction_with = TUR
				TUR = { is_subject_of = ROOT }
				TUR = { exists = no }
			}
		}
		ai_will_do = { 
			factor = 30
			modifier = {
				factor = 0
				OR = {
					AND = {
						has_war = yes
						NOT = {
							has_war_with = TUR
							TUR = {is_in_faction_with = GER}
						}
					}
					NOT = {has_global_flag=kis_war}
				}					
			}	
		}
		completion_reward = {
			add_state_claim = 454
			add_state_claim = 879
			add_state_claim = 880
			add_state_claim = 1117
			add_state_claim = 1118
			add_state_claim = 455
			add_state_claim = 947
			add_state_claim = 675
			add_state_claim = 945
			add_state_claim = 291
			add_state_claim = 946
			add_state_claim = 676
			if = {
				limit = { NOT = { has_war_with = TUR } }
				add_named_threat = { threat = 1 name = ENG_Fight_Turk }
				create_wargoal = {
					target = TUR
					type = puppet_wargoal_focus
				}
			}
		}
	}
	focus = {
		id = ENG_Remember_Kruger
		search_filters = { FOCUS_FILTER_POLITICAL FOCUS_FILTER_ANNEXATION }
		icon = GFX_focus_attack_germany
		cost = 10
		prerequisite = {
			focus = ENG_Reaffirm_Triple_Entente
		}
		x = 48
		y = 2
		completion_reward = {
			add_opinion_modifier = { 
				target = GER modifier = HOI4TGW_Opinion_anti_ger_policy_malus 
			}
			add_state_claim = 1049
			add_state_claim = 900
			add_state_claim = 901
			add_state_claim = 546
			add_state_claim = 541
			add_state_claim = 1056
			add_state_claim = 1057
			add_state_claim = 794
			add_state_claim = 523
			add_state_claim = 918
			add_state_claim = 1141
			add_state_claim = 1142
			if = {
				limit = { 
					NOT = { BEL = { is_in_faction_with = GER } } 
				}
				BEL = {
					add_state_claim = 768
					add_state_claim = 769
				}
			}
			if = {
				limit = { 
					BEL = { is_in_faction_with = GER }
				}
				add_state_claim = 768
				add_state_claim = 769
			}
		}

	}
	focus = {
		id = ENG_Lawrence_Of_Arabia
		search_filters = { FOCUS_FILTER_POLITICAL }
		icon = GFX_goal_investotto
		cost = 10
		prerequisite = {
			focus = ENG_Fight_Turk
			focus = ENG_Counter_Offensive
		}
		x = 48
		y = 5
		available = {
			has_war_with = TUR
			OR = {
				date > 1916.6.1
				TUR = { surrender_progress > 0.1 }
			}
		}
		bypass = {
			TUR = { has_war_with = HJZ }
		}
		completion_reward = {
			TUR = { country_event = ww1_hejaz.7 }
			create_operative_leader = {
				name = "Thomas Edward Lawrence"
				GFX = ENG_thomas_edward_lawrence
				traits = { operative_linguist operative_commando }
				bypass_recruitment = yes
				available_to_spy_master = no
				nationalities = { ENG HJZ }
			}
			
		}
		ai_will_do = {
			factor = 100
			modifier = {
				factor = 0
				date < 1916.4.1
			}
		}
	}
	focus = {
		id = ENG_search_for_allies
		search_filters = { FOCUS_FILTER_POLITICAL }
		icon = GFX_focus_generic_befriend_portugal
		cost = 10
		prerequisite = {
			focus = ENG_Reaffirm_Triple_Entente
		}
		x = 50
		y = 2
		available = { is_in_faction = yes }
		bypass = { POR = { is_in_faction = yes } }
		completion_reward = {
			POR = { 
				country_event = { id = generic.5 } 
			}
			add_threat = 1
		}
	}
	focus = {
		id = NEG_make_contact_with_america
		search_filters = { FOCUS_FILTER_POLITICAL }
		icon = GFX_goal_generic_intelligence_exchange
		cost = 10
		prerequisite = {
			focus = ENG_search_for_allies
		}
		x = 50
		y = 4
		completion_reward = {
			every_country = {
				limit = {
					OR = {
						original_tag = BRA
						original_tag = VEN
						original_tag = COL
						original_tag = ECU
						original_tag = PRU
						original_tag = BOL
						original_tag = PAR
						original_tag = ARG
						original_tag = CHL
						original_tag = URG
					}
					not = { has_war_with = ROOT }
					not = { is_subject_of = ROOT }
					exists = yes
				}
				country_event = ww1_england.51
			}
		}
	}
	focus = {
		id = ENG_call_the_USA
		search_filters = { FOCUS_FILTER_POLITICAL }
		icon = GFX_focus_chi_mission_to_the_us
		cost = 10
		prerequisite = {
			focus = NEG_make_contact_with_america
		}
		x = 50
		y = 5
		available = { 
			is_puppet = no
			is_in_faction = yes
			threat > 0.75
			USA = {
				has_democratic_government = yes
				has_war_support > 0.5
			}
		}
		completion_reward = {
			USA = { 
				country_event = { id = generic.5 } 
			}
		}
	}
	focus = {
		id = ENG_Naval_Arms_Race
		search_filters = { FOCUS_FILTER_INDUSTRY }
		icon = GFX_focus_ger_accept_british_naval_dominance
		cost = 5
		prerequisite = {
			focus = ENG_Engage_Continental
		}
		x = 52
		y = 1
		available = {
			threat > 0.05
		}
		completion_reward = {
			add_threat = 3
			navy_experience = 20
			random_owned_controlled_state = {
				add_extra_state_shared_building_slots = 2
				add_building_construction = {
					type = dockyard
					level = 2
					instant_build = yes
				}
			}
			random_owned_controlled_state = {
				add_extra_state_shared_building_slots = 2
				add_building_construction = {
					type = dockyard
					level = 2
					instant_build = yes
				}
			}
		}

	}
	focus = {
		id = ENG_Ramp_Up_Production
		search_filters = { FOCUS_FILTER_INDUSTRY }
		icon = GFX_goal_generic_amphibious_assault
		cost = 5
		prerequisite = {
			focus = ENG_Naval_Arms_Race
		}
		x = 52
		y = 2
		completion_reward = {
			add_threat = 2
			add_ideas = ENG_Ramp_Up_Production
		}
	}
	focus = {
		id = ENG_Deal_With_Japan
		search_filters = { FOCUS_FILTER_POLITICAL }
		icon = GFX_focus_chi_collaboration_with_the_japanese
		cost = 10
		prerequisite = {
			focus = ENG_Ramp_Up_Production
		}
		mutually_exclusive = {
			focus = ENG_Assert_Port_Arthur
		}
		x = 51
		y = 3
		available = { 
			is_puppet = no
			is_in_faction = yes
			JAP = { exists = yes is_puppet = no is_in_faction = no NOT = { has_country_flag = tokyo_pact } }
		}
		bypass = { is_in_faction_with = JAP }
		completion_reward = {
			JAP = {
				country_event = { id = ww1_england.27 days = 2 }
			}
		}
	}
	focus = {
		id = ENG_Assert_Port_Arthur
		search_filters = { FOCUS_FILTER_POLITICAL }
		icon = GFX_focus_deal_with_russia
		cost = 10
		prerequisite = {
			focus = ENG_Ramp_Up_Production
		}
		mutually_exclusive = {
			focus = ENG_Deal_With_Japan
		}
		x = 53
		y = 3
		available = {
			is_puppet = no
			RUS = { is_in_faction_with = ROOT }
		}
		bypass = { RUS = { owns_state = 744 } }
		completion_reward = {
			add_named_threat = { threat = 1 name = ENG_Assert_Port_Arthur }
			RUS = {
				transfer_state = 744
			}
			744 = {
				add_building_construction = {
					type = coastal_bunker
					level = 2
					province = 1150
					instant_build = yes
				}
				add_building_construction = {
					type = naval_base
					level = 2
					province = 1150
					instant_build = yes
				}
			}
			hidden_effect = {
				JAP = { add_state_claim = 744 } 
			}
		}
		ai_will_do = {
			factor = 1
			modifier = {
				factor = 0
				OR = {
					has_game_rule = {
						rule = ENG_ai_behavior
						option = DEMOCRATIC_HISTORICAL
					}						
					AND = {
				        is_historical_focus_on = yes
				        has_game_rule = {
					        rule = ENG_ai_behavior
					        option = DEFAULT
				        } 
					}
				}
			}
		}	
	}
	focus = {
		id = ENG_tame_japan
		search_filters = { FOCUS_FILTER_POLITICAL }
		icon = GFX_focus_attack_japan
		cost = 10
		prerequisite = {
			focus = ENG_Assert_Port_Arthur
		}
		x = 53
		y = 4
		available = { 
			is_puppet = no
			NOT = { is_in_faction_with = JAP }
			JAP = { exists = yes }
		}
		bypass = { has_war_with = JAP }
		will_lead_to_war_with = JAP
		completion_reward = {
			create_wargoal = {
				type = puppet_wargoal_focus
				target = JAP
				expire = 0
			}
		}
	}
	focus = {
		id = ENG_commonwealth_individuality
		search_filters = { FOCUS_FILTER_POLITICAL }
		icon = GFX_focus_generic_home_defense
		cost = 10
		prerequisite = {
			focus = ENG_Engage_Continental
		}
		x = 55
		y = 1
		completion_reward = {
			every_country = {
				limit = { is_subject_of = ROOT }
				add_stability = 0.05
				if = {
					limit = { has_democratic_government = yes }
					add_popularity = { ideology = conservative popularity = 0.1 }
					add_popularity = { ideology = social_democracy popularity = 0.1 }
				}
				if = {
					limit = { has_socialist_government = yes }
					add_popularity = { ideology = communism popularity = 0.1 }
					add_popularity = { ideology = unionism popularity = 0.1 }
				}
			}
		}
	}
	focus = {
		id = ENG_Dervish_State
		search_filters = { FOCUS_FILTER_POLITICAL }
		icon = GFX_goal_tfv_saf_anti_colonialist_crusade
		cost = 10
		prerequisite = {
			focus = ENG_commonwealth_individuality
		}
		x = 54
		y = 2
		available = {
			date > 1915.1.1
			owns_state = 269
			has_manpower > 10000
		}
		completion_reward = {
			add_manpower = -10000
			custom_effect_tooltip = dervish_revolt
			hidden_effect = {
				set_country_flag = no_dervish
			}
		}

	}
	focus = {
		id = ENG_control_under_egypt
		search_filters = { FOCUS_FILTER_POLITICAL }
		icon = GFX_goal_generic_defence
		cost = 10
		prerequisite = {
			focus = ENG_commonwealth_individuality
		}
		x = 56
		y = 2
		available = {
			EGY = { is_puppet_of = ENG }
		}
		completion_reward = {
			EGY = {
				add_political_power = 100
				add_ideas = ENG_british_patronage
				if = {
					limit = { 
						has_country_leader = {
							name = "Abbas II Helmy"
							ruling_only = yes
						}
					}
					country_event = { id = ww1_egypt.2 }
				}
				set_cosmetic_tag = EGY_sultanate
				set_global_flag = EGY_sultanate
				add_ai_strategy = {
					type = befriend
					id = ENG
					value = 50
				}
			}
		}
	}
	focus = {
		id = ENG_secure_suez
		search_filters = { FOCUS_FILTER_INDUSTRY }
		icon = GFX_goal_generic_construct_military
		cost = 10
		prerequisite = {
			focus = ENG_control_under_egypt
		}
		x = 55
		y = 3
		available = {
			OR = {
				EGY = { is_subject_of = ENG has_full_control_of_state = 995 }
				has_full_control_of_state = 995
			}
		}
		completion_reward = {
			995 = {
				add_building_construction = {
					type = coastal_bunker
					level = 2
					province = 4076
					instant_build = yes
				}
				add_building_construction = {
					type = air_base
					level = 1
					instant_build = yes
				}
				add_building_construction = {
					type = bunker
					level = 2
					province = 1071
					instant_build = yes
				}
			}
		}
	}
	focus = {
		id = ENG_Dardanelles_campaign
		search_filters = { FOCUS_FILTER_WAR_SUPPORT }
		icon = GFX_goal_The_Big_Push
		cost = 5
		prerequisite = {
			focus = ENG_secure_suez
		}
		x = 55
		y = 4
		available = { has_war_with = TUR }
		completion_reward = { add_timed_idea = { idea = ENG_Dardanelles_campaign days = 270 }
	}
}
	focus = {
		id = ENG_raj_focus
		icon = GFX_focus_RAJ_indian_gentlemen_offcers
		cost = 10
		prerequisite = {
			focus = ENG_commonwealth_individuality
		}
		x = 58
		y = 2
		bypass = { 
			NOT = { RAJ = { is_subject_of = ENG } }
		}
		completion_reward = { 
			RAJ = { 
				add_political_power = 100
				add_ideas =  RAJ_indian_gentlemen_officers
			} 
		}
	}
	focus = {
		id = ENG_gulf_defense
		search_filters = { FOCUS_FILTER_INDUSTRY }
		icon = GFX_goal_generic_construct_military
		cost = 10
		prerequisite = {
			focus = ENG_raj_focus
		}
		prerequisite = {
			focus = ENG_control_under_egypt
		}
		x = 57
		y = 3
		available = { has_full_control_of_state = 656 }
		completion_reward = {
			656 = {
				add_building_construction = {
					type = coastal_bunker
					level = 2
					province = 8085
					instant_build = yes
				}
				add_building_construction = {
					type = air_base
					level = 1
					instant_build = yes
				}
				add_building_construction = {
					type = bunker
					level = 2
					province = 8085
					instant_build = yes
				}
			}		
			PER = {
				413 = {
					add_building_construction = {
						type = bunker
						level = 2
						province = 7953
						instant_build = yes
					}
				}
				add_ai_strategy = {
					type = befriend
					id = ENG
					value = 50
				}
				add_ai_strategy = {
					type = alliance
					id = ENG
					value = 50
				}
			}
		}
	}
	focus = {
		id = ENG_Strengthen_ties_with_Afghanistan
		search_filters = { FOCUS_FILTER_POLITICAL }
		icon = GFX_focus_RAJ_indian_gurkhas
		cost = 10
		prerequisite = {
			focus = ENG_raj_focus
		}
		x = 58
		y = 4
		available = { has_full_control_of_state = 656 }
		completion_reward = {	
			diplomatic_relation = {
				country = AFG
				relation = military_access
				active = yes
			}
			AFG = {
				add_political_power = 100
				add_ai_strategy = {
					type = befriend
					id = ENG
					value = 50
				}
				add_ai_strategy = {
					type = alliance
					id = ENG
					value = 75
				}
				add_ai_strategy = {
					type = alliance
					id = TUR
					value = -200
				}
				add_ai_strategy = {
					type = alliance
					id = GER
					value = -200
				}
			}
		}
	}
	focus = {
		id = ENG_canada_focus
		search_filters = { FOCUS_FILTER_POLITICAL }
		icon = GFX_goal_generic_construct_civilian
		cost = 10
		prerequisite = {
			focus = ENG_commonwealth_individuality
		}
		x = 59
		y = 3
		available = { CAN = { is_subject_of = ROOT } }
		completion_reward = {
			CAN = {
				add_political_power = 100
				add_ideas = ENG_british_patronage
				add_ai_strategy = {
					type = befriend
					id = ENG
					value = 50
				}
			}
		}
	}
	focus = {
		id = ENG_ast_focus
		search_filters = { FOCUS_FILTER_POLITICAL }
		icon = GFX_goal_generic_construct_civilian
		cost = 10
		prerequisite = {
			focus = ENG_commonwealth_individuality
		}
		x = 60
		y = 2
		available = { AST = { is_subject_of = ROOT } }
		completion_reward = {
			AST = {
				add_political_power = 100
				add_ideas = ENG_british_patronage
				add_ai_strategy = {
					type = befriend
					id = ENG
					value = 50
				}
			}
		}
	}
	focus = {
		id = ENG_nzl_focus
		search_filters = { FOCUS_FILTER_POLITICAL }
		icon = GFX_goal_generic_construct_civilian
		cost = 10
		prerequisite = {
			focus = ENG_ast_focus
		}
		x = 60
		y = 4
		available = { NZL = { is_subject_of = ROOT } }
		completion_reward = {
			NZL = {
				add_political_power = 100
				add_ideas = ENG_british_patronage
				add_ai_strategy = {
					type = befriend
					id = ENG
					value = 50
				}
			}
		}
	}
	focus = {
		id = ENG_Expand_Hong_Kong
		search_filters = { FOCUS_FILTER_POLITICAL }
		icon = GFX_focus_chi_qing_dynasty
		cost = 10
		prerequisite = {
			focus = ENG_Intervene_Qing
		}
		x = 28
		y = 2
		available = {
			GDC = { exists = yes }
		}
		completion_reward = {
			create_wargoal = {
				type = take_claimed_state
				target = GDC
				generator = { 593 }
			}
		}

	}
	focus = {
		id = ENG_Sykes_Picot
		search_filters = { FOCUS_FILTER_POLITICAL FOCUS_FILTER_ANNEXATION }
		icon = GFX_focus_chi_reach_out_to_france
		cost = 10
		prerequisite = {
			focus = ENG_Lawrence_Of_Arabia
		}
		x = 48
		y = 6
		completion_reward = {
			custom_effect_tooltip = ENG_arab_claim_ignored_tt 
			add_state_claim = 352
			add_state_claim = 960
			if = {
				limit = { is_in_faction_with = RUS }
				RUS = {
					add_state_claim = 353
					add_state_claim = 800
					add_state_claim = 354
					add_state_claim = 1001
				}
			}
			if = {
				limit = { is_in_faction_with = FRA }
				FRA = {
					add_state_claim = 350
					add_state_claim = 961
					add_state_claim = 344
					add_state_claim = 349
					add_state_claim = 959
				}
			}
			if = {
				limit = { is_in_faction_with = ITA }
				ITA = {
					add_state_claim = 342
					add_state_claim = 345
					add_state_claim = 954
					add_state_claim = 343
					add_state_claim = 346
					add_state_claim = 348
				}
			}
			if = {
				limit = { is_in_faction_with = GRE }
				GRE = {
					add_state_claim = 339
					add_state_claim = 797
					add_state_claim = 340
					add_state_claim = 950
				}
			}
		}
		ai_will_do = {
	        factor = 50
			modifier = {
				factor = 0.1
				NOT = { is_in_faction_with = ITA }
			}
	    }
	}
	focus = {
		id = ENG_World_Wide_Anti_Bolshevist
		search_filters = { FOCUS_FILTER_POLITICAL }
		icon = GFX_focus_ger_bulwark_against_bolshevism
		cost = 10
		prerequisite = {
			focus = ENG_Legitimate_King
		}
		x = 31
		y = 8
			completion_reward = {
					add_ideas = eng_defender_faith
				}

	}
	focus = {
		id = ENG_Victoria_Return
		search_filters = { FOCUS_FILTER_POLITICAL }
		icon = GFX_focus_eng_Princess_Victoria
		cost = 10
		prerequisite = {
			focus = ENG_All_The_Kings_Men
		}
		mutually_exclusive = {
			focus = ENG_Legitimate_King
			focus = ENG_WildCard_Monarch
		}
		x = 33
		y = 7
			completion_reward = {
					create_country_leader = {
							name = "Queen Victoria II"
							picture = "gfx/leaders/ENG/princess_victoria.dds"
							expire = "1935.1.1"
							ideology = rexism
							female = yes
							traits = { conservative_grandee }
						}
					hidden_effect = {
							create_country_leader = {
									name = "Queen Victoria II"
									picture = "gfx/leaders/ENG/princess_victoria.dds"
									expire = "1965.1.1"
									ideology = absolutism
									female = yes
									traits = { conservative_grandee }
								}
						}
				}
		ai_will_do = {
			factor = 80
			modifier = {
			    factor = 0
				OR = {
					has_game_rule = {
						rule = ENG_AI_BEHAVIOR
						option = AUWI
					}
                    has_game_rule = {
						rule = ENG_AI_BEHAVIOR
						option = EDWARD
					}
				}
			}	
		}
	}
	focus = {
		id = ENG_Condolences_For_Condolences
		search_filters = { FOCUS_FILTER_POLITICAL }
		icon = GFX_focus_por_the_kingdom_reunited
		cost = 10
		prerequisite = {
			focus = ENG_Victoria_Return
		}
		x = 33
		y = 8
			completion_reward = {
					if = {
							limit = {
									POR = {
											has_democratic_government = yes
										}
								}
							create_wargoal = {
									type = take_claimed_state
									target = POR
								}
						}
					else_if = {
							limit = {
									NOT = {
											POR = {
													has_democratic_government = yes
												}
										}
								}
							POR = {
									country_event = {
											id = ww1_england.28
										}
								}
						}
				}

	}
	focus = {
		id = ENG_false_lion
		search_filters = { FOCUS_FILTER_POLITICAL }
		icon = GFX_goal_generic_more_territorial_claims
		cost = 10
		prerequisite = {
			focus = ENG_Grand_Campaign
		}
		mutually_exclusive = {
			focus = ENG_Big_Wolf
			focus = ENG_Desolate_Sun_Throne
		}
		x = 39
		y = 8
		completion_reward = {
			create_wargoal = {
				target = ETH
				type = puppet_wargoal_focus
			}
		}

	}
	focus = {
		id = ENG_Desolate_Sun_Throne
		search_filters = { FOCUS_FILTER_POLITICAL }
		icon = GFX_goal_generic_more_territorial_claims
		cost = 10
		prerequisite = {
			focus = ENG_Grand_Campaign
		}
		mutually_exclusive = {
			focus = ENG_Big_Wolf
			focus = ENG_false_lion
		}
		x = 41
		y = 8
			completion_reward = {
					create_wargoal = {
							target = PER
							type = topple_government
						}
				}

	}
	focus = {
		id = ENG_Restore_Order_Rus
		search_filters = { FOCUS_FILTER_POLITICAL }
		icon = GFX_focus_eng_expose_the_belly_of_the_bear
		cost = 10
		prerequisite = {
			focus = ENG_World_Wide_Anti_Bolshevist
			focus = ENG_Condolences_For_Condolences
			focus = ENG_Join_Central_Powers
			focus = ENG_Big_Wolf
			focus = ENG_false_lion
			focus = ENG_Desolate_Sun_Throne
		}
		x = 36
		y = 9
			available = {
					SOV = {
							exists = yes
						}
				}
			completion_reward = {
					create_wargoal = {
							target = SOV
							type = topple_government
						}
				}

	}
	focus = {
		id = ENG_First_Lord_Admiralty
		search_filters = { FOCUS_FILTER_POLITICAL }
		icon = GFX_focus_eng_motion_of_no_confidence
		cost = 10
		prerequisite = {
			focus = ENG_Third_Positionism
		}
		x = 29
		y = 4
		completion_reward = {
			add_ideas = eng_idea_churchill
		create_country_leader = {
			name = "Winston Churchill"
			desc = "POLITICS_MOHAMMED_ZAHIR_SHAH_DESC"
			picture = "Portrait_Britain_Winston_Churchill.dds"
			expire = "1935.1.1"
			ideology = conservatism
			traits = {
			###
				}
		}
		}
	}
	focus = {
		id = ENG_Kingdom_Eternal
		search_filters = { FOCUS_FILTER_STABILITY FOCUS_FILTER_WAR_SUPPORT }
		icon = GFX_focus_generic_home_defense
		cost = 10
		prerequisite = {
			focus = ENG_Arrest_Sir_Grey
		}
		prerequisite = {
			focus = ENG_First_Lord_Admiralty
		}
		x = 29
		y = 5
		completion_reward = {
			add_stability = 0.1
			add_war_support = 0.1
		}

	}
	focus = {
		id = ENG_Armament_Estates
		search_filters = { FOCUS_FILTER_INDUSTRY }
		icon = GFX_focus_usa_reestablish_the_gold_standard
		cost = 10
		prerequisite = {
			focus = ENG_All_The_Kings_Men
			focus = ENG_Kingdom_Eternal
		}
		x = 34
		y = 6
			completion_reward = {
					add_offsite_building = {
							type = arms_factory
							level = 2
						}
				}

	}
	focus = {
		id = ENG_Revive_Angevin_Claim
		search_filters = { FOCUS_FILTER_POLITICAL FOCUS_FILTER_ANNEXATION }
		icon = GFX_focus_fra_regiment_normandie
		cost = 10
		prerequisite = {
			focus = ENG_Kingdom_Eternal
		}
		x = 28
		y = 6
		completion_reward = {
			add_state_claim = 15
			add_state_claim = 818
			add_state_claim = 14
			add_state_claim = 30
			add_state_claim = 19
		}
	}
	focus = {
		id = ENG_CP_application
		search_filters = { FOCUS_FILTER_POLITICAL }
		icon = GFX_focus_deal_with_german_empire
		cost = 10
		prerequisite = {
			focus = ENG_Revive_Angevin_Claim
		}
		mutually_exclusive = {
			focus = ENG_Romanov_Alliance
		}
		x = 29
		y = 7
			available = {
					GER = {
							is_faction_leader = yes
						}
					GER = {
							exists = yes
							not = {
									has_war_with = ROOT
								}
						}
				}
			completion_reward = {
					GER = {
							country_event = {
									id = ww1_england.29
								}
						}
				}

	}
	focus = {
		id = ENG_Romanov_Alliance
		search_filters = { FOCUS_FILTER_POLITICAL }
		icon = GFX_focus_rus_resist_the_duma
		cost = 10
		prerequisite = {
			focus = ENG_Revive_Angevin_Claim
		}
		mutually_exclusive = {
			focus = ENG_CP_application
		}
		x = 27
		y = 7
			available = {
					RUS = {
							is_faction_leader = yes
						}
				}
			completion_reward = {
					RUS = {
							country_event = {
									id = ww1_england.29
								}
						}
				}

	}
	focus = {
		id = ENG_expand_Ship
		search_filters = { FOCUS_FILTER_INDUSTRY }
		icon = GFX_goal_placeholder
		cost = 10
		prerequisite = {
			focus = ENG_Kingdom_Eternal
		}
		x = 30
		y = 6
			completion_reward = {
					130 = {
							add_extra_state_shared_building_slots = 5
							add_building_construction = {
									type = dockyard
									level = 5
									instant_build = yes
								}
						}
				}

	}
	focus = {
		id = ENG_future_warfare
		search_filters = { FOCUS_FILTER_RESEARCH }
		icon = GFX_goal_generic_radar
		cost = 10
		prerequisite = {
			focus = ENG_new_paradigm_of_war
		}
		x = 13
		y = 5
		completion_reward = {
			add_tech_bonus = {
			    name = ENG_future_warfare
			    bonus = 1.5
			    uses = 2
			    category = radar_tech
			}
		}

	}
	focus = {
		id = ENG_protectors_of_the_homeland
		search_filters = { FOCUS_FILTER_RESEARCH }
		icon = GFX_goal_generic_military_sphere
		cost = 10
		prerequisite = {
			focus = ENG_masters_of_the_sea
		}
		x = 6
		y = 6
		completion_reward = {
			add_tech_bonus = {
				name = ENG_protectors_of_the_homeland
				bonus = 1.0
				uses = 1
				category = mountaineers_tech
			}
		}

	}
	focus = {
		id = ENG_involve_persia
		search_filters = { FOCUS_FILTER_POLITICAL }
		icon = GFX_goal_generic_alliance
		cost = 5
		prerequisite = {
			focus = ENG_Fight_Turk
		}
		x = 47
		y = 4
		available = {
			is_puppet = no
			has_war_with = TUR
			PER = { is_major = no is_puppet = no } 
		}
		bypass = {
			OR = {
				is_in_faction_with = PER
				PER = { has_war_with = TUR }
			}
		}
		will_lead_to_war_with = PER
		completion_reward = {
			PER = {
				add_to_war = {
					targeted_alliance = ENG
					enemy = TUR
					hostility_reason = asked_to_join
				}
			}
		}
	}
	focus = {
		id = ENG_singapore_strategy
		search_filters = { FOCUS_FILTER_INDUSTRY }
		icon = GFX_goal_generic_navy_cruiser
		cost = 10
		prerequisite = {
			focus = ENG_commonwealth_individuality
		}
		x = 62
		y = 2
		bypass = { MAL = { exists = no } }
		completion_reward = {
			336 = {
				add_extra_state_shared_building_slots = 1
				add_building_construction = {
					type = coastal_bunker
					level = 3
					province = 12299
					instant_build = yes
				}
			}
		}
	}
	focus = {
		id = ENG_strenhten_malayan_administration
		search_filters = { FOCUS_FILTER_POLITICAL }
		icon = GFX_focus_generic_self_management
		cost = 10
		prerequisite = {
			focus = ENG_singapore_strategy
		}
		x = 62
		y = 3
		available = { MAL = { is_subject_of = ROOT } }
		completion_reward = {
			MAL = {
				add_political_power = 100
				add_ideas = ENG_british_patronage
				add_ai_strategy = {
					type = befriend
					id = ENG
					value = 50
				}
			}
		}
	}
	focus = {
		id = ENG_nationalise_persian_oil
		search_filters = { FOCUS_FILTER_INDUSTRY }
		icon = GFX_goal_generic_oil_refinery
		cost = 10
		prerequisite = {
			focus = ENG_Legacy_Of_Industrial_Revolution
		}
		available = {
#			date > 1913.01.01
		}
		x = -2
		y = 0
		relative_position_id = ENG_Business_As_Usual
		completion_reward = {
			PER = {
				give_resource_rights = { receiver = ENG state = 413 }
				give_resource_rights = { receiver = ENG state = 412 }
			}
		}
	}

	#id = ENG_split_persia_with_russia this is decision now
}

#search_filters = { FOCUS_FILTER_STABILITY } 
#search_filters = { FOCUS_FILTER_INDUSTRY } 
#search_filters = { FOCUS_FILTER_POLITICAL } 
#search_filters = { FOCUS_FILTER_WAR_SUPPORT } 
#search_filters = { FOCUS_FILTER_STABILITY } 
#search_filters = { FOCUS_FILTER_RESEARCH } 
#search_filters = { FOCUS_FILTER_INTERNAL_AFFAIRS }
#search_filters = { FOCUS_FILTER_ANNEXATION }
