focus_tree = {
	id = ww2_portugal
	
	country = {
		factor = 0
	}
	
	default = no

	continuous_focus_position = { x = 0 y = 1500 }

##########################################
#########  INDUSTRIAL PORTUGAL ###########
##########################################

	focus = {
		id = POR_great_public_works
		icon = GFX_goal_generic_construction
		search_filters = { FOCUS_FILTER_RESEARCH } 
		
		x = 2
		y = 0
		cost = 5
		ai_will_do = {
			factor = 1
		}	

		cancel_if_invalid = yes
		continue_if_invalid = no
		available_if_capitulated = no

		completion_reward = {
			unlock_decision_category_tooltip = POR_public_works
			add_tech_bonus = {
      			name = POR_great_public_works
				bonus = 0.5
				uses = 1
				technology = construction1
				technology = construction2
				technology = construction3
				technology = construction4
				technology = construction5
			}						
		}
	}

	focus = {
		id = POR_desenvolver_o_interior
		icon = GFX_goal_generic_construct_infrastructure
		prerequisite = { focus = POR_great_public_works }
		search_filters = { FOCUS_FILTER_INDUSTRY } 
		x = 2
		y = 1
		cost = 10
		ai_will_do = {
			factor = 1
		}

		cancel_if_invalid = yes
		continue_if_invalid = no
		available_if_capitulated = no

		completion_reward = {
			if = { limit = { 181 = { is_controlled_by = POR } }
				181 = {
					add_building_construction = {
						type = infrastructure
						level = 2
						instant_build = yes
					}
					add_extra_state_shared_building_slots = 4
				}
			}

			if = { limit = { 179 = { is_controlled_by = POR } }
				179 = {
						add_building_construction = {
							type = infrastructure
							level = 2
							instant_build = yes
						}
					add_extra_state_shared_building_slots = 4
				}
      		}
		}
	}

	focus = {
		id = POR_construir_fabricas
		icon = GFX_goal_generic_construct_civ_factory
		search_filters = { FOCUS_FILTER_INDUSTRY } 
		prerequisite = { focus = POR_desenvolver_o_interior }
		x = 2
		y = 2
		cost = 10
		ai_will_do = {
			factor = 1
		}

		cancel_if_invalid = yes
		continue_if_invalid = no
		available_if_capitulated = no

		completion_reward = {
			if = { limit = { 112 = { is_controlled_by = POR } }
			112 = {
				add_extra_state_shared_building_slots = 4
				add_building_construction = {
					type = industrial_complex
					level = 2
					instant_build = yes
					}
				}
			}
			if = { limit = { 180 = { is_controlled_by = POR } }
			180 = {
				add_extra_state_shared_building_slots = 4
				add_building_construction = {
					type = industrial_complex
					level = 2
					instant_build = yes
					}
				}			
			}
		}
	}

	focus = {
		id = POR_construir_fabricas_2
		search_filters = { FOCUS_FILTER_INDUSTRY } 
		icon = GFX_goal_generic_construct_mil_factory
		prerequisite = { focus = POR_construir_fabricas }
		x = 2
		y = 3
		cost = 10
		ai_will_do = {
			factor = 1
		}

		cancel_if_invalid = yes
		continue_if_invalid = no
		available_if_capitulated = no

		completion_reward = {
			if = { limit = { 112 = { is_controlled_by = POR } }
			112 = {
				add_extra_state_shared_building_slots = 4
				add_building_construction = {
					type = arms_factory
					level = 2
					instant_build = yes
					}
				}
			}
			if = { limit = { 180 = { is_controlled_by = POR } }
			180 = {
				add_extra_state_shared_building_slots = 4
				add_building_construction = {
					type = arms_factory
					level = 2
					instant_build = yes
					}
				}
			}
		}
	}	

	focus = {
		id = POR_invest_radio
		icon = GFX_goal_generic_radar
		search_filters = { FOCUS_FILTER_RESEARCH } 
		prerequisite = { focus = POR_construir_fabricas_2 }
		mutually_exclusive = { focus = POR_invest_computing }
		available = {
		}
		x = 1
		y = 4
		cost = 10
		ai_will_do = {
			factor = 1
		}	

		cancel_if_invalid = yes
		continue_if_invalid = no
		available_if_capitulated = no	
		
		completion_reward = {
			add_research_slot = 1
			add_tech_bonus = {
				name = POR_invest_radio
				bonus = 0.5
				uses = 1
				category = radar_tech
			}
		}
	}	

	focus = {
		id = POR_invest_computing
		icon = GFX_focus_research2
		search_filters = { FOCUS_FILTER_RESEARCH }
		prerequisite = { focus = POR_construir_fabricas_2 }
		mutually_exclusive = { focus = POR_invest_radio }
		available = {
		}
		x = 3
		y = 4
		cost = 10
		ai_will_do = {
			factor = 1
		}		
		
		cancel_if_invalid = yes
		continue_if_invalid = no
		available_if_capitulated = no

		completion_reward = {
			add_research_slot = 1
			add_tech_bonus = {
				name = POR_invest_computing
				bonus = 0.2
				uses = 1
				category = computing_tech
			}
		}
	}		


	focus = {
		id = POR_acores
		search_filters = { FOCUS_FILTER_INDUSTRY }
		icon = GFX_goal_generic_construct_civilian
		prerequisite = { focus = POR_desenvolver_o_interior }
		x = 4
		y = 2
		cost = 10
		ai_will_do = {
			factor = 1
		}	

		cancel_if_invalid = yes
		continue_if_invalid = no
		available_if_capitulated = no

		completion_reward = {
			if = { limit = { 698 = { is_controlled_by = POR } }
            698 = {
                add_extra_state_shared_building_slots = 2
                add_building_construction = {
                    type = industrial_complex
                    level = 1
                    instant_build = yes
                	}
            	}
            }
            if = { limit = { 697 = { is_controlled_by = POR } }
            697 = {
                add_extra_state_shared_building_slots = 2
                add_building_construction = {
                    type = industrial_complex
                    level = 1
                    instant_build = yes
                    }
                }    
        	} 	
        }
	}

	focus = {
		id = POR_bases_acores
		search_filters = { FOCUS_FILTER_INDUSTRY }
		icon = GFX_goal_generic_build_airforce
		prerequisite = { focus = POR_acores }
		x = 4
		y = 3
		cost = 5
		ai_will_do = {
			factor = 1
		}	

		cancel_if_invalid = yes
		continue_if_invalid = no
		available_if_capitulated = no

		completion_reward = {
			if = { limit = { 698 = { is_controlled_by = POR } }
            698 = {
                add_building_construction = {
                    type = air_base
                    level = 5
                    instant_build = yes 
                }               
                add_building_construction = {
                    type = anti_air_building
                    level = 1
                    instant_build = yes
                	}
            	}
        	} 	
        }
	}

	focus = {
		id = POR_minas_de_ferro
		icon = GFX_focus_generic_steel
		search_filters = { FOCUS_FILTER_INDUSTRY }
		prerequisite = { focus = POR_desenvolver_o_interior }
		x = 0
		y = 2
		cost = 10
		ai_will_do = {
			factor = 1
		}	

		cancel_if_invalid = yes
		continue_if_invalid = no
		available_if_capitulated = no

		completion_reward = {
			if = { 
				limit = { 179 = { is_controlled_by = POR } }
				179 = {
					add_resource = {
						type = steel
						amount = 24
					}
				}		
			}
		}
	}	

	focus = {
		id = POR_minas_de_cromio
		icon = GFX_goal_minas_de_cromio
		search_filters = { FOCUS_FILTER_INDUSTRY }
		prerequisite = { focus = POR_minas_de_ferro }
		x = 0
		y = 3
		cost = 10
		ai_will_do = {
			factor = 1
		}	

		cancel_if_invalid = yes
		continue_if_invalid = no
		available_if_capitulated = no

		completion_reward = {
			if = { limit = { 179 = { is_controlled_by = POR } }
			179 = {
					add_resource = {
					type = chromium
					amount = 12
					}
				}		
			}
		}
	}

	##########################################
	########  INDUSTRIAL COLONIES ############
	##########################################

	focus = {
		id = POR_prospect_for_oil
		search_filters = { FOCUS_FILTER_RESEARCH }
		icon = GFX_goal_generic_occupy_states_coastal
		
		x = 2
		y = 6
		cost = 5
		ai_will_do = {
			factor = 1
		}

		cancel_if_invalid = yes
		continue_if_invalid = no
		available_if_capitulated = no

		completion_reward = {
			unlock_decision_category_tooltip = POR_colonial_resources
		add_tech_bonus = {
      			name = POR_prospect_for_oil
				bonus = 0.5
				uses = 1
				technology = excavation1
				technology = excavation2
				technology = excavation3
				technology = excavation4
				technology = excavation5
			}						
		}
	}

	focus = {
		id = POR_colony_infraestructure
		search_filters = { FOCUS_FILTER_INDUSTRY }
		icon = GFX_goal_generic_construct_infrastructure
		prerequisite = { focus = POR_prospect_for_oil }
		
		x = 2
		y = 7
		cost = 10
		ai_will_do = {
			factor = 1
		}	

		cancel_if_invalid = yes
		continue_if_invalid = no
		available_if_capitulated = no

		completion_reward = { 
			if = { limit = { 540 = { is_controlled_by = POR } }
            540 = {
                    add_building_construction = {
                        type = infrastructure
                        level = 1
                        instant_build = yes 
                    }               
                    add_extra_state_shared_building_slots = 2
                }                     
            }
            if = { limit = { 544 = { is_controlled_by = POR } }
            544 = {
                    add_building_construction = {
                        type = infrastructure
                        level = 1
                        instant_build = yes 
                    }               
                    add_extra_state_shared_building_slots = 2
                }
        	}                            
		}
	}

	focus = {
		id = POR_western_territory
		icon = GFX_goal_generic_construct_civ_factory
		search_filters = { FOCUS_FILTER_INDUSTRY }
		prerequisite = { focus = POR_colony_infraestructure }
		
		x = 0
		y = 8
		cost = 10
		ai_will_do = {
			factor = 1
		}	

		cancel_if_invalid = yes
		continue_if_invalid = no
		available_if_capitulated = no

		completion_reward = { 
			if = { limit = { 702 = { is_controlled_by = POR } }
            702 = {
                    add_building_construction = {
                        type = infrastructure
                        level = 1
                        instant_build = yes 
                    }               
                    add_extra_state_shared_building_slots = 1
       			}
            }
            if = { limit = { 296 = { is_controlled_by = POR } }
            296 = {
                    add_building_construction = {
                        type = infrastructure
                        level = 1
                        instant_build = yes 
                    }               
                    add_extra_state_shared_building_slots = 1
                }                     
            }
            if = { limit = { 705 = { is_controlled_by = POR } }
            705 = {
                    add_building_construction = {
                        type = infrastructure
                        level = 1
                        instant_build = yes 
                    }               
                    add_extra_state_shared_building_slots = 1
                }                     
            }
		}
	}

	focus = {
		id = POR_western_territory_bases
		icon = GFX_goal_bases_acores
		search_filters = { FOCUS_FILTER_INDUSTRY }
		prerequisite = { focus = POR_western_territory }
		
		x = 0
		y = 9
		cost = 5
		ai_will_do = {
			factor = 1
		}	

		cancel_if_invalid = yes
		continue_if_invalid = no
		available_if_capitulated = no

		completion_reward = { 
			if = { limit = { 702 = { is_controlled_by = POR } }
            702 = {
                    add_building_construction = {
                        type = naval_base
                        level = 5
                        province = 13014
                        instant_build = yes 
                    }               
                    add_building_construction = {
                        type = coastal_bunker
                        level = 1
                        instant_build = yes 
                        province = 13014
                    }               
                }                     
            }
		}
	}


	focus = {
		id = POR_central_territory
		icon = GFX_goal_generic_construct_civ_factory
		search_filters = { FOCUS_FILTER_INDUSTRY }
		prerequisite = { focus = POR_colony_infraestructure }
		
		x = 2
		y = 8
		cost = 10
		ai_will_do = {
			factor = 1
		}	

		cancel_if_invalid = yes
		continue_if_invalid = no
		available_if_capitulated = no

		completion_reward = { 
			if = { limit = { 540 = { is_controlled_by = POR } }
            540 = {
                    add_extra_state_shared_building_slots = 2
                    add_building_construction = {
                        type = industrial_complex
                        level = 2
                        instant_build = yes
                    }
                }                     
            }
            if = { limit = { 544 = { is_controlled_by = POR } }
            544 = {        
                    add_extra_state_shared_building_slots = 2
                    add_building_construction = {
                        type = industrial_complex
                        level = 2
                        instant_build = yes
                    }
                }    
        	}                            
		}
	}

	focus = {
		id = POR_central_territory_2
		search_filters = { FOCUS_FILTER_INDUSTRY }
		icon = GFX_goal_generic_construct_mil_factory
		prerequisite = { focus = POR_central_territory }

		x = 2
		y = 9
		cost = 10
		ai_will_do = {
			factor = 1
		}

		cancel_if_invalid = yes
		continue_if_invalid = no
		available_if_capitulated = no

		completion_reward = {
			if = { limit = { 540 = { is_controlled_by = POR } }
			540 = {
				add_extra_state_shared_building_slots = 2
				add_building_construction = {
					type = arms_factory
					level = 2
					instant_build = yes
					}
				}
			}
			if = { limit = { 544 = { is_controlled_by = POR } }
			544 = {
				add_extra_state_shared_building_slots = 2
				add_building_construction = {
					type = arms_factory
					level = 2
					instant_build = yes
					}
				}
			}
		}
	}		

	focus = {
		id = POR_oriental_territory
		search_filters = { FOCUS_FILTER_INDUSTRY }
		icon = GFX_goal_generic_construct_civ_factory
		prerequisite = { focus = POR_colony_infraestructure }
		
		x = 4
		y = 8
		cost = 10
		ai_will_do = {
			factor = 1
		}	

		cancel_if_invalid = yes
		continue_if_invalid = no
		available_if_capitulated = no

		completion_reward = { 
			if = { limit = { 321 = { is_controlled_by = POR } }
            321 = {
                    add_building_construction = {
                        type = infrastructure
                        level = 1
                        instant_build = yes 
                    }               
                    add_extra_state_shared_building_slots = 1
                }                     
            }
            if = { limit = { 729 = { is_controlled_by = POR } }
            729 = {
                    add_building_construction = {
                        type = infrastructure
                        level = 1
                        instant_build = yes 
                    }               
                    add_extra_state_shared_building_slots = 1
                }    
        	}
        	if = { limit = { 721 = { is_controlled_by = POR } }
        	721 = {
                    add_building_construction = {
                        type = infrastructure
                        level = 1
                        instant_build = yes 
                    }               
                    add_extra_state_shared_building_slots = 1
                }    
        	}                                                    
		}
	}

	focus = {
		id = POR_oriental_bases
		search_filters = { FOCUS_FILTER_INDUSTRY }
		icon = GFX_goal_generic_fortify_city
		prerequisite = { focus = POR_oriental_territory }
		
		x = 4
		y = 9
		cost = 5
		ai_will_do = {
			factor = 1
		}

		cancel_if_invalid = yes
		continue_if_invalid = no
		available_if_capitulated = no

		completion_reward = { 
			if = { limit = { 321 = { is_controlled_by = POR } }
            321 = {
                    add_building_construction = {
                        type = bunker
                        level = 2
                        province = 1273
                        instant_build = yes 
                    }        
                }                     
            }
            if = { limit = { 729 = { is_controlled_by = POR } }
            729 = {
                    add_building_construction = {
                        type = bunker
                        level = 2
                        province = 4189
                        instant_build = yes 
                    }               
                }
        	}
        	if = { limit = { 721 = { is_controlled_by = POR } }
        	721 = {
                    add_building_construction = {
                        type = bunker
                        level = 2
                        province = 12190
                        instant_build = yes 
                    }               
                }
        	}                                                    
		}
	}

	focus = {
		id = POR_invest_angola
		icon = GFX_goal_invest_angola
		search_filters = { FOCUS_FILTER_INDUSTRY }
		prerequisite = { focus = POR_central_territory_2 }
		mutually_exclusive = { focus = POR_invest_mozambique }
		
		x = 1
		y = 10
		cost = 10
		ai_will_do = {
			factor = 1
		}	

		cancel_if_invalid = yes
		continue_if_invalid = no
		available_if_capitulated = no

		completion_reward = { 
			if = { limit = { 540 = { is_controlled_by = POR } }
			540 = {
				add_resource = {
					type = oil
					amount = 8
					}
  			  	}
			}
		}
	}

	focus = {
		id = POR_invest_mozambique
		icon = GFX_goal_invest_mozambique
		search_filters = { FOCUS_FILTER_INDUSTRY }
		prerequisite = { focus = POR_central_territory_2 }
		mutually_exclusive = { focus = POR_invest_angola }
		
		x = 3
		y = 10
		cost = 10
		ai_will_do = {
			factor = 1
		}	

		cancel_if_invalid = yes
		continue_if_invalid = no
		available_if_capitulated = no

		completion_reward = { 
			if = { limit = { 544 = { is_controlled_by = POR } }
            544  = {
				add_resource = {
					type = chromium
					amount = 6
					}
				}
			}
		}
	}

	

	
	######################################################
	###################### POLITICS ######################
	######################################################

	
	focus = {
		id = POR_assassination_attempt
		search_filters = { FOCUS_FILTER_POLITICAL }
		icon = GFX_goal_estado_novo
		available = {
		}
		x = 21
		y = 0
		cost = 0

		available = {
			custom_trigger_tooltip = {
				always = no
				tooltip = POR_assassination_attempt_tt
			}
		}

		ai_will_do = {
			factor = 1
		}

		cancel_if_invalid = yes
		continue_if_invalid = no
		available_if_capitulated = no

		completion_reward = {
			custom_effect_tooltip = POR_assassination_attempt_tt1
			custom_effect_tooltip = POR_assassination_attempt_tta
		}
	}

	focus = {
		id = POR_carmona_assumes
		search_filters = { FOCUS_FILTER_POLITICAL }
		prerequisite = { focus = POR_assassination_attempt }
		icon = GFX_goal_carmonaassumes
		available = {
		}
		x = 13
		y = 1
		cost = 5

		available = {
			has_global_flag = SALAZAR_DIES
		}

		ai_will_do = {
			factor = 0
		}

		cancel_if_invalid = yes
		continue_if_invalid = no
		available_if_capitulated = no

		completion_reward = {
			create_country_leader = {
				name = "António Óscar de Fragoso Carmona"
				desc = ""
				picture = "Portrait_Portugal_Antonio_Carmona.dds"
				expire = "1965.1.1"
				ideology = moderatism
				traits = {
				}
			}
			swap_ideas = {
				remove_idea = POR_oscar_carmona
				add_idea = POR_oscar_carmona1		
			}
			custom_effect_tooltip = POR_carmona_assumes_tt
		}
	}

	focus = {
		id = POR_salazar_lives
		search_filters = { FOCUS_FILTER_POLITICAL }
		prerequisite = { focus = POR_assassination_attempt }
		icon = GFX_goal_salazar_radio
		available = {
		}
		x = 21
		y = 2
		cost = 5

		available = {
			has_global_flag = SALAZAR_LIVES
		}

		ai_will_do = {
			factor = 0
		}

		cancel_if_invalid = yes
		continue_if_invalid = no
		available_if_capitulated = no

		completion_reward = {
			add_political_power = 150
			custom_effect_tooltip = POR_salazar_lives_tt
			add_country_leader_trait = protected_by_god
		}
	}

	focus = {
		id = POR_change_is_needed
		search_filters = { FOCUS_FILTER_POLITICAL }
		prerequisite = { focus = POR_assassination_attempt }
		icon = GFX_goal_dilema
		available = {
		}
		x = 29
		y = 1
		cost = 5

		available = {
			has_global_flag = SALAZAR_WOUNDED
		}

		ai_will_do = {
			factor = 1
		}

		cancel_if_invalid = yes
		continue_if_invalid = no
		available_if_capitulated = no

		completion_reward = {
			country_event = { id = portugal.14 hours = 3 }
			custom_effect_tooltip = POR_change_is_needed_tt
		}
	}

	######################################################
	###################### COMMUNISM #####################
	######################################################
	
	focus = {
		id = POR_7_congresso
		search_filters = { FOCUS_FILTER_POLITICAL }
		icon = GFX_focus_generic_soviet_politics
		prerequisite = { focus = POR_carmona_assumes }
		mutually_exclusive = { focus = POR_mil_fa_na focus = POR_liga_28_maio }
		
		available = {
		}
		
		x = 8
		y = 2
		
		cost = 5
		
		ai_will_do = {
			factor = 0
		}

		cancel_if_invalid = yes
		continue_if_invalid = no
		available_if_capitulated = no
		
		completion_reward = {
			add_ideas = POR_alvaro_cunhal
			add_ideas = POR_juventude_vermelha
		}
	}
	
	focus = {
		id = POR_support_communist_spain
		icon = GFX_goal_generic_military_deal
		prerequisite = { focus = POR_7_congresso }
		search_filters = { FOCUS_FILTER_POLITICAL }
		
		available = {
			has_global_flag = spanish_civil_war
		}

		bypass = { has_global_flag = scw_over }
		
		x = 9
		y = 3
		
		cost = 5
		
		ai_will_do = {
			factor = 0
		}	

		cancel_if_invalid = yes
		continue_if_invalid = no
		available_if_capitulated = no
		
		completion_reward = {
			set_rule = { can_send_volunteers = yes }
			add_timed_idea = {
				idea = POR_intervention_spain_focus
				days = 360
			}
			random_country = {
				limit = {
					is_literally_spain = yes
					OR = {
						has_government = social_democracy
						has_government = unionism
						has_government = communism
					}
				}
				add_opinion_modifier = { target = POR modifier = por_supported_spain_civil_war }
				POR = { add_opinion_modifier = { target = PREV modifier = por_supported_spain_civil_war } }
			}
		}
	}
	
	focus = {
		id = POR_avante_jornal
		icon = GFX_goal_generic_forceful_treaty
		prerequisite = { focus = POR_7_congresso }
		search_filters = { FOCUS_FILTER_POLITICAL }
		available = {
		}
		x = 7
		y = 3
		
		cost = 10
		
		ai_will_do = {
			factor = 0
		}

		cancel_if_invalid = yes
		continue_if_invalid = no
		available_if_capitulated = no
		
		completion_reward = {
			add_ideas = FRA_support_the_left_focus
			add_ideas = idea_political_correctness
		}
	}
	
	
	focus = {
		id = POR_mutiny
		icon = GFX_focus_generic_cruiser2
		search_filters = { FOCUS_FILTER_POLITICAL }
		prerequisite = { focus = POR_avante_jornal focus = POR_support_communist_spain }
		mutually_exclusive = { focus = POR_peaceful_rise_communists }

		available = {
			communism > 0.2
			NOT = { has_government = communism }
		}
		x = 7
		y = 4
		
		cost = 10
		
		ai_will_do = {
			factor = 0
		}

		cancel_if_invalid = yes
		continue_if_invalid = no
		available_if_capitulated = no
		
		completion_reward = {
			custom_effect_tooltip = POR_communism_civil_war_tt
			country_event = { id = news.707 }
			remove_ideas = POR_oscar_carmona1
			remove_ideas = estado_novo
		}
	}

	focus = {
		id = POR_peaceful_rise_communists
		icon = GFX_goal_generic_major_alliance
		search_filters = { FOCUS_FILTER_POLITICAL }
		prerequisite = { focus = POR_avante_jornal focus = POR_support_communist_spain }
		mutually_exclusive = { focus = POR_mutiny }

		available = {
			communism > 0.4
		}
		x = 9
		y = 4
		
		cost = 10
		
		ai_will_do = {
			factor = 0
		}

		cancel_if_invalid = yes
		continue_if_invalid = no
		available_if_capitulated = no
		
		completion_reward = {
			if = {
				limit = {
					NOT = { has_government = communism }
				}
				set_politics = {
					ruling_party = communism
				}
			}
			remove_ideas = POR_oscar_carmona1
			remove_ideas = estado_novo
		}
	}

	focus = {
		id = POR_hang_carmona
		icon = GFX_goal_generic_demand_territory
		search_filters = { FOCUS_FILTER_POLITICAL }
		prerequisite = { focus = POR_mutiny focus = POR_peaceful_rise_communists }

		available = {
		}
		x = 10
		y = 5
		
		cost = 5
		
		ai_will_do = {
			factor = 0
		}

		cancel_if_invalid = yes
		continue_if_invalid = no
		available_if_capitulated = no
		
		completion_reward = {
			add_stability = 0.15
			hidden_effect = {
			create_country_leader = {
					name = "Marcello Caetano"
					desc = "POLITICS_ANTÓNIO_DE_OLIVEIRA_SALAZAR_DESC"
					picture = "Portrait_Portugal_Antonio_de_Oliveira_Salazar.dds"
					expire = "1965.1.1"
					ideology = moderatism
					traits = {
					}
				}
			}
		}
	}

	focus = {
		id = POR_ban_fascism
		icon = GFX_focus_generic_join_comintern
		search_filters = { FOCUS_FILTER_POLITICAL }
		prerequisite = { focus = POR_mutiny focus = POR_peaceful_rise_communists }

		available = {
		}
		x = 6
		y = 5
		
		cost = 10
		
		ai_will_do = {
			factor = 0
		}

		cancel_if_invalid = yes
		continue_if_invalid = no
		available_if_capitulated = no
		
		completion_reward = {
			add_popularity = {
				ideology = fascism
				popularity = -0.30
			}
			add_popularity = {
				ideology = neutrality
				popularity = -0.30
			}
			swap_ideas = {
				remove_idea = POR_juventude_vermelha
				add_idea = POR_juventude_vermelha1
			}
		}
	}

	focus = {
		id = POR_nationalize_industry
		icon = GFX_goal_generic_soviet_construction
		search_filters = { FOCUS_FILTER_POLITICAL FOCUS_FILTER_INDUSTRY }
		prerequisite = { focus = POR_mutiny focus = POR_peaceful_rise_communists }

		available = {
		}
		x = 8
		y = 5
		
		cost = 10
		
		ai_will_do = {
			factor = 0
		}

		cancel_if_invalid = yes
		continue_if_invalid = no
		available_if_capitulated = no
		
		completion_reward = {
			add_ideas = { POR_nationalizedindustry }
			if = {
				limit = { NOT = { has_idea = planned_economy } }
				add_ideas = planned_economy
			}
		}
	}

	focus = {
	id = POR_mission_to_the_soviet_union
	search_filters = { FOCUS_FILTER_POLITICAL }
	icon = GFX_focus_chi_mission_to_the_soviet_union
	prerequisite = { focus = POR_nationalize_industry }
	x = 8
	y = 7

	cost = 10

	ai_will_do = {
		factor = 1
		modifier = {
			factor = 4
			tag = POR
		}
	}

	available = {
			has_civil_war = no
			SOV = { has_government = communism }
		NOT = {
			has_war_with = SOV
		}
	}

	bypass = {
		is_in_faction_with = SOV
	}

	cancel_if_invalid = yes
	continue_if_invalid = no
	available_if_capitulated = no

	complete_tooltip = {

	}

	completion_reward = {
		SOV = {
			add_opinion_modifier = {
				target = ROOT
				modifier = POR_mission_soviet_union
			}
			add_ai_strategy = {
				type = alliance
				id = "ROOT"
				value = 100
			}
			add_ai_strategy = {
				type = protect
				id = "ROOT"
				value = 100
			}
			add_ai_strategy = {
				type = send_volunteers_desire
				id = "ROOT"
				value = 100
			}
			add_ai_strategy = {
				type = support
				id = "ROOT"
				value = 100
			}
		}
	}
}

	focus = {
		id = POR_ussr_guarantee
		icon = GFX_goal_molotov_ribbentrop_pact
		search_filters = { FOCUS_FILTER_POLITICAL }
		prerequisite = { focus = POR_mission_to_the_soviet_union }
		x = 8
		y = 8

		cost = 10

		ai_will_do = {
			factor = 0
		}

		available = {
			is_in_faction = no
			SOV = {
				exists = yes
				is_puppet = no
				NOT = {
					has_war_with = ROOT
				}
			}
		}

		bypass = {
			is_in_faction_with = SOV
		}

		cancel_if_invalid = yes
		continue_if_invalid = no
		available_if_capitulated = no

		complete_tooltip = {

		}

		completion_reward = {
			SOV = { country_event = portugal.1 }
			custom_effect_tooltip = POR_ussr_guarantee_tt
		}
	}
	
	focus = {
		id = POR_join_comintern
		icon = GFX_goal_support_communism
		search_filters = { FOCUS_FILTER_POLITICAL }
		prerequisite = { focus = POR_ussr_guarantee }
		
		x = 8
		y = 10

		cost = 10

		ai_will_do = {
			factor = 0
			modifier = {
				factor = 0
				SOV = {
					has_capitulated = yes
				}
			}
		}

		available = {
	 		is_puppet = no
	 		is_in_faction = no
	 		NOT = { has_war_with = SOV }
 			SOV = {
 				exists = yes
 				has_government = communism
 				is_faction_leader = yes
 				}
			}

		bypass = {
			is_in_faction_with = SOV
		}

		cancel_if_invalid = yes
		continue_if_invalid = no
		available_if_capitulated = yes

		complete_tooltip = {

		}

		completion_reward = {
			SOV = { country_event = generic.2 }
		}
	}

	focus = {
		id = POR_spread_revolution_brazil
		search_filters = { FOCUS_FILTER_POLITICAL }
		icon = GFX_goal_generic_war_with_comintern
		prerequisite = { focus = POR_join_comintern }
		available = {
		}
		x = 8
		y = 12
		
		cost = 10
		
		ai_will_do = {
			factor = 0
		}

		cancel_if_invalid = yes
		continue_if_invalid = no
		available_if_capitulated = no
		
		completion_reward = {
			BRA = { 
				add_ideas = FRA_support_the_left_focus
				custom_effect_tooltip = POR_spread_revolution_brazil_tt
				hidden_effect = {
				country_event = {
    				id = news.723
    				days = 360
    				}
				}
			}
		}
	}

	######################################################
	######################## FASCISM #####################
	######################################################
	
	focus = {
		id = POR_liga_28_maio
		icon = GFX_focus_ger_reichskommisariats
		prerequisite = { focus = POR_carmona_assumes }
		search_filters = { FOCUS_FILTER_POLITICAL }
		mutually_exclusive = { focus = POR_mil_fa_na focus = POR_7_congresso }
		
		available = {
		}
		
		x = 16
		y = 2
		
		cost = 5
		
		ai_will_do = {
			factor = 0
		}

		cancel_if_invalid = yes
		continue_if_invalid = no
		available_if_capitulated = no
		
		completion_reward = {
			add_ideas = POR_alberto_monsaraz
			add_ideas = brigada_negra
		}
	}
	
	focus = {
		id = POR_support_nationalist_spain
		icon = GFX_goal_generic_military_deal
		search_filters = { FOCUS_FILTER_POLITICAL }
		prerequisite = { focus = POR_liga_28_maio }
		
		available = {
				has_global_flag = spanish_civil_war
			}

		bypass = { has_global_flag = scw_over }
		
		x = 15
		y = 3
		
		cost = 5
		
		ai_will_do = {
			factor = 0
		}	

		cancel_if_invalid = yes
		continue_if_invalid = no
		available_if_capitulated = no
		
		completion_reward = {
			set_rule = { can_send_volunteers = yes }
			add_timed_idea = {
				idea = POR_intervention_spain_focus
				days = 360
			}
			random_country = {
				limit = {
					is_literally_spain = yes
					OR = {
						has_government = monarchism
						has_government = neutrality
						has_government = fascism
					}
				}
				add_opinion_modifier = { target = POR modifier = por_supported_spain_civil_war }
				POR = { add_opinion_modifier = { target = PREV modifier = por_supported_spain_civil_war } }
			}
		}
	}
	
	focus = {
		id = POR_revolucao_jornal
		icon = GFX_goal_generic_forceful_treaty
		search_filters = { FOCUS_FILTER_POLITICAL }
		prerequisite = { focus = POR_liga_28_maio }
		available = {
		}
		x = 17
		y = 3
		
		cost = 10
		
		ai_will_do = {
			factor = 0
		}

		cancel_if_invalid = yes
		continue_if_invalid = no
		available_if_capitulated = no
		
		completion_reward = {
			add_ideas = FRA_support_the_right_focus
			add_ideas = militarism_focus
		}
	}
	
	focus = {
		id = POR_mutiny_2
		icon = GFX_focus_generic_cruiser2
		search_filters = { FOCUS_FILTER_POLITICAL }
		prerequisite = { focus = POR_revolucao_jornal focus = POR_support_nationalist_spain }
		mutually_exclusive = { focus = POR_peaceful_rise_fascists }

		available = {
			fascism > 0.2
			NOT = { has_government = fascism }
		}
		x = 17
		y = 4
		
		cost = 10
		
		ai_will_do = {
			factor = 0
		}

		cancel_if_invalid = yes
		continue_if_invalid = no
		available_if_capitulated = no
		
		completion_reward = {
			custom_effect_tooltip = POR_fascism_civil_war_tt
			country_event = { id = news.706 }
			remove_ideas = POR_oscar_carmona1
			remove_ideas = estado_novo
		}
	}

	focus = {
		id = POR_peaceful_rise_fascists
		icon = GFX_goal_generic_major_alliance
		search_filters = { FOCUS_FILTER_POLITICAL }
		prerequisite = { focus = POR_revolucao_jornal focus = POR_support_nationalist_spain }
		mutually_exclusive = { focus = POR_mutiny_2 }

		available = {
			fascism > 0.4
		}
		x = 15
		y = 4
		
		cost = 10
		
		ai_will_do = {
			factor = 0
		}

		cancel_if_invalid = yes
		continue_if_invalid = no
		available_if_capitulated = no
		
		completion_reward = {
			if = {
				limit = {
					NOT = { has_government = fascism }
				}
				set_politics = {
					ruling_party = fascism
				}
			}
			remove_ideas = POR_oscar_carmona1
			remove_ideas = estado_novo
		}
	}

	focus = {
		id = POR_exile_carmona
		icon = GFX_goal_generic_demand_territory
		search_filters = { FOCUS_FILTER_POLITICAL }
		prerequisite = { focus = POR_mutiny_2 focus = POR_peaceful_rise_fascists }

		available = {
		}
		x = 14
		y = 5
		
		cost = 5
		
		ai_will_do = {
			factor = 0
		}

		cancel_if_invalid = yes
		continue_if_invalid = no
		available_if_capitulated = no
		
		completion_reward = {
			add_stability = 0.10
			hidden_effect = {
			create_country_leader = {
					name = "Marcello Caetano"
					desc = "POLITICS_ANTÓNIO_DE_OLIVEIRA_SALAZAR_DESC"
					picture = "Portrait_Portugal_Antonio_de_Oliveira_Salazar.dds"
					expire = "1965.1.1"
					ideology = moderatism
					traits = {
					}
				}
			}
		}
	}


	focus = {
		id = POR_return_duarte
		icon = GFX_focus_rom_royal_dictatorship
		search_filters = { FOCUS_FILTER_POLITICAL }
		prerequisite = { focus = POR_mutiny_2 focus = POR_peaceful_rise_fascists }

		available = {
		}
		x = 16
		y = 5
		
		cost = 10
		
		ai_will_do = {
			factor = 0
		}

		cancel_if_invalid = yes
		continue_if_invalid = no
		available_if_capitulated = no
		
		completion_reward = {
			country_event = { id = portugal.15 hours = 2 }
		}
	}

	focus = {
		id = POR_blue_shirts
		icon = GFX_focus_generic_little_entente
		search_filters = { FOCUS_FILTER_POLITICAL }
		prerequisite = { focus = POR_mutiny_2 focus = POR_peaceful_rise_fascists }

		available = {
		}
		x = 18
		y = 5
		
		cost = 10
		
		ai_will_do = {
			factor = 0
		}

		cancel_if_invalid = yes
		continue_if_invalid = no
		available_if_capitulated = no
		
		completion_reward = {
			add_war_support = 0.1
			swap_ideas = {
				remove_idea = brigada_negra
				add_idea = brigada_negra1
			}
		}
	}


	focus = {
	id = POR_mission_to_germany
	icon = GFX_focus_chi_mission_to_germany
	search_filters = { FOCUS_FILTER_POLITICAL }
	prerequisite = { focus = POR_return_duarte focus = POR_restore_portuguese_pride }
	mutually_exclusive = { focus = POR_british_cooperation focus = POR_orgulhosamente_sos }
	x = 16
	y = 7
	cost = 10

	ai_will_do = {
		factor = 1
		modifier = {
			factor = 4
			tag = POR
		}
	}

	available = {
			has_civil_war = no
			GER = { has_government = fascism }
		NOT = {
			has_war_with = GER
		}
	}

	bypass = {
		is_in_faction_with = GER
	}

	cancel_if_invalid = yes
	continue_if_invalid = no
	available_if_capitulated = no


	completion_reward = {
		GER = {
			add_opinion_modifier = {
				target = ROOT
				modifier = POR_mission_germany
			}
			add_ai_strategy = {
				type = alliance
				id = "ROOT"
				value = 100
			}
			add_ai_strategy = {
				type = protect
				id = "ROOT"
				value = 100
			}
			add_ai_strategy = {
				type = send_volunteers_desire
				id = "ROOT"
				value = 100
			}
			add_ai_strategy = {
				type = support
				id = "ROOT"
				value = 100
			}
		}
	}
}

	focus = {
		id = POR_joint_tanks
		search_filters = { FOCUS_FILTER_RESEARCH }
		icon = GFX_focus_generic_tank_production
		prerequisite = { focus = POR_mission_to_germany }
		x = 17
		y = 8

		cost = 10

		ai_will_do = {
			factor = 0
		}

		available = {

		}

		bypass = {

		}

		cancel_if_invalid = yes
		continue_if_invalid = no
		available_if_capitulated = no

		complete_tooltip = {

		}

		completion_reward = {
			add_tech_bonus = {
				name = POR_joint_tanks
				bonus = 0.5
				ahead_reduction = 1
				uses = 1
				category = cat_heavy_armor
			}
		}
	}

	focus = {
		id = POR_sea_fortifications
		icon = GFX_focus_generic_coastal_fort
		search_filters = { FOCUS_FILTER_INDUSTRY }
		prerequisite = { focus = POR_mission_to_germany }

		available = {
			owns_state = 180
			owns_state = 112
			owns_state = 179
		}

		cancel_if_invalid = yes
		continue_if_invalid = no
		available_if_capitulated = no

		x = 15
		y = 8
		cost = 5
		ai_will_do = {
			factor = 0
		}	
	completion_reward = {
			custom_effect_tooltip = POR_sea_fortifications_tooltip
			hidden_effect = {
				if = { limit = { 180 = { is_controlled_by = POR } }
                180 = {
					add_building_construction = {
					type = coastal_bunker
					level = 1
					province = 11673
					instant_build = yes
                }
                	add_building_construction = {
					type = coastal_bunker
					level = 3
					province = 9817
					instant_build = yes
					}
                }
            }
            	if = { limit = { 112 = { is_controlled_by = POR } }
                112 = {
                    add_building_construction = {
					type = coastal_bunker
					level = 1
					province = 6924
					instant_build = yes
                }
                	add_building_construction = {
					type = coastal_bunker
					level = 1
					province = 799
					instant_build = yes
                }
                	add_building_construction = {
					type = coastal_bunker
					level = 1
					province = 3861
					instant_build = yes
                }
                	add_building_construction = {
					type = coastal_bunker
					level = 3
					province = 11805
					instant_build = yes
                }
                	add_building_construction = {
					type = coastal_bunker
					level = 1
					province = 970
					instant_build = yes
					}
                }
            }
            	if = { limit = { 179 = { is_controlled_by = POR } }
            	179 = {
                    add_building_construction = {
					type = coastal_bunker
					level = 1
					province = 980
					instant_build = yes
                }
                	add_building_construction = {
					type = coastal_bunker
					level = 1
					province = 3866
					instant_build = yes
                }
                	add_building_construction = {
					type = coastal_bunker
					level = 2
					province = 3790
					instant_build = yes
                }
                	add_building_construction = {
					type = coastal_bunker
					level = 1
					province = 6880
					instant_build = yes
						}
					}
                }
            }
		}
	}		
	
	focus = {
		id = POR_join_axis
		icon = GFX_goal_support_fascism
		search_filters = { FOCUS_FILTER_POLITICAL }
		prerequisite = { focus = POR_sea_fortifications focus = POR_joint_tanks }
		x = 16
		y = 10
		
		cost = 10

		ai_will_do = {
			factor = 0
			modifier = {
				factor = 0
				GER = {
					has_capitulated = yes
				}
			}
		}

		available = {
	 		is_puppet = no
			is_in_faction = no
	 		NOT = { has_war_with = GER }
	 		
	 		GER = {
	 			exists = yes
	 			has_government = fascism
 				is_faction_leader = yes
	 		}
		}

		bypass = {
			is_in_faction_with = GER
		}

		cancel_if_invalid = yes
		continue_if_invalid = no
		available_if_capitulated = yes

		complete_tooltip = {

		}

		completion_reward = {
			GER = {
				country_event = generic.2
			}
		}
	}
	
	######################################################
	######################## DEMOCRACY ###################
	######################################################
	
	focus = {
		id = POR_mil_fa_na
		icon = GFX_focus_generic_the_giant_wakes
		search_filters = { FOCUS_FILTER_POLITICAL }
		prerequisite = { focus = POR_carmona_assumes }
		mutually_exclusive = { focus = POR_liga_28_maio focus = POR_7_congresso }
		available = {
		}
		x = 12
		y = 2
		
		cost = 5
		
		ai_will_do = {
			factor = 0
		}
		
		cancel_if_invalid = yes
		continue_if_invalid = no
		available_if_capitulated = no

		completion_reward = {
			add_ideas = POR_antonio_sergio
			add_popularity = {
				ideology = democratic
				popularity = 0.1
			}
			add_popularity = {
				ideology = conservative
				popularity = 0.05
			}
			add_popularity = {
				ideology = social_democracy
				popularity = 0.05
			}
		}
	}

	focus = {
		id = POR_expresso_jornal
		icon = GFX_focus_generic_treaty
		prerequisite = { focus = POR_mil_fa_na }
		search_filters = { FOCUS_FILTER_POLITICAL }
		
		x = 12
		y = 3

		cost = 10

		ai_will_do = {
			factor = 0
		}

		cancel_if_invalid = yes
		continue_if_invalid = no
		available_if_capitulated = no

		completion_reward = {
			add_ideas = { GER_reestablish_free_elections }
			add_ideas = liberty_ethos_focus
		}
	}
	
	focus = {
		id = POR_depois_adeus
		icon = GFX_goal_generic_propaganda
		search_filters = { FOCUS_FILTER_POLITICAL }
		prerequisite = { focus = POR_expresso_jornal }
		available = {
			democratic > 0.3
		}
		x = 12
		y = 4
		
		cost = 10
		
		ai_will_do = {
			factor = 0
		}

		cancel_if_invalid = yes
		continue_if_invalid = no
		available_if_capitulated = no
		
		completion_reward = {
			if = {
				limit = {
					NOT = { has_democratic_government = yes }
				}
				custom_effect_tooltip = POR_democratic_civil_war_tt
				country_event = { id = news.708 }
			}
			remove_ideas = POR_oscar_carmona1
			remove_ideas = estado_novo
			add_ideas = POR_liberdade
		}			
	}

	focus = {
		id = POR_imprison_carmona
		icon = GFX_goal_generic_demand_territory
		search_filters = { FOCUS_FILTER_POLITICAL }
		prerequisite = { focus = POR_depois_adeus }

		available = {
		}
		x = 12
		y = 5
		
		cost = 5
		
		ai_will_do = {
			factor = 0
		}

		cancel_if_invalid = yes
		continue_if_invalid = no
		available_if_capitulated = no
		
		completion_reward = {
			add_stability = 0.05
			hidden_effect = {
			create_country_leader = {
					name = "Marcello Caetano"
					desc = "POLITICS_ANTÓNIO_DE_OLIVEIRA_SALAZAR_DESC"
					picture = "Portrait_Portugal_Antonio_de_Oliveira_Salazar.dds"
					expire = "1965.1.1"
					ideology = moderatism
					traits = {
					}
				}
			}
		}
	}

	focus = {
	id = POR_british_cooperation
	icon = GFX_focus_chi_british_cooperation
	search_filters = { FOCUS_FILTER_POLITICAL }
	prerequisite = { focus = POR_imprison_carmona focus = POR_restore_portuguese_pride }
	mutually_exclusive = { focus = POR_mission_to_germany focus = POR_orgulhosamente_sos }
	x = 12
	y = 7

	cost = 10

	ai_will_do = {
		factor = 0
		modifier = {
			factor = 4
			tag = POR
		}
	}

	available = {
			has_civil_war = no
			ENG = { has_democratic_government = yes }
		NOT = {
			has_war_with = ENG
		}
	}

	bypass = {

	}

	cancel_if_invalid = yes
	continue_if_invalid = no
	available_if_capitulated = no

	complete_tooltip = {

	}

	completion_reward = {
		ENG = {
			add_opinion_modifier = {
				target = ROOT
				modifier = POR_british_coop
			}
			add_ai_strategy = {
				type = alliance
				id = "ROOT"
				value = 100
			}
			add_ai_strategy = {
				type = protect
				id = "ROOT"
				value = 100
			}
			add_ai_strategy = {
				type = send_volunteers_desire
				id = "ROOT"
				value = 100
			}
			add_ai_strategy = {
				type = support
				id = "ROOT"
				value = 100
			}
		}
	}
}

	
	focus = {
		id = POR_joint_navy
		icon = GFX_focus_generic_navy_battleship2
		search_filters = { FOCUS_FILTER_RESEARCH }
		prerequisite = { focus = POR_british_cooperation }
		x = 11
		y = 8

		cost = 10

		ai_will_do = {
			factor = 0
		}

		available = {

		}

		bypass = {

		}

		cancel_if_invalid = yes
		continue_if_invalid = no
		available_if_capitulated = no

		complete_tooltip = {

		}

		completion_reward = {
			add_tech_bonus = {
				name = POR_joint_navy
				bonus = 0.5
				ahead_reduction = 1
				uses = 1
				category = bb_tech
			}
		}
	}

	focus = {
		id = POR_interior_fortifications
		icon = GFX_goal_generic_construct_military
		search_filters = { FOCUS_FILTER_INDUSTRY }
		prerequisite = { focus = POR_british_cooperation }

		available = {
			owns_state = 180
			owns_state = 181
			owns_state = 179
		}

		cancel_if_invalid = yes
		continue_if_invalid = no
		available_if_capitulated = no

		x = 13
		y = 8
		cost = 5
		ai_will_do = {
			factor = 0
		}	
	completion_reward = {
			custom_effect_tooltip = POR_interior_fortifications_tooltip
			hidden_effect = {
				if = { limit = { 180 = { is_controlled_by = POR } }
                180 = {
					add_building_construction = {
					type = bunker
					level = 1
					province = 11673
					instant_build = yes
                }
                	add_building_construction = {
					type = bunker
					level = 1
					province = 6921
					instant_build = yes
                }
                	add_building_construction = {
					type = bunker
					level = 1
					province = 3892
					instant_build = yes
                }
                	add_building_construction = {
					type = bunker
					level = 1
					province = 877
					instant_build = yes
                }
                	add_building_construction = {
					type = bunker
					level = 1
					province = 6941
					instant_build = yes
					}
                }
            }
            	if = { limit = { 181 = { is_controlled_by = POR } }
                181 = {
                    add_building_construction = {
					type = bunker
					level = 1
					province = 845
					instant_build = yes
                }
                	add_building_construction = {
					type = bunker
					level = 1
					province = 938
					instant_build = yes
                }
                	add_building_construction = {
					type = bunker
					level = 1
					province = 3969
					instant_build = yes
					}
                }
            }
            	if = { limit = { 179 = { is_controlled_by = POR } }
                179 = {
                    add_building_construction = {
					type = bunker
					level = 1
					province = 3926
					instant_build = yes
                }
                	add_building_construction = {
					type = bunker
					level = 1
					province = 3886
					instant_build = yes
                }
                	add_building_construction = {
					type = bunker
					level = 1
					province = 3846
					instant_build = yes
                }
                	add_building_construction = {
					type = bunker
					level = 1
					province = 9819
					instant_build = yes
                }
                	add_building_construction = {
					type = bunker
					level = 1
					province = 6884
					instant_build = yes
                }
                	add_building_construction = {
					type = bunker
					level = 1
					province = 9765
					instant_build = yes
                }
                	add_building_construction = {
					type = bunker
					level = 1
					province = 6880
					instant_build = yes
						}
					}
                }
            }
		}
	}		
	
	focus = {
		id = POR_join_allies
		icon = GFX_goal_support_democracy
		search_filters = { FOCUS_FILTER_POLITICAL }
		prerequisite = { focus = POR_interior_fortifications focus = POR_joint_navy }
		
		x = 12
		y = 10

		cost = 10

		ai_will_do = {
			factor = 0
			modifier = {
				factor = 0
				OR = {
					ENG = {
						has_capitulated = yes
					}
					FRA = {
						has_capitulated = yes
					}
				}
			}
		}

		available = {
	 		is_puppet = no
			is_in_faction = no
	 		NOT = { has_war_with = ENG }
	 		
	 		ENG = {
	 			exists = yes
	 			has_democratic_government = yes
 				is_faction_leader = yes
	 		}
		}

		bypass = {
			is_in_faction_with = ENG
		}

		cancel_if_invalid = yes
		continue_if_invalid = no
		available_if_capitulated = yes

		complete_tooltip = {

		}

		completion_reward = {
			ENG = {
				country_event = generic.2
			}
		}
	}

	focus = {
		id = POR_colonial_question
		icon = GFX_goal_generic_improve_relations
		prerequisite = { focus = POR_join_allies }
		search_filters = { FOCUS_FILTER_POLITICAL }
		x = 12
		y = 12

		cost = 10

		ai_will_do = {
			factor = 0
		}

		cancel_if_invalid = yes
		continue_if_invalid = no
		available_if_capitulated = no

		available = {
			has_democratic_government = yes
		}

		complete_tooltip = {

		}

		completion_reward = {
			if = {
				limit = {
					has_full_control_of_state = 540
					has_full_control_of_state = 544
					MZB = { exists = no }
					ANG = { exists = no }
				}
				unlock_decision_category_tooltip = POR_colonial_release
				set_country_flag = POR_release_colonies_activate
			}
		}
	}

	######################################################
	#################  DUARTE NUNO  ######################
	######################################################

	focus = {
		id = POR_support_the_braganzas
		icon = GFX_goal_support_the_braganzas
		search_filters = { FOCUS_FILTER_POLITICAL }
		prerequisite = { focus = POR_change_is_needed }
		#mutually_exclusive = { focus = POR_president_salazar }
		x = 33
		y = 2

		cost = 0

		available = {
			has_global_flag = SALAZAR_SEEKS_HELP
		}

		ai_will_do = {
			factor = 0
		}

		cancel_if_invalid = yes
		continue_if_invalid = no
		available_if_capitulated = no

		completion_reward = {
			add_ideas = POR_duke_duarte_nuno
			custom_effect_tooltip = POR_support_the_braganzas_tt
			set_party_name = { ideology = neutrality long_name = POR_neutrality_party_king_long name = POR_neutrality_party_king }
			create_country_leader = {
				name = "Duarte Nuno"
				desc = "POLITICS_DUARTE_NUNO_DESC"
				picture = "Portrait_Portugal_Duarte_Nuno.dds"
				expire = "1965.1.1"
				ideology = despotism
				traits = {
				royal_blood
				}
			}
		}
	}

	focus = {
		id = POR_casa_braganza
		icon = GFX_goal_braganza_foundation
		search_filters = { FOCUS_FILTER_POLITICAL }
		prerequisite = { focus = POR_support_the_braganzas }
		x = 33
		y = 4

		cost = 10

		ai_will_do = {
			factor = 0
		}

		cancel_if_invalid = yes
		continue_if_invalid = no
		available_if_capitulated = no

		completion_reward = {
			add_ideas = POR_casa_braganza_idea
		}
	}

	focus = {
		id = POR_royal_ranks
		search_filters = { FOCUS_FILTER_POLITICAL }
		icon = GFX_goal_tfv_strengthen_commonwealth_ties
		prerequisite = { focus = POR_casa_braganza }
		
		x = 32
		y = 5

		cost = 10

		available = {
		}

		ai_will_do = {
			factor = 0
		}

		cancel_if_invalid = yes
		continue_if_invalid = no
		available_if_capitulated = no

		completion_reward = {
			every_army_leader = {
				add_planning = 1
				add_attack = 1
						}
			swap_ideas = {
				remove_idea = POR_casa_braganza_idea
				add_idea = POR_casa_braganza_idea1
			}
		}
	}

	focus = {
		id = POR_revoke_church_law
		search_filters = { FOCUS_FILTER_POLITICAL }
		icon = GFX_focus_generic_strike_at_democracy1
		prerequisite = { focus = POR_support_the_braganzas }
		x = 36
		y = 3

		cost = 5

		available = {
			has_completed_focus = POR_miguelist_constitution
		}

		ai_will_do = {
			factor = 0
		}

		cancel_if_invalid = yes
		continue_if_invalid = no
		available_if_capitulated = no

		completion_reward = {
			remove_ideas = POR_holy_see
			swap_ideas = {
				remove_idea = POR_king_duarte_nuno
				add_idea = POR_king_duarte_nuno1
				
			}
		}
	}

	focus = {
		id = POR_tradicional_monarchy
		icon = GFX_goal_corporativism
		search_filters = { FOCUS_FILTER_POLITICAL }
		prerequisite = { focus = POR_revoke_church_law }
		x = 37
		y = 4

		cost = 10

		available = {
		}

		ai_will_do = {
			factor = 0
		}

		cancel_if_invalid = yes
		continue_if_invalid = no
		available_if_capitulated = no

		completion_reward = {
			add_political_power = 150
		}
	}

	focus = {
		id = POR_local_autonomy
		icon = GFX_goal_local_autonomy
		search_filters = { FOCUS_FILTER_STABILITY }
		prerequisite = { focus = POR_support_the_braganzas }
		x = 32
		y = 3

		cost = 10

		available = {
			has_completed_focus = POR_miguelist_constitution
		}

		ai_will_do = {
			factor = 0
		}

		cancel_if_invalid = yes
		continue_if_invalid = no
		available_if_capitulated = no

		completion_reward = {
			add_stability = 0.10
		}
	}

	focus = {
		id = POR_royal_scouts
		icon = GFX_goal_royal_scouts
		search_filters = { FOCUS_FILTER_WAR_SUPPORT }
		prerequisite = { focus = POR_support_the_braganzas }
		x = 34
		y = 3

		cost = 10

		available = {
			has_completed_focus = POR_miguelist_constitution
		}

		ai_will_do = {
			factor = 0
		}

		cancel_if_invalid = yes
		continue_if_invalid = no
		available_if_capitulated = yes

		completion_reward = {
			add_war_support = 0.05
			add_ideas = POR_escuteirosreais
		}
	}
	
	focus = {
		id = POR_miguelist_constitution
		icon = GFX_goal_duke
		search_filters = { FOCUS_FILTER_POLITICAL }
		prerequisite = { focus = POR_support_the_braganzas }
		x = 35
		y = 4

		cost = 10

		ai_will_do = {
			factor = 0
		}


		cancel_if_invalid = yes
		continue_if_invalid = no
		available_if_capitulated = no

		completion_reward = {
			remove_ideas = estado_novo
			remove_ideas = POR_oscar_carmona
			swap_ideas = {
				remove_idea = POR_duke_duarte_nuno
				add_idea = POR_king_duarte_nuno
				
			}
			set_cosmetic_tag = POR_miguelist_restoration
			hidden_effect = {
				country_event = { id = news.716 hours = 2 }
			}
			country_event = { id = portugal.2 hours = 8 }
		}
	}

	focus = {
		id = POR_quintoimperio
		icon = GFX_goal_quinto_imperio
		search_filters = { FOCUS_FILTER_INDUSTRY }
		prerequisite = { focus = POR_miguelist_constitution }
		x = 35
		y = 5

		cost = 5

		ai_will_do = {
			factor = 0
		}


		cancel_if_invalid = yes
		continue_if_invalid = no
		available_if_capitulated = no

		completion_reward = {
			add_ideas = quinto_imperio
			if = {
				limit = {
					NOT = { has_idea = war_economy }
					NOT = { has_idea = tot_economic_mobilisation }
				}
				add_ideas = war_economy
			}
		}
	}
	
	######################################################
	###################  SALAZAR  ########################
	######################################################

	focus = {
		id = POR_president_salazar
		icon = GFX_goal_salazar
		search_filters = { FOCUS_FILTER_POLITICAL }
		prerequisite = { focus = POR_change_is_needed }
		#mutually_exclusive = { focus = POR_support_the_braganzas }
		x = 25
		y = 2

		cost = 0

		available = {
			has_global_flag = SALAZAR_PRESIDENT
		}

		ai_will_do = {
			factor = 1
		}

		cancel_if_invalid = yes
		continue_if_invalid = no
		available_if_capitulated = yes

		completion_reward = {
			hidden_effect = {
				create_country_leader = {
						name = "António de Oliveira Salazar"
						desc = "POLITICS_ANTÓNIO_DE_OLIVEIRA_SALAZAR_DESC"
						picture = "Portrait_Portugal_Antonio_de_Oliveira_Salazar.dds"
						expire = "1965.1.1"
						ideology = moderatism
					traits = {
						dealbroker
						diplomat
						}
					}
				}
			swap_ideas = {
				add_idea = POR_salazar
				remove_idea = POR_oscar_carmona
			}
			custom_effect_tooltip = POR_president_salazar_tt
			add_country_leader_trait = minister_president
		}
	}

	focus = {
		id = POR_Concordata
		icon = GFX_focus_generic_diplomatic_treaty
		search_filters = { FOCUS_FILTER_POLITICAL }
		prerequisite = { focus = POR_president_salazar focus = POR_salazar_lives }

		available = {
				date > 1940.5.1
			}

		x = 22
		y = 3
		
		cost = 5
		
		ai_will_do = {
			factor = 1
		}

		cancel_if_invalid = yes
		continue_if_invalid = no
		available_if_capitulated = no
		
		completion_reward = {
			remove_ideas = POR_holy_see
			add_timed_idea = {
   					idea = POR_Saeculo
   					days = 90
			}
		}
	}

	focus = {
		id = POR_PVDE
		icon = GFX_goal_pvde
		search_filters = { FOCUS_FILTER_POLITICAL }
		prerequisite = { focus = POR_president_salazar focus = POR_salazar_lives }
		available = {
		}
		x = 25
		y = 4
		
		cost = 10
		
		ai_will_do = {
			factor = 1
		}

		cancel_if_invalid = yes
		continue_if_invalid = no
		available_if_capitulated = no
		
		completion_reward = {
			add_ideas = pvde
		}
	}

	focus = {
		id = POR_World_Exhibition
		icon = GFX_goal_exposicao
		search_filters = { FOCUS_FILTER_POLITICAL }
		prerequisite = { focus = POR_president_salazar focus = POR_salazar_lives }
		x = 26
		y = 3
		
		available = {
			date > 1940.6.1
		}

		cost = 10
		
		ai_will_do = {
			factor = 1
		}
		
		available_if_capitulated = yes
		
		completion_reward = {
			add_political_power = 300
		}
	}

	focus = {
		id = POR_prison_tarrafal
		icon = GFX_goal_tarrafal
		search_filters = { FOCUS_FILTER_POLITICAL FOCUS_FILTER_STABILITY }
		prerequisite = { focus = POR_PVDE }
		x = 26
		y = 5
		
		cost = 10
		
		ai_will_do = {
			factor = 1
		}
		
		available_if_capitulated = yes
		
		completion_reward = {
			add_popularity = {
				ideology = communism
				popularity = -0.05
			}
			add_stability = 0.05
		}
	}
	
	focus = {
		id = POR_god_country_family
		icon = GFX_goal_fatima
		search_filters = { FOCUS_FILTER_POLITICAL }
		prerequisite = { focus = POR_president_salazar focus = POR_salazar_lives }
		x = 23
		y = 4
		
		cost = 10
		
		ai_will_do = {
			factor = 1
		}
		
		available_if_capitulated = yes
		
		completion_reward = {
			add_ideas = POR_deus_patria_familia
		}
	}

	focus = {
		id = POR_restore_portuguese_pride
		icon = GFX_goal_our_place
		search_filters = { FOCUS_FILTER_INDUSTRY }
		prerequisite = { focus = POR_god_country_family }
		mutually_exclusive = { focus = POR_luso_pact }
		x = 23
		y = 5
		
		cost = 5
		
		ai_will_do = {
			factor = 1
		}
		
		available_if_capitulated = yes
		
		completion_reward = {
			swap_ideas = {
				remove_idea = estado_novo
				add_idea = estado_novo2
			}
			if = {
				limit = {
					NOT = { has_idea = war_economy }
					NOT = { has_idea = tot_economic_mobilisation }
				}
				add_ideas = war_economy
			}
		}
	}

	focus = {
		id = POR_salazar_youth
		icon = GFX_goal_mocidade
		search_filters = { FOCUS_FILTER_WAR_SUPPORT }
		prerequisite = { focus = POR_president_salazar focus = POR_salazar_lives }
		x = 24
		y = 3

		cost = 10

		ai_will_do = {
			factor = 1
		}

		cancel_if_invalid = yes
		continue_if_invalid = no
		available_if_capitulated = yes

		completion_reward = {
			add_war_support = 0.05
			add_ideas = POR_mocidade
		}
	}

	focus = {
		id = POR_iberian_interchange_program
		icon = GFX_goal_iberian_interchange
		search_filters = { FOCUS_FILTER_POLITICAL }
		prerequisite = { focus = POR_salazar_lives }

		available = {
			has_global_flag = scw_over 
			if = {
				limit = {
					SPR = {
						exists = yes
					}
					SPS = {
						exists = no
					}
				}
				SPR = {
					NOT = {
						has_war_with = POR
					}
				}
			} 
			if = {
				limit = {
					SPS = {
						exists = yes
					}
					SPR = {
						exists = no
					}
				}
				SPS = {
					NOT = {
						has_war_with = POR
					}
				}
			}
		}

		cancel_if_invalid = yes
		continue_if_invalid = no
		available_if_capitulated = no
		
		x = 19
		y = 3
		
		cost = 10
		
		ai_will_do = {
			factor = 1
		}
		
		completion_reward = { 
			custom_effect_tooltip = POR_iberian_interchange_program_tooltip 
			if = {
				limit = {
					SPR = {
						exists = yes
					}
					SPS = {
						exists = no
					}
				}
				SPR = {
					country_event = { id = portugal.4 days = 1 }
				}
			} 
			if = {
				limit = {
					SPS = {
						exists = yes
					}
					SPR = {
						exists = no
					}
				}
				SPS = {
					country_event = { id = portugal.4 days = 1 }
				}
			}
		}
	}

	focus = {
		id = POR_iberian_army_exercise
		icon = GFX_focus_generic_combined_arms
		search_filters = { FOCUS_FILTER_MANPOWER }
		prerequisite = { focus = POR_salazar_lives }
		
		available = {
			has_global_flag = scw_over
			POR={ has_war = no } 
			if = {
				limit = {
					SPR = {
						exists = yes
					}
					SPS = {
						exists = no
					}
				}
				SPR = {
					has_war = no
				}
			} 
			if = {
				limit = {
					SPS = {
						exists = yes
					}
					SPR = {
						exists = no
					}
				}
				SPS = {
					has_war = no
				}
			}
		}

		cancel_if_invalid = yes
		continue_if_invalid = no
		available_if_capitulated = no

		x = 21
		y = 4
		cost = 10
		ai_will_do = {
			factor = 1
		}		
		
		completion_reward = {
			army_experience = 100
			navy_experience = 100
			air_experience = 100
		}
	}

	focus = {
		id = POR_luso_pact
		icon = GFX_goal_iberian_pact
		search_filters = { FOCUS_FILTER_POLITICAL }
		prerequisite = { focus = POR_iberian_interchange_program focus = POR_iberian_army_exercise }
		mutually_exclusive = { focus = POR_restore_portuguese_pride }
		
		x = 20
		y = 5

		cost = 5

		ai_will_do = {
			factor = 1
		}

		cancel_if_invalid = yes
		continue_if_invalid = no
		available_if_capitulated = no

		available = {
			has_global_flag = scw_over 
			if = {
				limit = {
					SPR = {
						exists = yes
					}
					SPS = {
						exists = no
					}
				}
				SPR = {
					NOT = {
						has_war_with = POR
					}
				}
			} 
			if = {
				limit = {
					SPS = {
						exists = yes
					}
					SPR = {
						exists = no
					}
				}
				SPS = {
					NOT = {
						has_war_with = POR
					}
				}
			}
		}
		
		ai_will_do = {
			factor = 1
		}
		
		completion_reward = {
			custom_effect_tooltip = POR_luso_pact_tooltip 
			if = {
				limit = {
					SPR = {
						exists = yes
					}
					SPS = {
						exists = no
					}
				}
				SPR = {
					country_event = { id = portugal.7 days = 1 }
				}
			} 
			if = {
				limit = {
					SPS = {
						exists = yes
					}
					SPR = {
						exists = no
					}
				}
				SPS = {
					country_event = { id = portugal.7 days = 1 }
				}
			}	
		}
	}

######################################################
################ MIDDLE NEUTRAL FOCUS ################
######################################################

	focus = {
		id = POR_legiao_portuguesa
		icon = GFX_goal_legiao_portuguesa
		search_filters = { FOCUS_FILTER_POLITICAL }
		prerequisite = { focus = POR_president_salazar focus = POR_support_the_braganzas focus = POR_salazar_lives }
		available = {
		}
		x = 29
		y = 3
		cost = 10

		ai_will_do = {
			factor = 1
		}

		cancel_if_invalid = yes
		continue_if_invalid = no
		available_if_capitulated = no

		completion_reward = {
			add_war_support = 0.2
			add_popularity = {
				ideology = fascism
				popularity = 0.05
			}
			add_ideas = POR_legiaopt
			set_rule = { can_send_volunteers = yes }
		}
	}

	focus = {
		id = POR_heroes_from_the_sea
		search_filters = { FOCUS_FILTER_RESEARCH }
		icon = GFX_goal_generic_amphibious_assault
		prerequisite = { focus = POR_legiao_portuguesa }

		x = 28
		y = 4
		cost = 10
		ai_will_do = {
			factor = 1
		}	

		cancel_if_invalid = yes
		continue_if_invalid = no
		available_if_capitulated = no	
		
		completion_reward = {
			add_tech_bonus = {
				name = POR_heroes_from_the_sea
				bonus = 0.50
				uses = 1
				technology = marines
				technology = marines2
				technology = marines3
			}
			add_ideas = herois_do_mar
		}
	}

	focus = {
		id = POR_noble_people
		icon = GFX_goal_conscription
		search_filters = { FOCUS_FILTER_RESEARCH }
		prerequisite = { focus = POR_legiao_portuguesa }
		
		x = 30
		y = 4
		cost = 10
		ai_will_do = {
			factor = 1
		}		

		cancel_if_invalid = yes
		continue_if_invalid = no
		available_if_capitulated = no
		
		completion_reward = {
			add_tech_bonus = {
				name = POR_heroes_from_the_sea
				bonus = 0.50
				uses = 1
				technology = tech_mountaineers
				technology = tech_mountaineers2
				technology = tech_mountaineers3
			}
			add_ideas = nobre_povo
		}
	}

	focus = {
		id = POR_acto_colonial
		icon = GFX_goal_acto_colonial
		search_filters = { FOCUS_FILTER_POLITICAL }
		prerequisite = { focus = POR_heroes_from_the_sea focus = POR_noble_people }
		available = {
		}
		x = 29
		y = 5
		cost = 10

		ai_will_do = {
			factor = 1
		}

		cancel_if_invalid = yes
		continue_if_invalid = no
		available_if_capitulated = no

		completion_reward = {
			swap_ideas = {
				remove_idea = POR_legiaopt
				add_idea = POR_actocolonial
				
			}
		}
	}



######################################################
#######SPAIN OR NO SPAIN AND ORGULHOSMAENTE SÓS#######
######################################################


	focus = {
		id = POR_orgulhosamente_sos
		icon = GFX_goal_orgulhosamente
		search_filters = { FOCUS_FILTER_POLITICAL }
		prerequisite = { focus = POR_restore_portuguese_pride }
		mutually_exclusive = { focus = POR_british_cooperation focus = POR_mission_to_germany }
		x = 27
		y = 7

		cost = 10
		ai_will_do = {
			factor = 0
		}

		available = {
			NOT = {is_in_faction = yes}
		}

		cancel_if_invalid = yes
		continue_if_invalid = no
		available_if_capitulated = no

		completion_reward = {
			custom_effect_tooltip = POR_orgulhosamente_sos_tooltip
			hidden_effect = {
			set_rule = { can_join_factions = no }
			set_rule = { can_create_factions = no }
				}
			add_ideas = orgulhosamente_sos_idea
		}
	}

	focus = {
		id = POR_rekindle_feuds
		icon = GFX_goal_demand_ceuta
		search_filters = { FOCUS_FILTER_ANNEXATION }
		prerequisite = { focus = POR_orgulhosamente_sos }

		available = {
		has_army_manpower = { size > 499999 }
		has_global_flag = scw_over
		}
		
		x = 27
		y = 8
		
		cost = 5
		
		ai_will_do = {
			factor = 0
		}
		
		bypass = { 
			if = {
				limit = {
					SPR = {
						exists = yes
					}
					SPS = {
						exists = no
					}
				}
				SPR = {
					NOT = {
						has_war_with = POR
					}
				}
			} 
			if = {
				limit = {
					SPS = {
						exists = yes
					}
					SPR = {
						exists = no
					}
				}
				SPS = {
					NOT = {
						has_war_with = POR
					}
				}
			}
			290 = { is_owned_by = POR }
		}

		cancel_if_invalid = yes
		continue_if_invalid = no
		available_if_capitulated = no

		completion_reward = {
			if = {
				limit = {
					SPR = {
						exists = yes
					}
					SPS = {
						exists = no
					}
				}
				SPR = {
					country_event = { id = portugal.10 days = 1 }
				}
			} 
			if = {
				limit = {
					SPS = {
						exists = yes
					}
					SPR = {
						exists = no
					}
				}
				SPS = {
					country_event = { id = portugal.10 days = 1 }
				}
			}
		}	
	}

	focus = {
		id = POR_demand_mollucas
		icon = GFX_goal_demand_spice_islands
		search_filters = { FOCUS_FILTER_ANNEXATION }
		prerequisite = { focus = POR_rekindle_feuds }

		available = {
			owns_state = 290
			has_navy_size = {
    			size > 49
			}
		}
		
		x = 27
		y = 9
		
		cost = 5
		
		ai_will_do = {
			factor = 0
		}
		
		bypass = {
			667 = { is_owned_by = POR }
			668 = { is_owned_by = POR }
		}

		cancel_if_invalid = yes
		continue_if_invalid = no
		available_if_capitulated = no

		completion_reward = {
			INS = { country_event = { id = news.733 hours = 4 } }
			}	
		}

	focus = {
		id = POR_iberian_unity
		icon = GFX_goal_align_spain
		prerequisite = { focus = POR_quintoimperio }
		search_filters = { FOCUS_FILTER_POLITICAL }
		mutually_exclusive = { focus = POR_galiza_referendum focus = POR_honor_old_alliance }
		x = 31
		y = 7

		cost = 5

		ai_will_do = {
			factor = 0
		}

		available = {
			has_global_flag = scw_over
			is_in_faction = no 
			if = {
				limit = {
					SPR = {
						exists = yes
					}
					SPS = {
						exists = no
					}
				}
				SPR = {
					NOT = {
						has_war_with = POR
					}
				}
			} 
			if = {
				limit = {
					SPS = {
						exists = yes
					}
					SPR = {
						exists = no
					}
				}
				SPS = {
					NOT = {
						has_war_with = POR
					}
				}
			}
		}

		cancel_if_invalid = yes
		continue_if_invalid = no
		available_if_capitulated = no

		completion_reward ={
			custom_effect_tooltip = POR_iberian_unity_tooltip
			if = {
				limit = {
					SPR = {
						exists = yes
					}
					SPS = {
						exists = no
					}
				}
				SPR = {
					country_event = { id = portugal.22 days = 1 }
				}
			} 
			if = {
				limit = {
					SPS = {
						exists = yes
					}
					SPR = {
						exists = no
					}
				}
				SPS = {
					country_event = { id = portugal.22 days = 1 }
				}
			} 
		}
	} 

	focus = {
		id = POR_spanish_king
		icon = GFX_goal_aid_alfonso
		search_filters = { FOCUS_FILTER_POLITICAL }
		prerequisite = { focus = POR_iberian_unity }
		x = 31
		y = 8

	 	available = {
		 	has_army_manpower = { size > 199999 }
		 	is_in_faction = no
			if = {
				limit = {
					SPR = {
						exists = yes
					}
					SPS = {
						exists = no
					}
				}
				SPR = {
					NOT = {
						has_war_with = POR
					}
				}
			} 
			if = {
				limit = {
					SPS = {
						exists = yes
					}
					SPR = {
						exists = no
					}
				}
				SPS = {
					NOT = {
						has_war_with = POR
					}
				}
			}
		}

		cancel_if_invalid = yes
		continue_if_invalid = no
		available_if_capitulated = no
	
		cost = 10

		ai_will_do = {
			factor = 0
		}

		completion_reward ={
			custom_effect_tooltip = POR_spanish_king_tooltip
			if = {
				limit = {
					SPR = {
						exists = yes
					}
					SPS = {
						exists = no
					}
				}
				SPR = {
					country_event = { id = portugal.23 days = 1 }
				}
			} 
			if = {
				limit = {
					SPS = {
						exists = yes
					}
					SPR = {
						exists = no
					}
				}
				SPS = {
					country_event = { id = portugal.23 days = 1 }
				}
			}
		}
	}

	focus = {
		id = POR_kingdoms_tech_sharing
		icon = GFX_goal_tfv_generic_tech_sharing
		search_filters = { FOCUS_FILTER_RESEARCH }
		prerequisite = { focus = POR_spanish_king }
		x = 31
		y = 9

		cost = 5

		ai_will_do = {
			factor = 0
		}

		available = { 
			if = {
				limit = {
					SPR = {
						exists = yes
					}
					SPS = {
						exists = no
					}
				}
				SPR = {
					NOT = {
						has_war_with = POR
					}
				}
			} 
			if = {
				limit = {
					SPS = {
						exists = yes
					}
					SPR = {
						exists = no
					}
				}
				SPS = {
					NOT = {
						has_war_with = POR
					}
				}
			}
		}
		
		bypass = {
		}

		cancel_if_invalid = yes
		continue_if_invalid = no
		available_if_capitulated = no

		complete_tooltip = {

		}

		completion_reward = {
			add_to_tech_sharing_group = kingdom_research 
			if = {
				limit = {
					SPR = {
						exists = yes
					}
					SPS = {
						exists = no
					}
				}
				SPR = {
					add_to_tech_sharing_group = kingdom_research
				}
			} 
			if = {
				limit = {
					SPS = {
						exists = yes
					}
					SPR = {
						exists = no
					}
				}
				SPS = {
					add_to_tech_sharing_group = kingdom_research
				}
			}
		}
	}

	focus = {
		id = POR_galiza_referendum
		icon = GFX_goal_galiza
		search_filters = { FOCUS_FILTER_POLITICAL }
		prerequisite = { focus = POR_quintoimperio }
		mutually_exclusive = { focus = POR_iberian_unity }

		x = 34
		y = 7

		cost = 10

		ai_will_do = {
			factor = 0
		}

		available = {
			has_army_manpower = { size > 499999 }
			has_global_flag = scw_over
			if = {
				limit = {
					SPR = {
						exists = yes
					}
					SPS = {
						exists = no
					}
				}
				SPR = {
					NOT = {
						has_war_with = POR
					}
				}
			} 
			if = {
				limit = {
					SPS = {
						exists = yes
					}
					SPR = {
						exists = no
					}
				}
				SPS = {
					NOT = {
						has_war_with = POR
					}
				}
			}
		}

		bypass = { 
			OR = {
				owns_state = 171 
				if = {
					limit = {
						SPR = {
							exists = yes
						}
						SPS = {
							exists = no
						}
					}
					SPR = { 
						has_war_with = POR 
					} 
				}  
				if = {
					limit = {
						SPS = {
							exists = yes
						}
						SPR = {
							exists = no
						}
					}
					SPS = {
						has_war_with = POR 
					} 
				}
				AND = {
					SPR = {
						exists = no
					}
					SPS = {
						exists = no
					}
				}
			}
		}

		cancel_if_invalid = yes
		continue_if_invalid = no
		available_if_capitulated = no

		completion_reward ={
			custom_effect_tooltip = POR_galiza_referendum_tooltip
			hidden_effect = {
				country_event = { id = news.730 hours = 12 }
			}
			if = {
				limit = {
					SPR = {
						exists = yes
					}
					SPS = {
						exists = no
					}
				}
				SPR = {
					country_event = { id = news.731 hours = 22 }
				}
			} 
			if = {
				limit = {
					SPS = {
						exists = yes
					}
					SPR = {
						exists = no
					}
				}
				SPS = {
					country_event = { id = news.731 hours = 22 }
				}
			} 
		}
	}

	focus = {
		id = POR_another_aljubarrota
		icon = GFX_por_spain_war
		search_filters = { FOCUS_FILTER_INDUSTRY }
		prerequisite = { focus = POR_galiza_referendum }
		
		x = 34
		y = 8

		cost = 5

		ai_will_do = {
			factor = 0
		}

		available = {
			OR = {
				has_war_with = SPS
				has_war_with = SPR
			}
			NOT = { has_war_with = ENG }
		}

		bypass = { 
			OR = { 
				AND = {
					SPS = {
						has_war_with = POR
						has_capitulated = yes
					}
				}
				AND = {
					SPR = {
						has_war_with = POR
						has_capitulated = yes
					}
				}
				owns_state = 290
				has_war_with = ENG
			}
		}

		cancel_if_invalid = yes
		continue_if_invalid = no
		available_if_capitulated = no

		completion_reward ={
			add_equipment_to_stockpile = {
    			type = artillery_equipment
   				amount = 200
    			producer = ENG
			}
		}
	}

	focus = {
		id = POR_revise_berlin
		icon = GFX_goal_berlin
		search_filters = { FOCUS_FILTER_POLITICAL }
		prerequisite = { focus = POR_quintoimperio }
		mutually_exclusive = { focus = POR_honor_old_alliance }

		x = 36
		y = 7

		cost = 5

		ai_will_do = {
			factor = 0
		}

		available = {
			OR = {
			FRA = { 
				has_capitulated = yes
				is_in_faction_with = ENG
				}
			has_navy_size = {
    			size > 79
    				}
				}
				NOT = { has_war_with = ENG }	
			}

		bypass = { OR = {
				ENG = { has_capitulated = yes }
				NOT = {
					any_country = {
						original_tag = ENG
						exists = yes
					}
				}
				owns_state = 545
			}
		}

		cancel_if_invalid = yes
		continue_if_invalid = no
		available_if_capitulated = no

		completion_reward ={
			reverse_add_opinion_modifier = { target = ENG modifier = POR_pink_map_negative }
			ENG = { country_event = { id = news.732 hours = 4 } }
			custom_effect_tooltip = POR_revise_berlin_tt
		}
	}

	focus = {
		id = POR_from_luanda_lourenco
		search_filters = { FOCUS_FILTER_INDUSTRY }
		icon = GFX_goal_generic_construct_infrastructure
		prerequisite = { focus = POR_revise_berlin }

		x = 36
		y = 8

		cost = 10

		ai_will_do = {
			factor = 0
		}

		available = {
			owns_state = 540
			owns_state = 545
			owns_state = 544
		}

		cancel_if_invalid = yes
		continue_if_invalid = no
		available_if_capitulated = no

		completion_reward ={
            540 = {
                    add_building_construction = {
                        type = infrastructure
                        level = 3
                        instant_build = yes           
                }                     
            }
            545 = {
                    add_building_construction = {
                        type = infrastructure
                        level = 3
                        instant_build = yes 
                    }               
                }                     
            544 = {
                    add_building_construction = {
                        type = infrastructure
                        level = 3
                        instant_build = yes           
                }
        	}                            
		}
	}

	focus = {
		id = POR_portugal_strong
		icon = GFX_por_sucess
		search_filters = { FOCUS_FILTER_POLITICAL }
		prerequisite = { focus = POR_another_aljubarrota }
		prerequisite = { focus = POR_from_luanda_lourenco }

		x = 35
		y = 9

		cost = 10

		ai_will_do = {
			factor = 0
		}

		available = {
			OR= {
			owns_state = 290
			owns_state = 171
			}
			owns_state = 545
		}

		cancel_if_invalid = yes
		continue_if_invalid = no
		available_if_capitulated = no

		completion_reward ={
			swap_ideas = {
				remove_idea = quinto_imperio
				add_idea = quinto_imperio1		
			}
			set_rule = { can_create_factions = yes }
			unlock_decision_category_tooltip = form_reino_unido
		}
	}

	focus = {
		id = POR_honor_old_alliance
		icon = GFX_focus_generic_treaty
		prerequisite = { focus = POR_quintoimperio }
		search_filters = { FOCUS_FILTER_POLITICAL }
		mutually_exclusive = { focus = POR_revise_berlin focus = POR_iberian_unity }
		
		x = 39
		y = 7

		cost = 5

		ai_will_do = {
			factor = 0
		}

		available = {
			ENG = {
	 			exists = yes
	 			has_democratic_government = yes
	 		}
			NOT = { has_war_with = ENG }
		}

		bypass = { is_in_faction_with = ENG }

		cancel_if_invalid = yes
		continue_if_invalid = no
		available_if_capitulated = no

		completion_reward ={
			reverse_add_opinion_modifier = { target = ENG modifier = POR_pink_map_positive }
			ENG = { country_event = portugal.16 }
			custom_effect_tooltip = POR_eng_guarantee_tt
		}
	}

	focus = {
		id = POR_new_boats
		search_filters = { FOCUS_FILTER_INDUSTRY }
		icon = GFX_goal_generic_construct_naval_dockyard
		prerequisite = { focus = POR_honor_old_alliance }
		
		x = 39
		y = 8

		cost = 10

		ai_will_do = {
			factor = 0
		}

		available = {
			ENG = {
	 			exists = yes
	 			has_democratic_government = yes
	 		}
			NOT = { has_war_with = ENG }
		}

		cancel_if_invalid = yes
		continue_if_invalid = no
		available_if_capitulated = no

		completion_reward ={
			add_offsite_building = { type = dockyard level = 2 }
			ENG = { add_offsite_building = { type = dockyard level = 2 }
			}
		}
	}

	focus = {
		id = POR_windsor
		icon = GFX_por_windsor
		prerequisite = { focus = POR_new_boats }
		search_filters = { FOCUS_FILTER_POLITICAL }
		
		x = 39
		y = 9

		cost = 5

		ai_will_do = {
			factor = 0
		}

		available = {
	 		is_puppet = no
			is_in_faction = no
	 		NOT = { has_war_with = ENG }
	 		
	 		ENG = {
	 			exists = yes
	 			has_democratic_government = yes
 				is_faction_leader = yes
	 		}
		}

		bypass = { is_in_faction_with = ENG }

		cancel_if_invalid = yes
		continue_if_invalid = no
		available_if_capitulated = yes

		completion_reward = {
			ENG = {
				country_event = generic.2
			}
		}
	}


	focus = {
		id = POR_usa_deal
		icon = GFX_focus_chi_mission_to_the_us
		search_filters = { FOCUS_FILTER_POLITICAL }
		prerequisite = { focus = POR_rekindle_feuds focus = POR_spanish_king focus = POR_portugal_strong }
		
		available = {
		OR= {
			if = {
			has_completed_focus = POR_rekindle_feuds
			owns_state = 290
			}
			if = {
			has_completed_focus = POR_spanish_king
			has_war = no
			}
			if = {
			has_completed_focus = POR_portugal_strong
			has_army_manpower = { size > 799999 }
				}
			}
		}

		x = 29
		y = 10

		cost = 10

		ai_will_do = {
			factor = 0
		}

		cancel_if_invalid = yes
		continue_if_invalid = no
		available_if_capitulated = no

		completion_reward = {
			every_country = {
				limit = { is_literally_america = yes }
				country_event = { id = portugal.9 hours = 12 } }
				custom_effect_tooltip = POR_usa_deal_tooltip
			}
		}

	focus = {
		id = POR_ukpba
		icon = GFX_goal_ukpba
		search_filters = { FOCUS_FILTER_ANNEXATION }
		prerequisite = { focus = POR_usa_deal focus = POR_join_axis }
		available = {
		}
		
		x = 22
		y = 12
		
		cost = 1
		
		ai_will_do = {
			factor = 0
		}

		cancel_if_invalid = yes
		continue_if_invalid = no
		available_if_capitulated = no
		
		completion_reward = {
			unlock_decision_category_tooltip = POR_colonial_empire
		}
	}	

	
######################################
#################  NAVY  #############
######################################

	focus = {
		id = POR_navy_planning_bonus
		search_filters = { FOCUS_FILTER_RESEARCH }
		icon = GFX_goal_generic_navy_doctrines_tactics
		available = {
		}
		x = 42
		y = 0
		cost = 10
		ai_will_do = {
			factor = 1
		}

		cancel_if_invalid = yes
		continue_if_invalid = no
		available_if_capitulated = no		
		
		completion_reward = {
				navy_experience = 30
			add_tech_bonus = {
				name = POR_navy_planning_bonus
				bonus = 0.5
				uses = 1
				technology = improved_destroyer
				technology = advanced_destroyer
			}
			add_tech_bonus = {
				name = POR_navy_planning_bonus
				bonus = 0.5
				uses = 1
				technology = basic_light_cruiser
				technology = improved_light_cruiser
				technology = advanced_light_cruiser
			}
			add_tech_bonus = {
				name = POR_navy_planning_bonus
				bonus = 0.5
				uses = 1
				technology = early_heavy_cruiser
				technology = basic_heavy_cruiser
				technology = improved_heavy_cruiser
				technology = advanced_heavy_cruiser
			}
		}
	}

	focus = {
		id = POR_navy_dockyard_lisbon
		icon = GFX_goal_lisnave
		search_filters = { FOCUS_FILTER_INDUSTRY }
		prerequisite = { focus = POR_navy_planning_bonus }
		available = {
		}
		x = 40
		y = 1
		cost = 10
		ai_will_do = {
			factor = 1
		}	

		cancel_if_invalid = yes
		continue_if_invalid = no
		available_if_capitulated = no	
		
		completion_reward = {
				custom_effect_tooltip = available_designer
				show_ideas_tooltip = lisnave
			112 = {
				add_extra_state_shared_building_slots = 4
				add_building_construction = {
					type = dockyard
					level = 4
					instant_build = yes
				}
			}
		}
	}

	focus = {
		id = POR_navy_dockyard_porto
		icon = GFX_goal_alfeite
		search_filters = { FOCUS_FILTER_INDUSTRY }
		prerequisite = { focus = POR_navy_planning_bonus }
		available = {
		}
		x = 42
		y = 1
		cost = 10
		ai_will_do = {
			factor = 1
		}	

		cancel_if_invalid = yes
		continue_if_invalid = no
		available_if_capitulated = no	
		
		completion_reward = {
				custom_effect_tooltip = available_designer
				show_ideas_tooltip = alfeite
			112 = {
				add_extra_state_shared_building_slots = 4
				add_building_construction = {
					type = dockyard
					level = 4
					instant_build = yes
				}
			}
		}
	}

	focus = {
		id = POR_navy_dockyard_porto_2
		icon = GFX_goal_almada
		search_filters = { FOCUS_FILTER_INDUSTRY }
		prerequisite = { focus = POR_navy_dockyard_porto }
		prerequisite = { focus = POR_navy_dockyard_lisbon }
		available = {
		}
		x = 41
		y = 2
		cost = 10
		ai_will_do = {
			factor = 1
		}	

		cancel_if_invalid = yes
		continue_if_invalid = no
		available_if_capitulated = no	
		
		completion_reward = {     
                add_ideas = almada_capital
		}
	}

	focus = {
		id = POR_navy_dockyard_lisbon_3
		icon = GFX_goal_expand_lisnave
		search_filters = { FOCUS_FILTER_INDUSTRY }
		prerequisite = { focus = POR_navy_dockyard_porto_2 }
		mutually_exclusive = { focus = POR_navy_dockyard_porto_3 }
		available = {
		}
		x = 40
		y = 3
		cost = 10
		ai_will_do = {
			factor = 1
		}	

		cancel_if_invalid = yes
		continue_if_invalid = no
		available_if_capitulated = no	
		
		completion_reward = {
			add_ideas = lisnave_mordernizada 
			112 = {
				add_extra_state_shared_building_slots = 2
				add_building_construction = {
					type = dockyard
					level = 2
					instant_build = yes
				}
			}
		}
	}	

	focus = {
		id = POR_navy_dockyard_porto_3
		icon = GFX_goal_expand_alfeite
		search_filters = { FOCUS_FILTER_INDUSTRY }
		prerequisite = { focus = POR_navy_dockyard_porto_2 }
		mutually_exclusive = { focus = POR_navy_dockyard_lisbon_3 }
		available = {
		}
		x = 42
		y = 3
		cost = 10
		ai_will_do = {
			factor = 1
		}

		cancel_if_invalid = yes
		continue_if_invalid = no
		available_if_capitulated = no		
		
		completion_reward = {
				add_ideas = alfeite_mordernizado
			112 = {
				add_extra_state_shared_building_slots = 2
				add_building_construction = {
					type = dockyard
					level = 2
					instant_build = yes
				}
			}
		}
	}	


focus = {
		id = POR_navy_planning_bonus_2
		icon = GFX_goal_navy_decision
		search_filters = { FOCUS_FILTER_RESEARCH }
		prerequisite = { focus = POR_navy_planning_bonus }
		available = {
		}
		x = 44
		y = 2
		cost = 10
		ai_will_do = {
			factor = 1
		}	

		cancel_if_invalid = yes
		continue_if_invalid = no
		available_if_capitulated = no	
		
		completion_reward = {
			add_tech_bonus = {
				name = POR_navy_planning_bonus_2
				bonus = 0.5
				uses = 3
				category = naval_doctrine
			}
		}
	}	

focus = {
		id = POR_navy_planning_bonus_3
		icon = GFX_goal_generic_navy_submarine
		search_filters = { FOCUS_FILTER_INDUSTRY }
		prerequisite = { focus = POR_navy_planning_bonus_2 }
		available = {
		}
		x = 44
		y = 4
		cost = 10
		ai_will_do = {
			factor = 1
		}		
		
		cancel_if_invalid = yes
		continue_if_invalid = no
		available_if_capitulated = no

		completion_reward = {
			add_tech_bonus = {
				name = POR_navy_planning_bonus_3
				bonus = 0.5
				uses = 2
				technology = early_submarine
				technology = basic_submarine
				technology = improved_submarine
				technology = advanced_submarine
			}
		}
	}		

focus = {
		id = POR_navy_planning_bonus_4
		icon = GFX_goal_battleship
		search_filters = { FOCUS_FILTER_RESEARCH }
		prerequisite = { focus = POR_navy_planning_bonus_3 focus = POR_navy_dockyard_porto_3 focus = POR_navy_dockyard_lisbon_3 }
		available = {
		}
		x = 42
		y = 5
		cost = 10
		ai_will_do = {
			factor = 1
		}	

		cancel_if_invalid = yes
		continue_if_invalid = no
		available_if_capitulated = no	
		
		completion_reward = {
			add_tech_bonus = {
				name = POR_navy_planning_bonus_4
				bonus = 0.5
				uses = 2
				technology = early_battlecruiser
				technology = basic_battlecruiser
			}
			add_tech_bonus = {
				name = POR_navy_planning_bonus_4
				bonus = 0.5
				uses = 2
				technology = early_battleship
				technology = basic_battleship
				technology = improved_battleship
				technology = advanced_battleship
			}
		}
	}

########################################################
####################  ARMY  ############################
########################################################


	focus = {
		id = POR_organisation_of_1937
		search_filters = { FOCUS_FILTER_RESEARCH }
		icon = GFX_goal_Markov_plan
		available = {
				date > 1937.9.1
		}

		
		x = 50
		y = 0
		cost = 10
		ai_will_do = {
			factor = 1
		}	

		cancel_if_invalid = yes
		continue_if_invalid = no
		available_if_capitulated = no	
		
		completion_reward = {
			remove_ideas = POR_disorganized_army
			army_experience = 30
			add_tech_bonus = {
				name = POR_organisation_of_1937
				bonus = 0.5
				uses = 3
				category = land_doctrine
			}
		}
	}

	focus = {
		id = POR_tech_3
		icon = GFX_goal_factory_complex
		search_filters = { FOCUS_FILTER_INDUSTRY }
		prerequisite = { focus = POR_organisation_of_1937 }
		prerequisite = { focus = POR_fap }

		
		x = 53
		y = 1
		cost = 10
		ai_will_do = {
			factor = 1
		}	

		cancel_if_invalid = yes
		continue_if_invalid = no
		available_if_capitulated = no	
		
		completion_reward = {
			181 = {
				add_extra_state_shared_building_slots = 4
				add_building_construction = {
					type = arms_factory
					level = 4
					instant_build = yes
				}
			}
		}
	}

	focus = {
		id = POR_refineries_contractors
		search_filters = { FOCUS_FILTER_INDUSTRY FOCUS_FILTER_RESEARCH }
		icon = GFX_goal_generic_oil_refinery
		prerequisite = { focus = POR_tech_3 }
		available = {
				has_tech = synth_oil_experiments
		}

		cancel_if_invalid = yes
		continue_if_invalid = no
		available_if_capitulated = no
		
		x = 53
		y = 3
		cost = 10
		ai_will_do = {
			factor = 1
		}		
		
		completion_reward = {
			179 = {
				add_extra_state_shared_building_slots = 1
				add_building_construction = {
					type = synthetic_refinery
					level = 1
					instant_build = yes
				}
			}
			add_tech_bonus = {
				name = POR_refineries_contractors
				bonus = 0.5
				uses = 1
				category = synth_resources
			}
		}
	}

	focus = {
		id = POR_new_tech
		icon = GFX_focus_rocketry
		search_filters = { FOCUS_FILTER_RESEARCH }
		prerequisite = { focus = POR_refineries_contractors }

		
		x = 53
		y = 5
		cost = 10
		ai_will_do = {
			factor = 1
		}	

		cancel_if_invalid = yes
		continue_if_invalid = no
		available_if_capitulated = no	
		
		completion_reward = {
			add_tech_bonus = {
				name = POR_inf
				bonus = 0.50
				uses = 1
				category = rocketry
			}
		}
	}

	focus = {
		id = POR_extra_research_slot
		icon = GFX_goal_extra_research_slot
		prerequisite = { focus = POR_new_tech }
		search_filters = { FOCUS_FILTER_RESEARCH }
		available = {
		}
		x = 53
		y = 7
		cost = 10
		ai_will_do = {
			factor = 1
		}

		cancel_if_invalid = yes
		continue_if_invalid = no
		available_if_capitulated = no		
		
		completion_reward = {
			add_research_slot = 1
		}
	}

	focus = {
		id = POR_inf
		icon = GFX_goal_generic_small_arms
		prerequisite = { focus = POR_organisation_of_1937 }
		mutually_exclusive = { focus = POR_tank }
		search_filters = { FOCUS_FILTER_RESEARCH }

		
		x = 49
		y = 1
		cost = 10
		ai_will_do = {
			factor = 1
		}		

		cancel_if_invalid = yes
		continue_if_invalid = no
		available_if_capitulated = no
		
		completion_reward = {
			custom_effect_tooltip = available_designer
			show_ideas_tooltip = arsenalp
			add_tech_bonus = {
				name = POR_inf
				bonus = 0.50
				uses = 1
				category = infantry_weapons
			}
		}
	}

	focus = {
		id = POR_inf_2
		icon = GFX_goal_continuous_reduce_training_time
		prerequisite = { focus = POR_inf }
		search_filters = { FOCUS_FILTER_INDUSTRY }

		
		x = 49
		y = 3
		cost = 10
		ai_will_do = {
			factor = 1
		}		

		cancel_if_invalid = yes
		continue_if_invalid = no
		available_if_capitulated = no
		
		completion_reward = {
			add_ideas = increase_equipment
		}
	}

	focus = {
		id = POR_tank
		icon = GFX_goal_generic_army_tanks
		prerequisite = { focus = POR_organisation_of_1937 }
		mutually_exclusive = { focus = POR_inf }
		search_filters = { FOCUS_FILTER_RESEARCH }

		
		x = 47
		y = 1
		cost = 10
		ai_will_do = {
			factor = 1
		}		

		cancel_if_invalid = yes
		continue_if_invalid = no
		available_if_capitulated = no
		
		completion_reward = {
			custom_effect_tooltip = available_designer
			show_ideas_tooltip = man_p
			add_tech_bonus = {
				name = POR_tank2
				bonus = 0.25
				uses = 4
				category = armor
			}
		}
	}

	focus = {
		id = POR_tank2
		icon = GFX_goal_continuous_armor_production
		prerequisite = { focus = POR_tank }
		search_filters = { FOCUS_FILTER_INDUSTRY }

		
		x = 47
		y = 3
		cost = 10
		ai_will_do = {
			factor = 1
		}	

		cancel_if_invalid = yes
		continue_if_invalid = no
		available_if_capitulated = no	
		
		completion_reward = {
			add_ideas = increase_tanks
		}
	}

	focus = {
		id = POR_tech_motorized
		icon = GFX_goal_generic_army_motorized
		search_filters = { FOCUS_FILTER_RESEARCH }
		prerequisite = { focus = POR_inf focus = POR_tank }

		
		x = 48
		y = 2
		cost = 10
		ai_will_do = {
			factor = 1
		}	

		cancel_if_invalid = yes
		continue_if_invalid = no
		available_if_capitulated = no	
		
		completion_reward = {
			add_tech_bonus = {
				name = POR_tech_motorized
				bonus = 0.50
				uses = 1
				category = cat_mechanized_equipment
			}
		}
	}


	focus = {
		id = POR_tech_2
		icon = GFX_goal_generic_military_sphere
		search_filters = { FOCUS_FILTER_RESEARCH }
		prerequisite = { focus = POR_organisation_of_1937 }

		
		x = 51
		y = 2
		cost = 10
		ai_will_do = {
			factor = 1
		}

		cancel_if_invalid = yes
		continue_if_invalid = no
		available_if_capitulated = no		
		
		completion_reward = {
			add_tech_bonus = {
				name = POR_tech_2
				bonus = 0.25
				uses = 4
				category = support_tech
			}
		}
	}

	focus = {
		id = POR_lusitanean_bravery
		icon = GFX_goal_authority
		search_filters = { FOCUS_FILTER_INDUSTRY }
		prerequisite = { focus = POR_tech_2 focus = POR_inf_2 focus = POR_tank2 }

		
		x = 50
		y = 5
		cost = 10
		ai_will_do = {
			factor = 1
		}		

		cancel_if_invalid = yes
		continue_if_invalid = no
		available_if_capitulated = no
		
		completion_reward = {
			add_ideas = lusitanos
		}
	}



	######################################################
	######################## AIR FORCE ###################
	######################################################

	focus = {
		id = POR_fap
		search_filters = { FOCUS_FILTER_INDUSTRY }
		icon = GFX_goal_generic_air_doctrine


		x = 56
		y = 0
		cost = 10
		ai_will_do = {
			factor = 1
		}	

		cancel_if_invalid = yes
		continue_if_invalid = no
		available_if_capitulated = no	

		completion_reward = {
				air_experience = 30
				custom_effect_tooltip = available_designer
				show_ideas_tooltip = amiot_p
			}
		}

	focus = {
		id = POR_new_pilot
		search_filters = { FOCUS_FILTER_RESEARCH }
		icon = GFX_focus_generic_military_mission
		prerequisite = { focus = POR_fap }
		

		x = 59
		y = 1
		cost = 10
		ai_will_do = {
			factor = 1
		}	

		cancel_if_invalid = yes
		continue_if_invalid = no
		available_if_capitulated = no	

		completion_reward = {
			add_tech_bonus = {
				name = POR_new_pilot
				bonus = 0.5
				uses = 3
				category = air_doctrine
			}
		}
	}

	focus = {
		id = POR_heavy_planes
		icon = GFX_goal_generic_air_bomber
		prerequisite = { focus = POR_new_pilot }
		search_filters = { FOCUS_FILTER_RESEARCH }
		mutually_exclusive = { focus = POR_light_planes }


		x = 60
		y = 2
		cost = 10
		ai_will_do = {
			factor = 1
		}

		cancel_if_invalid = yes
		continue_if_invalid = no
		available_if_capitulated = no		

		completion_reward = {
				custom_effect_tooltip = available_designer
				show_ideas_tooltip = heinkel_p
				add_tech_bonus = {
				name = POR_heavy_planes
				bonus = 0.50
				uses = 3
				category = cat_heavy_fighter
				category = tactical_bomber
				category = cat_strategic_bomber
			}
		}
	}

	focus = {
		id = POR_light_planes
		icon = GFX_goal_generic_air_fighter
		prerequisite = { focus = POR_new_pilot }
		search_filters = { FOCUS_FILTER_RESEARCH }
		mutually_exclusive = { focus = POR_heavy_planes }


		x = 58
		y = 2
		cost = 10
		ai_will_do = {
			factor = 1
		}	

		cancel_if_invalid = yes
		continue_if_invalid = no
		available_if_capitulated = no	

		completion_reward = {
				custom_effect_tooltip = available_designer
				show_ideas_tooltip = omga
				add_tech_bonus = {
				name = POR_light_planes
				bonus = 0.50
				uses = 3
				category = cas_bomber
				category = light_fighter
				category = naval_bomber
			}
		}
	}

	focus = {
		id = POR_paratrooper
		search_filters = { FOCUS_FILTER_RESEARCH }
		icon = GFX_focus_generic_paratrooper
		prerequisite = { focus = POR_fap }


		x = 55
		y = 2
		cost = 10
		ai_will_do = {
			factor = 1
		}		

		cancel_if_invalid = yes
		continue_if_invalid = no
		available_if_capitulated = no

		completion_reward = {
			add_tech_bonus = {
				name = POR_paratrooper
				bonus = 0.50
				uses = 1
				technology = paratroopers
				technology = paratroopers2
				technology = paratroopers3
			}
		}
	}

	focus = {
		id = POR_dominar_costa
		icon = GFX_goal_generic_air_fighter2
		search_filters = { FOCUS_FILTER_INDUSTRY }
		prerequisite = { focus = POR_heavy_planes focus = POR_light_planes }


		x = 59
		y = 3
		cost = 10
		ai_will_do = {
			factor = 1
		}

		cancel_if_invalid = yes
		continue_if_invalid = no
		available_if_capitulated = no		

		completion_reward = {
			custom_effect_tooltip = available_designer
			show_ideas_tooltip = ana_p
			add_ideas = increase_naval
		}
	}

	focus = {
		id = POR_dominate_sky
		icon = GFX_focus_chi_flying_tigers
		search_filters = { FOCUS_FILTER_INDUSTRY }
		prerequisite = { focus = POR_dominar_costa focus = POR_paratrooper }


		x = 56
		y = 5
		cost = 10
		ai_will_do = {
			factor = 1
		}		

		cancel_if_invalid = yes
		continue_if_invalid = no
		available_if_capitulated = no

		completion_reward = {
			add_ideas = dom_skies
		}
	}
	
	## END ##

#search_filters = { FOCUS_FILTER_STABILITY } 
#search_filters = { FOCUS_FILTER_INDUSTRY } 
#search_filters = { FOCUS_FILTER_POLITICAL } 
#search_filters = { FOCUS_FILTER_WAR_SUPPORT } 
#search_filters = { FOCUS_FILTER_STABILITY } 
#search_filters = { FOCUS_FILTER_RESEARCH } 
#search_filters = { FOCUS_FILTER_ANNEXATION }
