focus_tree = {
	id = ww2_iceland
	country = {
		factor = 0
	}
	default = no
	focus = {
		id = ICE_roads_program
		icon = GFX_goal_generic_construct_infrastructure
		cost = 10.00
		ai_will_do = {
			factor = 5
		}
		
		available_if_capitulated = no
		
		available = {
			100 = {	CONTROLLER = { tag = ICE } }
		}
		
		bypass = {
			custom_trigger_tooltip = {
				tooltip = infrastructure_effort_tt
				100 = {
					free_building_slots = {
						building = infrastructure
						size < 1
					}
				}
			}
		}
		
		
		x = 1
		y = 0
		
		completion_reward = {
			100 = {
				add_building_construction = {
					type = infrastructure
					level = 2
					instant_build = yes
				}
			}
		}
	}
	focus = {
		id = ICE_look_den
		icon = GFX_goal_tfv_strengthen_commonwealth_ties
		cost = 10.00
		ai_will_do = {
			factor = 10
			modifier = {
				factor = 0
				is_historical_focus_on = yes
			}
		}
		mutually_exclusive = {
			focus = ICE_look_away
		}
		
		available = {
			is_subject_of = DEN
		}
		
		x = 8
		y = 0
		
		completion_reward = {
			add_political_power = 200
			DEN = {
				custom_effect_tooltip = ICE_look_den_tt
				hidden_effect = {
					add_opinion_modifier = {
						target = ROOT
						modifier = ICE_loyal_subject
					}
					add_opinion_modifier = {
						target = ROOT
						modifier = ICE_loyal_subject2
					}
				}
			}			
		}

	}
	focus = {
		id = ICE_look_away
		icon = GFX_goal_continuous_def_against_influence
		cost = 10.00
		ai_will_do = {
			factor = 20
		}
		mutually_exclusive = {
			focus = ICE_look_den
		}
		x = 12
		y = 0
		
		completion_reward = {
			add_political_power = 100
			add_ideas = ICE_disloyal
		}

	}
	focus = {
		id = ICE_national_def_force
		icon = GFX_goal_generic_military_sphere
		cost = 10.00
		ai_will_do = {
			factor = 3
		}
		x = 29
		y = 0
	
		completion_reward = {
			army_experience = 10
			add_war_support = 0.05
		}
	}
	focus = {
		id = ICE_coastguard
		icon = GFX_goal_generic_navy_cruiser
		cost = 10.00
		ai_will_do = {
			factor = 3
		}
		x = 42
		y = 0
		
		completion_reward = {
			air_experience = 5
			navy_experience = 10
		}

	}
	focus = {
		id = ICE_domestic_ind
		icon = GFX_focus_focus_generic_industry_1
		cost = 10.00
		ai_will_do = {
			factor = 100
		}
		prerequisite = {
			focus = ICE_roads_program
		}
		
		available_if_capitulated = no
		
		available = {
			100 = {
				CONTROLLER = { tag = ICE } 
			}
		}
		
		bypass = {
			100 = {
				free_building_slots = {
					building = industrial_complex
					size < 1
					include_locked = yes
				}
			}
		}
		
		x = 4
		y = 1
		
		completion_reward = {
			100 = {
				add_extra_state_shared_building_slots = 2
				add_building_construction = {
					type = industrial_complex
					level = 1
					instant_build = yes
				}
			}
		}

	}
	focus = {
		id = ICE_new_industry
		icon = GFX_goal_generic_construction
		cost = 10.00
		ai_will_do = {
			factor = 1
		}
		prerequisite = {
			focus = ICE_roads_program
		}
		prerequisite = {
			focus = ICE_domestic_ind
		}
		x = 1
		y = 2
		
		completion_reward = {
			add_tech_bonus = {
				name = ICE_new_industry_tech
				bonus = 0.5
				uses = 2
				category = industry
			}
		}

	}
	focus = {
		id = ICE_refine_research
		icon = GFX_goal_generic_oil_refinery
		cost = 10.00
		ai_will_do = {
			factor = 1
		}
		prerequisite = {
			focus = ICE_new_industry
		}
		x = 1
		y = 3
		
		completion_reward = {
			add_tech_bonus = {
				name = ICE_refineries
				bonus = 0.75
				uses = 1
				category = synth_resources
			}
		}

	}
	focus = {
		id = ICE_infr_2
		icon = GFX_goal_generic_construct_infrastructure
		cost = 10.00
		ai_will_do = {
			factor = 1
		}
		prerequisite = {
			focus = ICE_new_industry
		}
		prerequisite = {
			focus = ICE_domestic_ind
		}
		
		available_if_capitulated = no
		
		available = {
			100 = {
				CONTROLLER = {
					tag = ICE
				}
			}
		}
			
		
		bypass = {
			custom_trigger_tooltip = {
				tooltip = infrastructure_effort_tt
				100 = {
					free_building_slots = {
						building = infrastructure
						size < 1
					}
				}
			}
		}
		
		x = 3
		y = 3
		
		completion_reward = {
			100 = {
				add_building_construction = {
					type = infrastructure
					level = 3
					instant_build = yes
				}
			}
		}

	}
	focus = {
		id = ICE_recycling_programs
		icon = GFX_goal_continuous_repairments
		cost = 10.00
		ai_will_do = {
			factor = 10
		}
		prerequisite = {
			focus = ICE_domestic_ind
		}
		x = 5
		y = 3
		
		completion_reward = {
			add_ideas = ICE_recycle
		}

	}
	focus = {
		id = ICE_new_indu
		icon = GFX_goal_generic_construct_civ_factory
		cost = 10.00
		ai_will_do = {
			factor = 1
		}
		prerequisite = {
			focus = ICE_recycling_programs
		}
		prerequisite = {
			focus = ICE_infr_2
		}
		mutually_exclusive = {
			focus = ICE_mil_facs
		}
		
		available_if_capitulated = no
		
		available = {
			100 = {
				CONTROLLER = {
					tag = ICE
				}
			}
		}
			
		
		bypass = {
			custom_trigger_tooltip = {
				tooltip = infrastructure_effort_tt
				100 = {
					free_building_slots = {
						building = infrastructure
						size < 1
					}
				}
			}
		}
			
		
		x = 4
		y = 4
		
		completion_reward = {
			100 = {
				add_extra_state_shared_building_slots = 3
				add_building_construction = {
					type = industrial_complex
					level = 2
					instant_build = yes
				}
			}
		}
	}
	focus = {
		id = ICE_steel_mill
		icon = GFX_focus_generic_steel
		cost = 10.00
		ai_will_do = {
			factor = 10
		}
		prerequisite = {
			focus = ICE_infr_2
		}
		prerequisite = {
			focus = ICE_new_indu
		}
		
		available_if_capitulated = no
		
		available = {
			100 = {
				CONTROLLER = {
					tag = ICE
				}
			}
		}
		
		x = 3
		y = 5
		
		completion_reward = {
			100 = {
				add_resource = {
					type = steel
					amount = 18
				}
			}
		}

	}
	focus = {
		id = ICE_den_inf
		icon = GFX_goal_continuous_non_factory_construct
		cost = 10.00
		ai_will_do = {
			factor = 1
		}
		prerequisite = {
			focus = ICE_look_den
		}
		prerequisite = {
			focus = ICE_roads_program
		}
		
		available_if_capitulated = no
		
		available = {
			100 = {
				CONTROLLER = {
					tag = ICE
				}
			}
			is_subject_of = DEN
		}
		
		cancel_if_invalid = yes
		
		x = 7
		y = 1
		
		completion_reward = {
			add_autonomy_ratio = {
				value = -0.25
				localization = ICE_den_inf
			}
			100 = {
				add_extra_state_shared_building_slots = 2
				add_building_construction = {
					type = industrial_complex
					level = 1
					instant_build = yes
				}
				add_building_construction = {
					type = infrastructure
					level = 1
					instant_build = yes
				}
			}
			add_ideas = ICE_den_investment
		}

	}
	focus = {
		id = ICE_den_mil_invest
		icon = GFX_goal_generic_construct_mil_factory
		cost = 10.00
		ai_will_do = {
			factor = 1
		}
		prerequisite = {
			focus = ICE_domestic_ind
		}
		prerequisite = {
			focus = ICE_den_inf
		}
		
		available_if_capitulated = no
		
		available = {
			100 = {
				CONTROLLER = {
					tag = ICE
				}
			}
			is_subject_of = DEN
		}
		
		cancel_if_invalid = yes
		
		x = 7
		y = 2
		
		completion_reward = {
			add_autonomy_ratio = {
				value = -0.25
				localization = ICE_den_mil_invest
			}
			100 = {
				add_extra_state_shared_building_slots = 2
				add_building_construction = {
					type = arms_factory
					level = 2
					instant_build = yes
				}
			}
			swap_ideas = {
				remove_idea = ICE_den_investment
				add_idea = ICE_den_investment2
			}
		}

	}
	focus = {
		id = ICE_den_invest_final
		icon = GFX_sca_focus_danish_industry
		cost = 10.00
		ai_will_do = {
			factor = 1
		}
		prerequisite = {
			focus = ICE_den_mil_invest
		}
		
		available_if_capitulated = no
		
		available = {
			100 = {
				CONTROLLER = {
					tag = ICE
				}
			}
			is_subject_of = DEN
		}
		
		cancel_if_invalid = yes
		
		x = 7
		y = 3
		
		completion_reward = {
			add_autonomy_ratio = {
				value = -0.35
				localization = ICE_den_invest_final
			}
			100 = {
				add_extra_state_shared_building_slots = 3
				add_building_construction = {
					type = arms_factory
					level = 1
					instant_build = yes
				}
				add_building_construction = {
					type = industrial_complex
					level = 1
					instant_build = yes
				}
				add_building_construction = {
					type = infrastructure
					level = 1
					instant_build = yes
				}
			}
			swap_ideas = {
				remove_idea = ICE_den_investment2
				add_idea = ICE_den_investment3
			}
		}

	}
	focus = {
		id = ICE_den_research_collab
		icon = GFX_goal_tfv_generic_tech_sharing
		cost = 10.00
		ai_will_do = {
			factor = 2
		}
		prerequisite = {
			focus = ICE_look_den
		}
		
		available = {
			is_subject_of = DEN
		}
		
		cancel_if_invalid = yes
		
		x = 9
		y = 1
		
		completion_reward = {
			add_to_tech_sharing_group = DEN_ICE_research_group
			DEN = { add_to_tech_sharing_group = DEN_ICE_research_group }
		}

	}
	focus = {
		id = ICE_den_uni_expansion
		icon = GFX_goal_generic_scientific_exchange
		cost = 10.00
		ai_will_do = {
			factor = 2
		}
		prerequisite = {
			focus = ICE_den_research_collab
		}
		
		available = {
			is_subject_of = DEN
		}
		
		cancel_if_invalid = yes
		
		x = 9
		y = 2
		
		completion_reward = {
			if = {
				limit = { 
					AND = {
						has_completed_focus = ICE_discoveries
						has_completed_focus = ICE_new_thoughts
						OR = { 
							has_completed_focus = ICE_ally_tech
							has_completed_focus = ICE_ger_tech
							has_completed_focus = ICE_sov_tech
						}						
					}
				}
				remove_from_tech_sharing_group = DEN_ICE_research_group
				DEN = { remove_from_tech_sharing_group = DEN_ICE_research_group }
				add_to_tech_sharing_group = DEN_ICE_research_group2
				DEN = { add_to_tech_sharing_group = DEN_ICE_research_group2 }
			}
			if = {
				limit = { NOT = {
					AND = {
						has_completed_focus = ICE_discoveries
						has_completed_focus = ICE_new_thoughts
						OR = { 
							has_completed_focus = ICE_ally_tech
							has_completed_focus = ICE_ger_tech
							has_completed_focus = ICE_sov_tech
						}						
					}
				} }
				add_research_slot = 1
				custom_effect_tooltip = ICE_no_six
			}
		}

	}
	focus = {
		id = ICE_look_out
		icon = GFX_goal_generic_position_armies
		cost = 10.00
		ai_will_do = {
			factor = 1
		}
		prerequisite = {
			focus = ICE_look_den
			focus = ICE_look_away
		}
		x = 12
		y = 1
		
		completion_reward = {
			add_political_power = 120
		}

	}
	focus = {
		id = ICE_end_neutrality
		icon = GFX_focus_generic_strike_at_democracy1
		cost = 10.00
		ai_will_do = {
			factor = 1
			modifier = {
				factor = 0
				is_historical_focus_on = yes
			}
		}
		
		available = {
			OR = {
				is_subject = no
				AND = {
					is_subject = yes
					NOT = { DEN = { has_idea = DEN_defenceless_neutrality_idea } }
					NOT = { DEN = { has_idea = DEN_defenceless_neutrality_idea2 } }
				}
			}
		}
		
		prerequisite = {
			focus = ICE_look_out
		}
		mutually_exclusive = {
			focus = ICE_renew_drsrn
		}
		x = 10
		y = 3
		
		completion_reward = {
			custom_effect_tooltip = ICE_end_neutral_tt
			hidden_effect = {
				remove_ideas = ICE_icelandic_neutrality 
				remove_ideas = ICE_icelandic_neutrality2
			}
			add_war_support = 0.25
			set_rule = { can_create_factions = yes }
		}

	}
	focus = {
		id = ICE_mil_facs
		icon = GFX_goal_generic_construct_mil_factory
		cost = 10.00
		ai_will_do = {
			factor = 1
			modifier = {
				factor = 10
				has_war = yes
			}
		}
		prerequisite = {
			focus = ICE_recycling_programs
		}
		prerequisite = {
			focus = ICE_end_neutrality
		}
		mutually_exclusive = {
			focus = ICE_new_indu
		}
		x = 6
		y = 4
		
		completion_reward = {
			100 = {
				add_extra_state_shared_building_slots = 2
				add_building_construction = {
					type = arms_factory
					level = 2
					instant_build = yes
				}
			}
		}

	}
	focus = {
		id = ICE_discoveries
		icon = GFX_focus_research
		cost = 10.00
		ai_will_do = {
			factor = 10
		}
		prerequisite = {
			focus = ICE_new_indu
			focus = ICE_mil_facs
		}
		prerequisite = {
			focus = ICE_refine_research
		}
		x = 1
		y = 5
		
		completion_reward = {
			if = {
				limit = { 
					AND = {
						has_completed_focus = ICE_den_uni_expansion
						has_completed_focus = ICE_new_thoughts
						OR = { 
							has_completed_focus = ICE_ally_tech
							has_completed_focus = ICE_ger_tech
							has_completed_focus = ICE_sov_tech
						}						
					}
				}
				add_tech_bonus = {
					name = ICE_extra_research_slot
					bonus = 0.5
					uses = 4
					category = industry
					category = electronics
				}
			}
			if = {
				limit = { NOT = {
					AND = {
						has_completed_focus = ICE_den_uni_expansion
						has_completed_focus = ICE_new_thoughts
						OR = { 
							has_completed_focus = ICE_ally_tech
							has_completed_focus = ICE_ger_tech
							has_completed_focus = ICE_sov_tech
						}						
					}
				} }
				add_research_slot = 1
				custom_effect_tooltip = ICE_no_six
			}
		}

	}
	focus = {
		id = ICE_close_eng
		icon = GFX_focus_chi_british_cooperation
		cost = 10.00
		ai_will_do = {
			factor = 1
		}
		prerequisite = {
			focus = ICE_end_neutrality
		}
		
		available = {
			NOT = { has_war_with = ENG }
			if = {
				limit = { ENG = { has_government = democratic } }
				NOT = { 
					OR = { 
						has_government = fascism
						has_government = communism
					}
				}
			}
			if = {
				limit = { ENG = { has_government = communism } }
				NOT = { 
					OR = { 
						has_government = fascism
						has_government = democratic
					}
				}
			}
			if = {
				limit = { ENG = { has_government = fascism } }
				NOT = { 
					OR = { 
						has_government = democratic
						has_government = communism
					}
				}
			}
		}
		
		cancel_if_invalid = yes
		
		x = 8
		y = 4
		
		completion_reward = {
			add_political_power = 100
			custom_effect_tooltip = ICE_close_eng_tt
			hidden_effect = {
				ENG = { add_opinion_modifier = { target = ROOT modifier = ICE_like_brits } }
				ENG = { add_opinion_modifier = { target = ROOT modifier = ICE_like_brits2 } }
			}
		}

	}
	focus = {
		id = ICE_close_usa
		icon = GFX_focus_chi_mission_to_the_us
		cost = 10.00
		ai_will_do = {
			factor = 1
		}
		prerequisite = {
			focus = ICE_end_neutrality
		}
		
		available = {
			NOT = { has_war_with = USA }
			if = {
				limit = { USA = { has_government = democratic } }
				NOT = { 
					OR = { 
						has_government = fascism
						has_government = communism
					}
				}
			}
			if = {
				limit = { USA = { has_government = communism } }
				NOT = { 
					OR = { 
						has_government = fascism
						has_government = democratic
					}
				}
			}
			if = {
				limit = { USA = { has_government = fascism } }
				NOT = { 
					OR = { 
						has_government = democratic
						has_government = communism
					}
				}
			}
		}
		
		cancel_if_invalid = yes
		
		x = 10
		y = 4
		
		completion_reward = {
			add_political_power = 100
			custom_effect_tooltip = ICE_close_usa_tt
			hidden_effect = {
				USA = { add_opinion_modifier = { target = ROOT modifier = ICE_like_us } }
				USA = { add_opinion_modifier = { target = ROOT modifier = ICE_like_us2 } }
			}
		}

	}
	focus = {
		id = ICE_renew_drsrn
		icon = GFX_focus_generic_treaty
		cost = 10.00
		ai_will_do = {
			factor = 2
		}
		prerequisite = {
			focus = ICE_look_out
		}
		mutually_exclusive = {
			focus = ICE_end_neutrality
		}
		
		available = {
			has_war = no
			NOT = { has_government = fascism }
			NOT = { has_government = communism }
		}
		
		cancel_if_invalid = yes
		
		bypass = {
			has_country_flag = drsrn_renewed
		}
		
		x = 12
		y = 3
		
		completion_reward = {
			set_country_flag = drsrn_renewed
			add_ideas = drsrn_signatory
			if = {
				limit = {
					OR = {
						SWE = { has_country_flag = drsrn_renewed }
						DEN = { has_country_flag = drsrn_renewed }
						NOR = { has_country_flag = drsrn_renewed }
						FIN = { has_country_flag = drsrn_renewed }
					}
				}
				add_ideas = drsrn_signatory
			}
			else = {							
				SWE = {
					country_event = NOS_denmark.1
				}
				DEN = {
					country_event = NOS_denmark.1
				}
				NOR = {
					country_event = NOS_denmark.1
				}
				FIN = {
					country_event = NOS_denmark.1
				}
			}
		}

	}
	focus = {
		id = ICE_strong_neutral
		icon = GFX_goal_generic_neutrality_focus
		cost = 10.00
		ai_will_do = {
			factor = 1
		}
		prerequisite = {
			focus = ICE_renew_drsrn
		}
		
		available = {
			has_war = no
		}
		
		x = 12
		y = 4
		
		completion_reward = {
			custom_effect_tooltip = SCA_can_decline_tt 
			hidden_effect = {
				set_rule = {
					can_decline_call_to_war = yes
				}
			}
			add_stability = 0.1
			swap_ideas = {
				remove_idea = ICE_icelandic_neutrality
				add_idea = ICE_icelandic_neutrality2
			}
		}

	}
	focus = {
		id = ICE_sup_dem
		icon = GFX_sca_focus_liberty
		cost = 10.00
		ai_will_do = {
			factor = 1
			modifier = {
				factor = 0
				OR = {
					has_government = communism
					has_government = fascism
				}
			}
			modifier = {
				factor = 0.1
				DEN = {
					OR = {
						has_government = communism
						has_government = fascism
					}
				}
			}
		}
		prerequisite = {
			focus = ICE_look_away
		}
		prerequisite = {
			focus = ICE_look_out
		}
		mutually_exclusive = {
			focus = ICE_sup_com
			focus = ICE_fas_rallies
		}
		x = 15
		y = 2
		
		completion_reward = {
			swap_ideas = {
				remove_idea = ICE_disloyal
				add_idea = ICE_disloyal_democratic
			}
		}
	}
	focus = {
		id = ICE_distance_den
		icon = GFX_goal_tfv_sever_ties_with_uk
		cost = 10.00
		ai_will_do = {
			factor = 1 
		}
		prerequisite = {
			focus = ICE_sup_dem
		}
		x = 15
		y = 3
		
		completion_reward = {
			swap_ideas = {
				remove_idea = ICE_disloyal_democratic
				add_idea = ICE_disloyal_democratic2
			}
		}

	}
	focus = {
		id = ICE_guarantees
		icon = GFX_goal_support_democracy
		cost = 10.00
		ai_will_do = {
			factor = 1
		}
		prerequisite = {
			focus = ICE_distance_den
		}
		
		available = {
			100 = {
				CONTROLLER = { tag = ICE }
			}
		}
		
		x = 15
		y = 4
		
		completion_reward = {
			country_event = NOS_iceland.3
		}

	}
	focus = {
		id = ICE_usa_airport
		icon = GFX_goal_generic_air_production
		cost = 10.00
		ai_will_do = {
			factor = 1
		}
		prerequisite = {			
			focus = ICE_close_usa
			focus = ICE_strong_neutral
			focus = ICE_guarantees			
		}
		
		available = {
			NOT = { has_war_with = USA }
			OR = {
				custom_trigger_tooltip = {
					tooltip = ICE_no_neutral_tt
					NOT = { has_idea = ICE_icelandic_neutrality }
					NOT = { has_idea = ICE_icelandic_neutrality2 }
				}
				gives_military_access_to = USA
			}
		}
		
		cancel_if_invalid = yes
		
		x = 10
		y = 5
		
		completion_reward = {
			100 = {
				add_building_construction = {
					type = air_base
					level = 3
					instant_build = yes
				}
				add_building_construction = {
					type = anti_air_building
					level = 1
					instant_build = yes
				}
			}
		}

	}
	focus = {
		id = ICE_join_allies
		icon = GFX_goal_anschluss
		cost = 10.00
		ai_will_do = {
			factor = 1
		}
		prerequisite = {
			focus = ICE_guarantees
		}
		
		available = {
			is_subject = no
			is_in_faction = no
			ENG = { is_faction_leader = yes }
			ENG = { has_government = democratic }
			has_government = democratic
			NOT = { has_war_with = ENG }
			custom_trigger_tooltip = {
				tooltip = ICE_no_neutral_tt
				NOT = { has_idea = ICE_icelandic_neutrality }
				NOT = { has_idea = ICE_icelandic_neutrality2 }
			}
		}
		
		bypass = {
			is_in_faction_with = ENG
			ENG = { is_faction_leader = yes }
		}
		
		x = 14
		y = 5
		
		completion_reward = {
			ENG = { country_event = generic.2 } 
		}

	}
	focus = {
		id = ICE_sup_com
		icon = GFX_focus_YUG_pan_slavic_congress
		cost = 10.00
		ai_will_do = {
			factor = 1
			modifier = {
				factor = 0
				OR = {
					has_government = democratic
					has_government = fascism
					is_historical_focus_on = yes
				}
			}
			modifier = {
				factor = 0.1
				DEN = {
					OR = {
						has_government = democratic
						has_government = fascism
					}
				}
			}
		}
		prerequisite = {
			focus = ICE_look_out
		}
		mutually_exclusive = {
			focus = ICE_fas_rallies
			focus = ICE_sup_dem
		}
		
		available = {
			OR = {
				ICE = { has_completed_focus = ICE_look_away }
				DEN = { has_completed_focus = DEN_go_com }
			}
		}
		
		x = 18
		y = 2
		
		completion_reward = {
			if = {
				limit = { ICE = { has_completed_focus = ICE_look_away } }
				swap_ideas = {
					remove_idea = ICE_disloyal
					add_idea = ICE_disloyal_communism
				}
			}
			if = {
				limit = { NOT = { ICE = { has_completed_focus = ICE_look_away } } }
				add_ideas = internationalism
			}
		}

	}
	focus = {
		id = ICE_com_rallies
		icon = GFX_focus_generic_support_the_left_right
		cost = 10.00
		ai_will_do = {
			factor = 1
		}
		prerequisite = {
			focus = ICE_sup_com
		}
		x = 18
		y = 3
		
		completion_reward = {
			if = {
				limit = { ICE = { has_completed_focus = ICE_look_away } }
				swap_ideas = {
					remove_idea = ICE_disloyal_communism
					add_idea = ICE_disloyal_communism2
				}
			}
			if = {
				limit = { NOT = { ICE = { has_completed_focus = ICE_look_away } } }
				add_political_power = 100
				add_popularity = { ideology = communism popularity = 0.2 }
			}
		}

	}
	focus = {
		id = ICE_com_takeover
		icon = GFX_focus_generic_soviet_politics
		cost = 10.00
		ai_will_do = {
			factor = 5
		}
		prerequisite = {
			focus = ICE_com_rallies
		}
		
		available = {
			communism > 0.4
		}
		
		x = 18
		y = 4
		
		completion_reward = {
			if = {
				limit = { NOT = { has_government = communism } }
				add_stability = -0.1
			}
			add_war_support = 0.1
			add_political_power = 100
			set_politics = {
				ruling_party = communism
				elections_allowed = no
			}
		}
	}
	focus = {
		id = ICE_break_den
		icon = GFX_focus_rom_abdicate
		cost = 10.00
		ai_will_do = {
			factor = 1
			modifier = {
				factor = 0
				AND = {
					is_historical_focus_on = yes
					date < 1943.6.15
				}
			}
		}
		prerequisite = {
			focus = ICE_guarantees
			focus = ICE_com_takeover
		}
		
		available = {
			has_completed_focus = ICE_look_away
			OR = {
				is_subject = no
				has_autonomy_state = autonomy_imperial_dominion
				has_autonomy_state = autonomy_collaborator_state			
			}
			if = {
				limit = { is_subject = yes }
				compare_autonomy_progress_ratio > 0.75
			}
		}
		
		cancel_if_invalid = yes
		
		x = 16
		y = 5
		
		completion_reward = {
			if = {
				limit = { is_subject_of = DEN }
				set_autonomy = {
					target = ICE
					autonomy_state = autonomy_free
				}
			}
			if = {
				limit = { has_government = democratic }
				create_country_leader = {
					name = "Sveinn Björnsson"
					desc = "POLITICS_SVEINN_BJÖRNSSON_DESC"
					picture = "gfx/leaders/ICE/portrait_ice_sveinn_bjornsson.dds"
					expire = "1965.1.1"
					ideology = socialism
					traits = { }
				}
			}
			if = {
				limit = { NOT = { is_subject_of = DEN } }
				add_political_power = 200
			}
			if = {
				limit = { is_in_faction = yes }
				every_country = {
					limit = { 
						is_in_faction_with = ICE
						is_faction_leader = yes 
					}
					remove_from_faction = ICE
				}
			}
			set_rule = { can_create_factions = yes }
		}				

	}
	focus = {
		id = ICE_join_com
		icon = GFX_goal_support_communism
		cost = 10.00
		ai_will_do = {
			factor = 1
		}
		prerequisite = {
			focus = ICE_com_takeover
		}
		
		available = {
			is_subject = no
			is_in_faction = no
			SOV = { is_faction_leader = yes }
			SOV = { has_government = communism }
			has_government = communism
			NOT = { has_war_with = SOV }
			custom_trigger_tooltip = {
				tooltip = ICE_no_neutral_tt
				NOT = { has_idea = ICE_icelandic_neutrality }
				NOT = { has_idea = ICE_icelandic_neutrality2 }
			}
		}
		
		bypass = {
			is_in_faction_with = SOV
		}
		x = 18
		y = 5
		
		completion_reward = {
			SOV = { country_event = generic.2 }
		}

	}
	focus = {
		id = ICE_sov_group
		icon = GFX_sca_focus_communist_loyalty
		cost = 10.00
		ai_will_do = {
			factor = 10 #We need men
		}
		prerequisite = {
			focus = ICE_join_com
		}
		
		available = {
			is_in_faction_with = SOV
		}
		
		x = 18
		y = 6
		
		completion_reward = {
			add_war_support = 0.1
			SOV = { country_event = NOS_iceland.4 }
		}

	}
	focus = {
		id = ICE_fas_rallies
		icon = GFX_goal_generic_demand_territory
		cost = 10.00
		ai_will_do = {
			factor = 1
			modifier = {
				factor = 0
				OR = {
					has_government = democratic
					has_government = communism
					is_historical_focus_on = yes
				}
			}
			modifier = {
				factor = 0.1
				DEN = {
					OR = {
						has_government = democratic
						has_government = communism
					}
				}
			}
		}
		prerequisite = {
			focus = ICE_look_out
		}
		mutually_exclusive = {
			focus = ICE_sup_com
			focus = ICE_sup_dem
		}
		
		available = {
			OR = {
				ICE = { has_completed_focus = ICE_look_away }
				DEN = { has_completed_focus = DEN_go_fas }
			}
		}
		
		x = 22
		y = 2
		
		completion_reward = {
			if = {
				limit = { ICE = { has_completed_focus = ICE_look_away } }
				swap_ideas = {
					remove_idea = ICE_disloyal
					add_idea = ICE_disloyal_fascism
				}
			}
			if = {
				limit = { NOT = { ICE = { has_completed_focus = ICE_look_away } } }
				add_ideas = nationalism
			}
		}

	}
	focus = {
		id = ICE_abolish_althing
		icon = GFX_focus_generic_self_management
		cost = 10.00
		prerequisite = {
			focus = ICE_fas_rallies
		}
		
		available = {
			fascism > 0.3
		}
		
		bypass = {
			has_government = fascism
		}
		
		x = 21
		y = 3
		
		completion_reward = {
			add_stability = -0.1
			add_war_support = 0.1
			custom_effect_tooltip = ICE_abolish_althing_tt
			hidden_effect = {
				country_event = NOS_iceland.8
			}
		}

	}
	focus = {
		id = ICE_fas_leader
		icon = GFX_goal_support_fascism
		cost = 5.00
		ai_will_do = {
			factor = 1
		}
		prerequisite = {
			focus = ICE_abolish_althing
		}
		
		available = {
			has_government = fascism 
			NOT = { has_idea = ICE_internal_conflicts }
		}
		
		cancel_if_invalid = yes
		
		x = 21
		y = 4
		
		completion_reward = {
			add_country_leader_trait = dictator
		}

	}
	focus = {
		id = ICE_ikarus
		icon = GFX_focus_YUG_ikarus
		cost = 10.00
		ai_will_do = {
			factor = 1
		}
		prerequisite = {
			focus = ICE_fas_leader
		}
		
		available = {
			has_government = fascism
			is_in_faction = no
			GER = { is_faction_leader = yes }
			NOT = { has_war_with = GER }
			100 = { CONTROLLER = { tag = ICE } }
			AND = {
				is_subject_of = DEN
				has_completed_focus = ICE_look_away
			}
		}
		
		bypass = {
			is_in_faction_with = GER
		}
		
		x = 20
		y = 5
		
		completion_reward = {
			if = {
				limit = { 
					NOT = { is_subject_of = GER }
					is_subject = yes 
				}
				set_autonomy = {
					target = ICE
					autonomy_state = autonomy_free 
				}
			}
			GER = {	add_to_faction = ICE }
			custom_effect_tooltip = ICE_ikarus_tt
			hidden_effect = {
				division_template = {
					name = "Fallschirmjäger-Division"
					regiments = {
						paratrooper = { x = 0 y = 0 }
						paratrooper = { x = 0 y = 1 }
						paratrooper = { x = 0 y = 2 }
						paratrooper = { x = 1 y = 0 }
						paratrooper = { x = 1 y = 1 }
						paratrooper = { x = 1 y = 2 }
					}
				}
				100 = {
					create_unit = {
						division = "name = \"Fallschirmjäger Iceland-Division\" division_template = \"Fallschirmjäger-Division\" start_experience_factor = 0.3" 
						owner = ICE
					}
				}
			}
		}
	}
	focus = {
		id = ICE_ger_coop
		icon = GFX_focus_generic_military_mission
		cost = 10.00
		ai_will_do = {
			factor = 1
		}
		prerequisite = {
			focus = ICE_ikarus
		}
		
		x = 20
		y = 6
		
		available = {
			OR = {
				is_in_faction_with = GER
				has_army_manpower = { size > 10000 }
			}
		}
		
		
		
		completion_reward = {
			add_ideas = ICE_ger_mil
		}

	}
	focus = {
		id = ICE_vikings
		icon = GFX_focus_generic_strike_at_democracy2
		cost = 10.00
		ai_will_do = {
			factor = 1
			modifier = {
				factor =  0.1
				has_war = yes
			}
		}
		prerequisite = {
			focus = ICE_fas_leader
		}
		
		available = {
			is_subject = no
			has_government = fascism
		}
		
		x = 22
		y = 5
		
		completion_reward = {
			add_war_support = 0.2
			custom_effect_tooltip = ICE_vikings_tt
			hidden_effect = {
				add_state_core = 101
				add_state_core = 337
				add_state_core = 37
				add_state_claim = 99
				add_state_claim = 37
				add_state_claim = 145
				add_state_claim = 110
				add_state_core = 142
				add_state_claim = 143
				add_state_claim = 144
				add_state_claim = 38
				add_state_core = 124
				add_state_core = 138
				add_state_claim = 139
				add_state_claim = 140
				add_state_claim = 141
			}
			if = {
				limit = {
					NOT = { NOR = { is_in_faction_with = ICE } }
					country_exists = NOR					
				}
				create_wargoal = {
					target = NOR
					type = annex_everything						
				}
			}
			if = {
				limit = {
					NOT = { DEN = { is_in_faction_with = ICE } }
					country_exists = DEN					
				}
				create_wargoal = {
					target = DEN
					type = annex_everything						
				}
			}
			if = {
				limit = {
					NOT = { SWE = { is_in_faction_with = ICE } }
					country_exists = SWE					
				}
				create_wargoal = {
					target = SWE
					type = annex_everything						
				}
			}
			if = {
				limit = {
					NOT = { FIN = { is_in_faction_with = ICE } }
					country_exists = FIN					
				}
				create_wargoal = {
					target = NOR
					type = take_state_focus
					generator = { 145 }
				}
			}
		}

	}
	focus = {
		id = ICE_fas_youth
		icon = GFX_goal_generic_axis_build_infantry
		cost = 10.00
		ai_will_do = {
			factor = 2
		}
		prerequisite = {
			focus = ICE_fas_rallies
		}
		x = 23
		y = 3
		
		completion_reward = {
			add_war_support = 0.05
			add_ideas = ICE_fascist_youth
		}

	}
	focus = {
		id = ICE_train_reserves
		icon = GFX_goal_rhineland
		cost = 10.00
		ai_will_do = {
			factor = 1
		}
		prerequisite = {
			focus = ICE_national_def_force
		}
		
		available = {
			100 = { CONTROLLER = { tag = ICE } }
		}
		
		x = 29
		y = 1
		
		completion_reward = {
			army_experience = 5
			100 = {
				create_unit = {
					division = "name = \"Icelandic Defense Force\" division_template = \"Ríkislögreglan Regiment\" start_experience_factor = 0.2" 
					owner = ICE
				}
			}
		}
	}
	focus = {
		id = ICE_look_into_armour
		icon = GFX_goal_generic_army_tanks
		cost = 10.00
		ai_will_do = {
			factor = 1
		}
		prerequisite = {
			focus = ICE_train_reserves
		}
		mutually_exclusive = {
			focus = ICE_look_into_special
		}
		
		available = {
			custom_trigger_tooltip = {
				tooltip = ICE_no_neutral_tt
				NOT = { has_idea = ICE_icelandic_neutrality }
				NOT = { has_idea = ICE_icelandic_neutrality2 }
			}
		}
		
		x = 25
		y = 2
		
		completion_reward = {
			add_tech_bonus = {
				name = ICE_full_metal
				bonus = 0.5
				uses = 2
				category = armor
			}
		}
	}
	focus = {
		id = ICE_mobile_warfare
		icon = GFX_goal_generic_army_motorized
		cost = 10.00
		ai_will_do = {
			factor = 1
		}
		prerequisite = {
			focus = ICE_look_into_armour
		}
		x = 25
		y = 3
		
		completion_reward = {
			add_tech_bonus = {
				name = ICE_mobile_war_tech
				bonus = 0.5
				uses = 2
				category = cat_mobile_warfare
			}
		}

	}
	focus = {
		id = ICE_mobile_armour
		icon = GFX_goal_generic_production2
		cost = 10.00
		ai_will_do = {
			factor = 1
			modifier = {
				factor = 0.1
				has_completed_focus = ICE_pure_armour
			}
		}
		prerequisite = {
			focus = ICE_mobile_warfare
		}
		x = 24
		y = 4
		
		completion_reward = {
			add_tech_bonus = {
				name = ICE_fast_armor
				bonus = 0.5
				ahead_reduction = 1
				uses = 2
				category = cat_light_armor
				category = cat_medium_armor
			}
		}

	}
	focus = {
		id = ICE_heavy_armour
		icon = GFX_focus_generic_army_tanks2
		cost = 10.00
		ai_will_do = {
			factor = 1
			modifier = {
				factor = 0.1
				has_completed_focus = ICE_mobile_armour
			}
		}
		prerequisite = {
			focus = ICE_mobile_warfare
		}
		x = 26
		y = 4
		
		completion_reward = {
			add_tech_bonus = {
				name = ICE_heaviest_tanks
				bonus = 0.5
				ahead_reduction = 1
				uses = 2
				category = cat_heavy_armor
			}
		}

	}
	focus = {
		id = ICE_pure_armour
		icon = GFX_goal_generic_army_doctrines
		cost = 10.00
		ai_will_do = {
			factor = 1
		}
		prerequisite = {
			focus = ICE_mobile_armour
			focus = ICE_heavy_armour
		}
		x = 25
		y = 5
		
		completion_reward = {
			add_ideas = ICE_armour_focused
		}

	}
	focus = {
		id = ICE_look_into_special
		icon = GFX_goal_generic_secret_weapon
		cost = 10.00
		ai_will_do = {
			factor = 2
		}
		prerequisite = {
			focus = ICE_train_reserves
		}
		mutually_exclusive = {
			focus = ICE_look_into_armour
		}
		
		available = {
			custom_trigger_tooltip = {
				tooltip = ICE_no_neutral_tt
				NOT = { has_idea = ICE_icelandic_neutrality }
				NOT = { has_idea = ICE_icelandic_neutrality2 }
			}
		}
		
		x = 29
		y = 2
		
		completion_reward = {
			add_tech_bonus = {
				name = ICE_special_forces
				bonus = 0.5
				uses = 3
				category = mountaineers_tech
				category = marine_tech
				category = para_tech
			}
			add_ideas = ICE_elite_forces_1
		}

	}
	focus = {
		id = ICE_mountain_focus
		icon = GFX_goal_generic_special_forces
		cost = 10.00
		ai_will_do = {
			factor = 1
		}
		prerequisite = {
			focus = ICE_look_into_special
		}
		x = 27
		y = 3
		
		completion_reward = {
			#add_ideas = ICE_mountain_strong
			add_tech_bonus = {
				name = ICE_mountain_forces
				bonus = 0.5
				ahead_reduction = 1
				uses = 2
				category = mountaineers_tech
			}
			set_technology = { ICE_elite_mountaineers = 1 }
		}
	}
	focus = {
		id = ICE_on_sea
		icon = GFX_goal_generic_amphibious_assault
		cost = 10.00
		ai_will_do = {
			factor = 1
		}
		prerequisite = {
			focus = ICE_look_into_special
		}
		x = 29
		y = 3
		
		completion_reward = {
			#add_ideas = ICE_marine_strong
			add_tech_bonus = {
				name = ICE_marine_forces
				bonus = 0.5
				ahead_reduction = 1
				uses = 1
				category = marine_tech
			}
			add_tech_bonus = {
				name = ICE_marine_forces2
				bonus = 0.5
				ahead_reduction = 1
				uses = 1
				category = tp_tech
			}
			set_technology = { ICE_elite_marines = 1 }
		}
	}
	focus = {
		id = ICE_by_air
		icon = GFX_focus_generic_paratrooper
		cost = 10.00
		ai_will_do = {
			factor = 1
		}
		prerequisite = {
			focus = ICE_look_into_special
		}
		x = 31
		y = 3
		
		completion_reward = {
			#add_ideas = ICE_para_strong
			add_tech_bonus = {
				name = ICE_paratrooper_forces
				bonus = 0.5
				ahead_reduction = 1
				uses = 1
				category = para_tech
			}
			add_tech_bonus = {
				name = ICE_air_landings
				bonus = 0.5
				uses = 1
				category = air_doctrine
			}
			set_technology = { ICE_elite_paratroopers = 1 }
		}
	}
	focus = {
		id = ICE_special_done
		icon = GFX_goal_generic_CAS
		cost = 10.00
		ai_will_do = {
			factor = 25 #Good Bonus
		}
		prerequisite = {
			focus = ICE_mountain_focus
		}
		prerequisite = {
			focus = ICE_on_sea
		}
		prerequisite = {
			focus = ICE_by_air
		}
		x = 29
		y = 4
		
		completion_reward = {
			#remove_ideas = ICE_mountain_strong
			#remove_ideas = ICE_marine_strong
			#remove_ideas = ICE_para_strong
			swap_ideas = {
				remove_idea = ICE_elite_forces_1
				add_idea = ICE_elite_forces_2
			}
			custom_effect_tooltip = ICE_special_done_tt
			hidden_effect = { set_technology = { ICE_elite_infantry_tech = 1 } }
		}
	}
	focus = {
		id = ICE_create_ifv
		icon = GFX_goal_generic_production
		cost = 10.00
		ai_will_do = {
			factor = 1
		}
		prerequisite = {
			focus = ICE_national_def_force
		}
		
		available = {
			custom_trigger_tooltip = {
				tooltip = ICE_no_neutral_tt
				NOT = { has_idea = ICE_icelandic_neutrality }
				NOT = { has_idea = ICE_icelandic_neutrality2 }
			}
		}
		
		x = 31
		y = 1
		
		completion_reward = {
			custom_effect_tooltip = ICE_create_ifv_tt
		}
	}
	focus = {
		id = ICE_reserve_focus
		icon = GFX_goal_generic_defence
		cost = 10.00
		ai_will_do = {
			factor = 2
		}
		prerequisite = {
			focus = ICE_train_reserves
		}
		x = 34
		y = 2
		
		completion_reward = {
			add_ideas = ICE_home_defense
		}

	}
	focus = {
		id = ICE_local_militia
		icon = GFX_focus_generic_commonwealth_build_infantry
		cost = 10.00
		ai_will_do = {
			factor = 2
		}
		prerequisite = {
			focus = ICE_reserve_focus
		}
		x = 34
		y = 3
		
		completion_reward = {
			swap_ideas = {
				remove_idea = ICE_home_defense
				add_idea = ICE_home_defense2
			}
		}

	}
	focus = {
		id = ICE_island_defence
		icon = GFX_goal_generic_fortify_city
		cost = 10.00
		ai_will_do = {
			factor = 2
		}
		prerequisite = {
			focus = ICE_local_militia
		}
		
		available = {
			100 = { CONTROLLER = { tag = ICE } }
		}
		
		x = 32
		y = 4
		
		completion_reward = {
			custom_effect_tooltip = ICE_island_defence_tt
			hidden_effect = {
				if = {
					limit = { has_idea = ICE_home_defense2 }
					swap_ideas = {
						remove_idea = ICE_home_defense2
						add_idea = ICE_home_defense3
					}
				}
				if = {
					limit = { has_idea = ICE_home_defense4 }
					swap_ideas = {
						remove_idea = ICE_home_defense4
						add_idea = ICE_home_defense6
					}
				}
				if = {
					limit = { has_idea = ICE_home_defense5 }
					swap_ideas = {
						remove_idea = ICE_home_defense5
						add_idea = ICE_home_defense7
					}
				}
				if = {
					limit = { has_idea = ICE_home_defense9 }
					swap_ideas = {
						remove_idea = ICE_home_defense9
						add_idea = ICE_home_defense12
					}
				}
				if = {
					limit = { has_idea = ICE_home_defense11 }
					swap_ideas = {
						remove_idea = ICE_home_defense11
						add_idea = ICE_home_defense12
					}
				}
			}
			100 = {
				add_building_construction = {
					type = anti_air_building
					level = 2
					instant_build = yes
				}
				if = {
					limit = {
							free_building_slots = {
								building = radar_station
								size > 1
							}
						}
					add_building_construction = {
						type = radar_station
						level = 1
						instant_build = yes
					}
				}				
				add_building_construction = {
					type = coastal_bunker
					level = 5
					province = 12674
					instant_build = yes
				}
				add_building_construction = {
					type = coastal_bunker
					level = 5
					province = 12689
					instant_build = yes
				}
				add_building_construction = {
					type = coastal_bunker
					level = 5
					province = 4861
					instant_build = yes
				}
			}
		}

	}
	focus = {
		id = ICE_advanced_weapons
		icon = GFX_goal_generic_build_tank
		cost = 10.00
		ai_will_do = {
			factor = 2
		}
		prerequisite = {
			focus = ICE_local_militia
		}
		x = 34
		y = 4
		
		completion_reward = {
			custom_effect_tooltip = ICE_advanced_weapons_tt
			hidden_effect = {
				if = {
					limit = { has_idea = ICE_home_defense2 }
					swap_ideas = {
						remove_idea = ICE_home_defense2
						add_idea = ICE_home_defense4
					}
				}
				if = {
					limit = { has_idea = ICE_home_defense3 }
					swap_ideas = {
						remove_idea = ICE_home_defense3
						add_idea = ICE_home_defense8
					}
				}
				if = {
					limit = { has_idea = ICE_home_defense5 }
					swap_ideas = {
						remove_idea = ICE_home_defense5
						add_idea = ICE_home_defense9
					}
				}
				if = {
					limit = { has_idea = ICE_home_defense7 }
					swap_ideas = {
						remove_idea = ICE_home_defense7
						add_idea = ICE_home_defense12
					}
				}
				if = {
					limit = { has_idea = ICE_home_defense11 }
					swap_ideas = {
						remove_idea = ICE_home_defense11
						add_idea = ICE_home_defense12
					}
				}
			}
		}

	}
	focus = {
		id = ICE_propaganda
		icon = GFX_goal_generic_propaganda
		cost = 10.00
		ai_will_do = {
			factor = 2
		}
		prerequisite = {
			focus = ICE_local_militia
		}
		x = 36
		y = 4
		
		completion_reward = {
			custom_effect_tooltip = ICE_propaganda_tt			
			hidden_effect = {
				if = {
					limit = { has_idea = ICE_home_defense2 }
					swap_ideas = {
						remove_idea = ICE_home_defense2
						add_idea = ICE_home_defense5
					}
				}
				if = {
					limit = { has_idea = ICE_home_defense3 }
					swap_ideas = {
						remove_idea = ICE_home_defense3
						add_idea = ICE_home_defense10
					}
				}
				if = {
					limit = { has_idea = ICE_home_defense4 }
					swap_ideas = {
						remove_idea = ICE_home_defense4
						add_idea = ICE_home_defense11
					}
				}
				if = {
					limit = { has_idea = ICE_home_defense7 }
					swap_ideas = {
						remove_idea = ICE_home_defense7
						add_idea = ICE_home_defense12
					}
				}
				if = {
					limit = { has_idea = ICE_home_defense8 }
					swap_ideas = {
						remove_idea = ICE_home_defense8
						add_idea = ICE_home_defense12
					}
				}
			}
			add_stability = 0.05
			add_war_support = 0.05
		}

	}
	focus = {
		id = ICE_sea_air
		icon = GFX_goal_generic_air_naval_bomber
		ai_will_do = {
			factor = 1
		}
		cost = 10.00
		prerequisite = {
			focus = ICE_coastguard
		}
		x = 40
		y = 1
		
		completion_reward = {
			add_tech_bonus = {
				name = ICE_airsea_tech
				bonus = 0.5
				uses = 1
				category = air_equipment
			}
			add_tech_bonus = {
				name = ICE_airsea_tech2
				bonus = 0.5
				uses = 1
				category = naval_bomber
			}
		}
	}
	focus = {
		id = ICE_land_and_sea
		icon = GFX_goal_generic_air_doctrine
		cost = 10.00
		ai_will_do = {
			factor = 1
		}
		prerequisite = {
			focus = ICE_sea_air
		}
		x = 40
		y = 2
		
		completion_reward = {
			add_tech_bonus = {
				name = ICE_landsea_tech
				bonus = 0.5
				uses = 1
				category = air_equipment
			}
			add_tech_bonus = {
				name = ICE_landsea_tech2
				bonus = 0.5
				uses = 1
				category = air_doctrine
			}
		}

	}
	focus = {
		id = ICE_from_afar
		icon = GFX_focus_rocketry
		cost = 10.00
		ai_will_do = {
			factor = 1
		}
		prerequisite = {
			focus = ICE_land_and_sea
		}
		x = 38
		y = 3
		
		completion_reward = {
			add_tech_bonus = {
				name = ICE_rocketry1
				bonus = 0.5
				ahead_reduction = 0.75
				uses = 2
				category = rocketry
			}
		}

	}
	focus = {
		id = ICE_air_doctrine
		icon = GFX_focus_generic_air_defense
		cost = 10.00
		prerequisite = {
			focus = ICE_land_and_sea
		}
		x = 40
		y = 3
		
		completion_reward = {
			add_tech_bonus = {
				name = ICE_air_doctrine_tech
				bonus = 0.5
				uses = 3
				category = air_doctrine
			}
		}

	}
	focus = {
		id = ICE_nav_doc
		icon = GFX_sca_focus_blue_navy
		cost = 10.00
		ai_will_do = {
			factor = 1
		}
		prerequisite = {
			focus = ICE_coastguard
		}
		x = 42
		y = 1
		
		completion_reward = {
			add_tech_bonus = {
				name = ICE_naval_doctrine_tech
				bonus = 0.5
				uses = 4
				category = naval_doctrine
			}
		}

	}
	focus = {
		id = ICE_build_dock
		icon = GFX_goal_generic_construct_naval_dockyard
		cost = 10.00
		ai_will_do = {
			factor = 3
		}
		prerequisite = {
			focus = ICE_coastguard
		}
		
		available = {
			100 = { CONTROLLER = { tag = ICE } }
		}
		
		bypass = {
			custom_trigger_tooltip = {
				tooltip = construction_effort_tt
				100 = {
					free_building_slots = {
						building = industrial_complex
						size < 1
						include_locked = yes
					}
				}
			}
		}
		
		x = 45
		y = 1
		
		completion_reward = {
			100 = {
				add_extra_state_shared_building_slots = 3
				add_building_construction = {
					type = dockyard
					level = 2
					instant_build = yes
				}
			}
		}

	}
	focus = {
		id = ICE_ships
		icon = GFX_focus_generic_navy_battleship2
		cost = 10.00
		ai_will_do = {
			factor = 1
		}
		prerequisite = {
			focus = ICE_build_dock
		}
		
		available = {
			custom_trigger_tooltip = {
				tooltip = ICE_no_neutral_tt
				NOT = { has_idea = ICE_icelandic_neutrality }
				NOT = { has_idea = ICE_icelandic_neutrality2 }
			}
		}
		
		x = 43
		y = 2
		
		completion_reward = {
			add_tech_bonus = {
				name = ICE_heavy_ships
				bonus = 0.5
				uses = 4
				category = ca_tech
				category = bc_tech
				category = bb_tech
				category = cv_tech
			}
		}

	}
	focus = {
		id = ICE_dockyards_2
		icon = GFX_goal_generic_construct_naval_dockyard
		cost = 10.00
		ai_will_do = {
			factor = 3
		}
		prerequisite = {
			focus = ICE_build_dock
		}
		
		available = {
			100 = { CONTROLLER = { tag = ICE } }
		}
		
		bypass = {
			custom_trigger_tooltip = {
				tooltip = construction_effort_tt
				100 = {
					free_building_slots = {
						building = industrial_complex
						size < 1
						include_locked = yes
					}
				}
			}
		}
		
		x = 45
		y = 2
		
		completion_reward = {
			100 = {
				add_extra_state_shared_building_slots = 3
				add_building_construction = {
					type = dockyard
					level = 3
					instant_build = yes
				}
			}
		}

	}
	focus = {
		id = ICE_carrier
		icon = GFX_goal_generic_navy_carrier
		cost = 40.00
		ai_will_do = {
			factor = 0.5
			modifier = {
				factor = 4
				has_war = yes
			}
		}
		prerequisite = {
			focus = ICE_land_and_sea
		}
		prerequisite = {
			focus = ICE_ships
		}
		prerequisite = {
			focus = ICE_dockyards_2
		}
		
		available = {
			100 = { 
				CONTROLLER = { tag = ICE } 
				air_base > 0
			}
			has_tech = early_carrier
			has_tech = early_fighter
		}
		
		cancel_if_invalid = yes
		
		x = 42
		y = 3
		
		completion_reward = {
			custom_effect_tooltip = ICE_carrier_tt
			hidden_effect = {
				if = {
					limit = {
						ICE = { has_tech = early_carrier }
						NOT = { ICE = { has_tech = basic_carrier } }
					}
					load_oob = ICE_mavur_early_carrier
				}
				if = { 
					limit = { 
						ICE = { has_tech = basic_carrier }
						NOT = { ICE = { has_tech = improved_carrier } }
					}
					load_oob = ICE_mavur_basic_carrier
				}
				if = { 
					limit = { 
						ICE = { has_tech = improved_carrier }
						NOT = { ICE = { has_tech = advanced_carrier } }
					}
					load_oob = ICE_mavur_improved_carrier
				}
				if = { 
					limit = { ICE = { has_tech = advanced_carrier }	}
					load_oob = ICE_mavur_advanced_carrier
				}
				if = {
					limit = {
						has_tech = cv_early_fighter
						NOT = { has_tech = cv_fighter1 }
					}
					load_oob = ICE_mavur_fighter_0
				}
				if = {
					limit = {
						has_tech = cv_fighter1
						NOT = { has_tech = cv_fighter2 }
					}
					load_oob = ICE_mavur_fighter_1
				}
				if = {
					limit = {
						has_tech = cv_fighter2
						NOT = { has_tech = cv_fighter3 }
					}
					load_oob = ICE_mavur_fighter_2
				}
				if = {
					limit = { has_tech = cv_fighter3 }
					load_oob = ICE_mavur_fighter_3
				}
				if = {
					limit = {
						has_tech = cv_naval_bomber1
						NOT = { has_tech = cv_naval_bomber2 }
					}
					load_oob = ICE_mavur_nav_bomber_1
				}
				if = {
					limit = {
						has_tech = cv_naval_bomber2
						NOT = { has_tech = cv_naval_bomber3 }
					}
					load_oob = ICE_mavur_nav_bomber_2
				}
				if = {
					limit = { has_tech = cv_naval_bomber3 }
					load_oob = ICE_mavur_nav_bomber_3
				}
			}
		}
	}
	focus = {
		id = ICE_new_thoughts
		icon = GFX_focus_research
		cost = 10.00
		ai_will_do = {
			factor = 1
		}
		prerequisite = {
			focus = ICE_air_doctrine
			focus = ICE_carrier
		}
		x = 41
		y = 4
		
		completion_reward = {
			if = {
				limit = { 
					AND = {
						has_completed_focus = ICE_discoveries
						has_completed_focus = ICE_den_uni_expansion
						OR = { 
							has_completed_focus = ICE_ally_tech
							has_completed_focus = ICE_ger_tech
							has_completed_focus = ICE_sov_tech
						}						
					}
				}
				remove_from_tech_sharing_group = DEN_ICE_research_group
				DEN = { remove_from_tech_sharing_group = DEN_ICE_research_group }
				add_to_tech_sharing_group = DEN_ICE_research_group2
				DEN = { add_to_tech_sharing_group = DEN_ICE_research_group2 }				
			}
			if = {
				limit = { NOT = {
					AND = {
						has_completed_focus = ICE_discoveries
						has_completed_focus = ICE_den_uni_expansion
						OR = { 
							has_completed_focus = ICE_ally_tech
							has_completed_focus = ICE_ger_tech
							has_completed_focus = ICE_sov_tech
						}						
					}
				} }
				add_research_slot = 1
				custom_effect_tooltip = ICE_no_six
			}
		}

	}
	focus = {
		id = ICE_sub
		icon = GFX_goal_generic_navy_submarine
		cost = 10.00
		ai_will_do = {
			factor = 1
		}
		prerequisite = {
			focus = ICE_build_dock
		}
		x = 47
		y = 2
		
		completion_reward = {
			add_tech_bonus = {
				name = ICE_subs_tech
				bonus = 0.5
				uses = 2
				category = ss_tech
			}
		}

	}
	focus = {
		id = ICE_screen_ships
		icon = GFX_goal_generic_navy_anti_submarine
		cost = 10.00
		ai_will_do = {
			factor = 1
		}
		prerequisite = {
			focus = ICE_dockyards_2
			focus = ICE_sub
		}
		x = 46
		y = 3
		
		completion_reward = {
			add_tech_bonus = {
				name = ICE_lc_tech
				bonus = 0.5
				uses = 2
				category = cl_tech
			}
			add_tech_bonus = {
				name = ICE_destroyer_tech
				bonus = 0.5
				uses = 2
				category = dd_tech
			}
		}

	}
	focus = {
		id = ICE_fighting_ships
		icon = GFX_goal_generic_navy_doctrines_tactics
		cost = 10.00
		ai_will_do = {
			factor = 1
		}
		prerequisite = {
			focus = ICE_dockyards_2
			focus = ICE_screen_ships
		}
		prerequisite = {
			focus = ICE_ships
		}
		x = 43
		y = 4
		
		completion_reward = {
			add_tech_bonus = {
				name = ICE_fighting_ship_tech
				bonus = 0.5
				uses = 2
				category = naval_equipment
			}
			add_tech_bonus = {
				name = ICE_fighting_ship_doc
				bonus = 0.5
				uses = 1
				category = naval_doctrine
			}
		}
	}
	focus = {
		id = ICE_war_manu
		icon = GFX_goal_generic_trade
		cost = 10.00
		ai_will_do = {
			factor = 1
		}
		prerequisite = {
			focus = ICE_mil_facs
		}
		x = 6
		y = 5
		
		completion_reward = {
			add_ideas = ICE_war_economics
			if = {
				limit = { 
					NOT = { has_idea = war_economy }
					NOT = { has_idea = tot_economic_mobilisation }
				}
				add_ideas = war_economy
			}
		}
	}
	focus = {
		id = ICE_eng_defences
		icon = GFX_focus_generic_coastal_fort
		cost = 10.00
		ai_will_do = {
			factor = 1
		}
		prerequisite = {		
			focus = ICE_close_eng
			focus = ICE_guarantees
			focus = ICE_strong_neutral
		}
		
		available = {
			NOT = { has_war_with = ENG }
			100 = { CONTROLLER = { tag = ICE } }
			OR = {
				custom_trigger_tooltip = {
					tooltip = ICE_no_neutral_tt
					NOT = { has_idea = ICE_icelandic_neutrality }
					NOT = { has_idea = ICE_icelandic_neutrality2 }
				}
				gives_military_access_to = ENG
			}
		}
		
		cancel_if_invalid = yes
		
		x = 8
		y = 5
		
		completion_reward = {
			100 = {
				if = {
					limit = {
							free_building_slots = {
								building = radar_station
								size > 1
							}
						}
					add_building_construction = {
						type = radar_station
						level = 1
						instant_build = yes
					}
				}				
				add_building_construction = {
					type = coastal_bunker
					level = 1
					province = 12674
					instant_build = yes
				}
				add_building_construction = {
					type = coastal_bunker
					level = 1
					province = 12689
					instant_build = yes
				}
				add_building_construction = {
					type = coastal_bunker
					level = 1
					province = 4861
					instant_build = yes
				}
				add_building_construction = {
					type = anti_air_building
					level = 1
					instant_build = yes
				}
			}
		}
	}
	focus = {
		id = ICE_mountain_train
		icon = GFX_goal_generic_special_forces
		cost = 10.00
		ai_will_do = {
			factor = 2 
		}
		prerequisite = {
			focus = ICE_eng_defences
		}
		
		available = {
			NOT = { has_war_with = ENG }
		}
		
		cancel_if_invalid = yes
		
		x = 9
		y = 6
		
		completion_reward = {
			add_ideas = ICE_akureyi
			ENG = { add_ideas = ICE_akureyi }
		}

	}
	focus = {
		id = ICE_eng_expand_airport
		icon = GFX_goal_generic_air_production
		cost = 10.00
		ai_will_do = {
			factor = 1
		}
		prerequisite = {
			focus = ICE_eng_defences
		}
		
		available = {
			NOT = { has_war_with = ENG }
			100 = { CONTROLLER = { tag = ICE } }
		}
		
		x = 7
		y = 6
		
		completion_reward = {
			100 = {
				add_building_construction = {
					type = air_base
					level = 4
					instant_build = yes
				}
				add_building_construction = {
					type = anti_air_building
					level = 1
					instant_build = yes
				}
			}
		}
			

	}
	focus = {
		id = ICE_ger_tech
		icon = GFX_focus_research
		cost = 10.00
		ai_will_do = {
			factor = 10
		}
		prerequisite = {
			focus = ICE_ger_coop
		}
		x = 20
		y = 7
		
		completion_reward = {
			if = {
				limit = { 
					NOT = {
						AND = {
							has_completed_focus = ICE_discoveries
							has_completed_focus = ICE_new_thoughts
							has_completed_focus = ICE_den_uni_expansion
						}
					}
				}
				add_research_slot = 1
				custom_effect_tooltip = ICE_no_six
			}
			if = {
				limit = { 
					has_completed_focus = ICE_discoveries
					has_completed_focus = ICE_new_thoughts
					has_completed_focus = ICE_den_uni_expansion
				}
				remove_from_tech_sharing_group = DEN_ICE_research_group
				DEN = { remove_from_tech_sharing_group = DEN_ICE_research_group }
				add_to_tech_sharing_group = DEN_ICE_research_group2
				DEN = { add_to_tech_sharing_group = DEN_ICE_research_group2 }
			}
		}

	}
	focus = {
		id = ICE_sov_tech
		icon = GFX_focus_generic_socialist_science
		cost = 10.00
		ai_will_do = {
			factor = 10
		}
		prerequisite = {
			focus = ICE_join_com
		}
		x = 17
		y = 7
		
		completion_reward = {
			if = {
				limit = { 
					NOT = {
						AND = {
							has_completed_focus = ICE_discoveries
							has_completed_focus = ICE_new_thoughts
							has_completed_focus = ICE_den_uni_expansion
						}
					}
				}
				add_research_slot = 1
				custom_effect_tooltip = ICE_no_six
			}
			if = {
				limit = { 
					has_completed_focus = ICE_discoveries
					has_completed_focus = ICE_new_thoughts
					has_completed_focus = ICE_den_uni_expansion
				}
				remove_from_tech_sharing_group = DEN_ICE_research_group
				DEN = { remove_from_tech_sharing_group = DEN_ICE_research_group }
				add_to_tech_sharing_group = DEN_ICE_research_group2
				DEN = { add_to_tech_sharing_group = DEN_ICE_research_group2 }
			}
		}

	}
	focus = {
		id = ICE_shieldmaidens
		icon = GFX_goal_generic_defence
		cost = 10.00
		ai_will_do = {
			factor = 1
		}
		prerequisite = {
			focus = ICE_vikings
			focus = ICE_fas_youth
		}
		x = 23
		y = 6
		
		completion_reward = {
			add_ideas = ICE_idea_shieldmaidens
		}

	}
	focus = {
		id = ICE_com_kill_oppressors
		icon = GFX_goal_generic_war_with_comintern
		cost = 10.00
		ai_will_do = {
			factor = 1
			modifier = {
				factor = 0
				surrender_progress > 0.05 # We don't need more enemies
			}
		}
		prerequisite = {
			focus = ICE_join_com
		}
		prerequisite = {
			focus = ICE_break_den
		}
		
		available = {
			NOT = { has_war_with = DEN }
			NOT = { is_in_faction_with = DEN }
			is_subject = no
		}
		
		cancel_if_invalid = yes
		
		x = 16
		y = 6
		
		completion_reward = {
			add_war_support = 0.2
			add_state_core = 99
			add_state_core = 37
			add_state_core = 337
			add_state_core = 101
			declare_war_on = {
				target = DEN
				type = annex_everything
			}
		}

	}
	focus = {
		id = ICE_ally_tech
		icon = GFX_focus_research2
		cost = 10.00
		ai_will_do = {
			factor = 10
		}
		
		prerequisite = {
			focus = ICE_join_allies
		}
		prerequisite = {			
			focus = ICE_usa_airport
			focus = ICE_eng_defences
		}
		x = 12
		y = 6
		
		completion_reward = {
			if = {
				limit = { 
					NOT = {
						AND = {
							has_completed_focus = ICE_discoveries
							has_completed_focus = ICE_new_thoughts
							has_completed_focus = ICE_den_uni_expansion
						}
					}
				}
				add_research_slot = 1
				custom_effect_tooltip = ICE_no_six
			}
			if = {
				limit = { 
					has_completed_focus = ICE_discoveries
					has_completed_focus = ICE_new_thoughts
					has_completed_focus = ICE_den_uni_expansion
				}
				remove_from_tech_sharing_group = DEN_ICE_research_group
				DEN = { remove_from_tech_sharing_group = DEN_ICE_research_group }
				add_to_tech_sharing_group = DEN_ICE_research_group2
				DEN = { add_to_tech_sharing_group = DEN_ICE_research_group2 }
			}
		}
	}
	focus = {
		id = ICE_nuke
		icon = GFX_focus_wonderweapons
		cost = 10.00
		ai_will_do = {
			factor = 1
		}
		prerequisite = {
			focus = ICE_new_thoughts
		}
		x = 41
		y = 5
		
		completion_reward = {
			add_tech_bonus = {
				name = ICE_nuclear
				bonus = 0.5
				ahead_reduction = 0.5
				uses = 1
				category = nuclear
			}
		}

	}
	focus = {
		id = ICE_expand_rocketry
		icon = GFX_focus_rocketry
		cost = 10.00
		ai_will_do = {
			factor = 1
		}
		prerequisite = {
			focus = ICE_from_afar
		}
		prerequisite = {
			focus = ICE_new_thoughts
		}
		x = 38
		y = 5
		
		completion_reward = {
			add_tech_bonus = {
				name = ICE_rocketry1
				bonus = 0.5
				ahead_reduction = 0.75
				uses = 1
				category = rocketry
			}
			custom_effect_tooltip = ICE_rocket_effort_tt
			hidden_effect = {
				add_tech_bonus = {
					name = ICE_rocketry2
					bonus = 0.5
					ahead_reduction = 1
					uses = 2
					technology = rocket_artillery
					technology = rocket_artillery2
					technology = rocket_artillery3
					technology = rocket_artillery4
				}
			}
		}
	}
	focus = {
		id = ICE_anti_sub
		icon = GFX_goal_generic_wolf_pack
		cost = 10.00
		ai_will_do = {
			factor = 1
		}
		prerequisite = {
			focus = ICE_sub
			focus = ICE_screen_ships
		}
		x = 47
		y = 4
		
		completion_reward = {
			add_ideas = ICE_wolf_hunter
		}
	}
	focus = {
		id = ICE_coast_guard
		icon = GFX_goal_generic_occupy_states_coastal
		cost = 10.00
		ai_will_do = {
			factor = 1
		}
		prerequisite = {
			focus = ICE_new_thoughts
			focus = ICE_screen_ships
			focus = ICE_anti_sub
		}
		prerequisite = {
			focus = ICE_dockyards_2
		}
		x = 45
		y = 5
		
		completion_reward = {
			country_event = NOS_iceland.9
		}
	}
}
