1={3838 }
2={923 }
3={9620 }
4={6690 }
5={11386 }
6={3576 }
7={68 }
8={6583 }
9={9421 }
10={3544 }
11={9404 }
12={11222 }
13={308 }
14={6548 }
15={9578 }
16={9725 }
17={6698 }
18={11732 }
19={6762 }
20={641 }
21={11875 }
22={6962 }
23={655 }
24={512 }
25={9751 }
26={590 }
27={11628 }
28={1346 }
29={11548 }
30={3495 }
31={12169 }
32={780 }
33={651 }
34={13081 }
35={6496 }
36={6286 }
37={3260 }
38={6161 }
39={9630 }
40={1779 }
41={9767 }
42={3558 }
43={716 }
44={9875 }
45={3623 }
46={3639 }
47={976 }
48={949 }
49={6908 }
50={519 }
51={3444 }
52={9666 }
53={3541 }
54={9572 }
55={3397 }
56={9281 }
57={6535 }
58={6257 }
59={6263 }
60={6524 }
61={11276 }
62={3340 }
63={6334 }
64={13292 }
65={9535 }
66={3438 }
67={11467 }
68={11478 }
69={424 }
70={3537 }
71={3550 }
72={9567 }
73={9563 }
74={3583 }
75={11511 }
76={11676 }
77={11597 }
78={9683 }
79={3741 }
80={577 }
81={3645 }
82={11592 }
83={9640 }
84={676 }
85={362 }
86={6558 }
87={548 }
88={11398 }
89={11550 }
90={11532 }
91={11479 }
92={3559 }
93={513 }
94={3256 }
95={6359 }
96={11391 }
97={11301 }
98={9290 }
99={3341 }
100={12689 }
101={12512 }
102={9627 }
103={984 }
104={11872 }
105={11858 }
106={6886 }
107={3609 }
108={6970 }
109={9595 }
110={9103 }
111={9167 }
112={799 }
113={285 }
114={11824 }
115={12047 }
116={12003 }
117={955 }
118={4135 }
119={3242 }
120={6205 }
121={9314 }
122={6363 }
123={540 }
124={6258 }
125={11221 }
126={6103 }
127={3501 }
128={7239 }
129={9322 }
130={9269 }
131={351 }
132={6384 }
133={9237 }
134={3396 }
135={11334 }
136={11136 }
137={6724 }
138={11376 }
139={11311 }
140={6028 }
141={11163 }
142={53 }
143={6038 }
144={9042 }
145={9228 }
146={6150 }
147={197 }
148={11204 }
149={11132 }
150={11076 }
151={661 }
152={3684 }
153={11618 }
154={11646 }
155={11627 }
156={3901 }
157={925 }
158={776 }
159={6661 }
160={11584 }
161={9752 }
162={910 }
163={13269 }
164={10007 }
165={9797 }
166={9840 }
167={6856 }
168={9903 }
169={1178 }
170={9925 }
171={11692 }
172={3737 }
173={1176 }
174={726 }
175={3953 }
176={9870 }
177={9793 }
178={13071 }
179={6933 }
180={6921 }
181={6996 }
182={9940 }
183={7193 }
184={11774 }
185={9916 }
186={4078 }
187={3401 }
188={3288 }
189={9731 }
190={3194 }
191={9221 }
192={9714 }
193={3542 }
194={6232 }
195={149 }
196={737 }
197={574 }
198={9423 }
199={3457 }
200={3767 }
201={6593 }
202={525 }
203={488 }
204={331 }
205={11235 }
206={3759 }
207={9323 }
208={181 }
209={11097 }
210={9353 }
211={9902 }
212={6952 }
213={3012 }
214={3065 }
215={3078 }
216={2994 }
217={3529 }
218={9417 }
219={6414 }
220={3580 }
221={6554 }
222={11368 }
223={3292 }
224={3364 }
225={522 }
226={11561 }
227={6474 }
228={6519 }
229={1610 }
230={6642 }
231={6669 }
232={683 }
233={9649 }
234={6768 }
235={9707 }
236={6620 }
237={3774 }
238={9415 }
239={3426 }
240={6481 }
241={9247 }
242={6387 }
243={11336 }
244={6095 }
245={509 }
246={9265 }
247={6122 }
248={9122 }
249={3214 }
250={3276 }
251={11377 }
252={6327 }
253={280 }
254={269 }
255={6248 }
256={9259 }
257={340 }
258={6398 }
259={11504 }
260={510 }
261={6855 }
262={6538 }
263={6154 }
264={9107 }
265={487 }
266={7602 }
267={10781 }
268={4985 }
269={8094 }
270={1280 }
271={8036 }
272={12710 }
273={12022 }
274={8039 }
275={5106 }
276={6630 }
277={1965 }
278={7621 }
279={12954 }
280={2204 }
281={4967 }
282={1097 }
283={531 }
284={4748 }
285={7471 }
286={7271 }
287={8042 }
288={1142 }
289={10250 }
290={12087 }
291={7994 }
292={8004 }
293={10752 }
294={2018 }
295={9986 }
296={12891 }
297={8244 }
298={7959 }
299={12960 }
300={10502 }
301={2152 }
302={5179 }
303={12997 }
304={7630 }
305={10888 }
306={2079 }
307={7968 }
308={7123 }
309={10906 }
310={4934 }
311={2077 }
312={8017 }
313={10886 }
314={12823 }
315={10498 }
316={13087 }
317={2075 }
318={4641 }
319={7660 }
320={10149 }
321={1273 }
322={2093 }
323={10825 }
324={8010 }
325={1172 }
326={10062 }
327={12236 }
328={9913 }
329={10627 }
330={4801 }
331={12680 }
332={1785 }
333={10240 }
334={1225 }
335={1209 }
336={4367 }
337={13003 }
338={3369 }
339={6992 }
340={11867 }
341={3893 }
342={12013 }
343={3983 }
344={6956 }
345={7026 }
346={940 }
347={904 }
348={961 }
349={3950 }
350={4512 }
351={11095 }
352={864 }
353={11853 }
354={789 }
355={9915 }
356={6938 }
357={3906 }
358={9754 }
359={3863 }
360={6885 }
361={3957 }
362={3823 }
363={11783 }
364={10029 }
365={9996 }
366={12752 }
367={4756 }
368={7791 }
369={4402 }
370={10753 }
371={4522 }
372={4625 }
373={12463 }
374={11802 }
375={9920 }
376={12720 }
377={10573 }
378={6881 }
379={4607 }
380={1756 }
381={12651 }
382={7684 }
383={1753 }
384={4830 }
385={1414 }
386={7386 }
387={10602 }
388={4741 }
389={4759 }
390={7862 }
391={9880 }
392={1678 }
393={9684 }
394={4738 }
395={720 }
396={9810 }
397={4298 }
398={1336 }
399={6217 }
400={6171 }
401={3551 }
402={4581 }
403={10659 }
404={4250 }
405={7682 }
406={11455 }
407={468 }
408={957 }
409={12189 }
410={2070 }
411={12756 }
412={10881 }
413={5089 }
414={12852 }
415={1948 }
416={1888 }
417={1982 }
418={8009 }
419={1896 }
420={4901 }
421={5098 }
422={4219 }
423={12247 }
424={7297 }
425={7395 }
426={12490 }
427={4472 }
428={4064 }
429={4353 }
430={9993 }
431={4204 }
432={10090 }
433={1199 }
434={1116 }
435={12035 }
436={7430 }
437={8076 }
438={4045 }
439={11955 }
440={10066 }
441={8005 }
442={12763 }
443={1980 }
444={5075 }
445={5105 }
446={12004 }
447={7164 }
448={7066 }
449={7076 }
450={4120 }
451={7082 }
452={11967 }
453={11922 }
454={1201 }
455={4591 }
456={7073 }
457={12889 }
458={1046 }
459={12760 }
460={7065 }
461={7100 }
462={8046 }
463={13069 }
464={7361 }
465={634 }
466={490 }
467={4790 }
468={12149 }
469={736 }
470={6754 }
471={7869 }
472={7696 }
473={7853 }
474={12715 }
475={1900 }
476={2021 }
477={12810 }
478={13089 }
479={5015 }
480={2060 }
481={8057 }
482={8097 }
483={10765 }
484={13215 }
485={10832 }
486={2007 }
487={10924 }
488={10879 }
489={4526 }
490={8149 }
491={8213 }
492={2182 }
493={12790 }
494={2226 }
495={4980 }
496={7476 }
497={12853 }
498={2175 }
499={8242 }
500={10980 }
501={10513 }
502={4604 }
503={5156 }
504={10959 }
505={8140 }
506={5228 }
507={8218 }
508={11001 }
509={2106 }
510={5163 }
511={2179 }
512={8176 }
513={7149 }
514={12849 }
515={10917 }
516={6085 }
517={2130 }
518={12645 }
519={5225 }
520={12311 }
521={4648 }
522={5175 }
523={12123 }
524={12068 }
525={7221 }
526={11932 }
527={11828 }
528={10020 }
529={11985 }
530={7046 }
531={1051 }
532={7087 }
533={11847 }
534={10128 }
535={7217 }
536={12493 }
537={1820 }
538={988 }
539={8207 }
540={7548 }
541={2207 }
542={1580 }
543={5222 }
544={5164 }
545={4851 }
546={2196 }
547={10962 }
548={12929 }
549={10859 }
550={5091 }
551={2046 }
552={12816 }
553={792 }
554={7184 }
555={1515 }
556={10829 }
557={7992 }
558={8021 }
559={5065 }
560={12559 }
561={10678 }
562={12683 }
563={1826 }
564={7751 }
565={4762 }
566={1762 }
567={1735 }
568={12628 }
569={7757 }
570={4734 }
571={10626 }
572={1292 }
573={7320 }
574={10641 }
575={13059 }
576={4743 }
577={4817 }
578={7789 }
579={4669 }
580={7768 }
581={10677 }
582={4265 }
583={10140 }
584={1593 }
585={1532 }
586={1840 }
587={7641 }
588={12635 }
589={4651 }
590={7298 }
591={994 }
592={1087 }
593={1202 }
594={4023 }
595={4053 }
596={7086 }
597={10043 }
598={7200 }
599={10404 }
600={9984 }
601={5102 }
602={7159 }
603={7521 }
604={7940 }
605={12705 }
606={10040 }
607={7129 }
608={11761 }
609={3830 }
610={6937 }
611={828 }
612={12348 }
613={10076 }
614={11996 }
615={10367 }
616={8127 }
617={4682 }
618={7693 }
619={5087 }
620={1612 }
621={12331 }
622={1458 }
623={4368 }
624={1372 }
625={1340 }
626={7419 }
627={12217 }
628={7423 }
629={12021 }
630={13051 }
631={13052 }
632={13047 }
633={13046 }
634={10291 }
635={7264 }
636={7302 }
637={1863 }
638={12140 }
639={13022 }
640={1607 }
641={12148 }
642={13050 }
643={13056 }
644={1819 }
645={13025 }
646={13024 }
647={12103 }
648={13026 }
649={5023 }
650={13067 }
651={273 }
652={1210 }
653={12696 }
654={10713 }
655={855 }
656={8085 }
657={7672 }
658={2048 }
659={2029 }
660={3165 }
661={11940 }
662={1041 }
663={1186 }
664={3716 }
665={10082 }
666={3054 }
667={10175 }
668={1419 }
669={1602 }
670={12392 }
671={10129 }
672={10225 }
673={10222 }
674={8134 }
675={4951 }
676={3916 }
677={7140 }
678={12768 }
679={1923 }
680={3942 }
681={4822 }
682={4875 }
683={10721 }
684={13031 }
685={7617 }
686={1440 }
687={4982 }
688={10973 }
689={12304 }
690={10254 }
691={3284 }
692={11106 }
693={10440 }
694={177 }
695={153 }
696={13010 }
697={3118 }
698={1751 }
699={7979 }
700={2094 }
701={4989 }
702={13014 }
703={13013 }
704={13016 }
705={13015 }
706={13017 }
707={13018 }
708={13072 }
709={2188 }
710={13019 }
711={13005 }
712={13002 }
713={2165 }
714={7832 }
715={3978 }
716={892 }
717={9623 }
718={2073 }
719={1833 }
720={10995 }
721={12178 }
722={9140 }
723={2203 }
724={1394 }
725={13038 }
726={7290 }
727={13049 }
728={11981 }
729={4189 }
730={373 }
731={10163 }
732={5062 }
733={12251 }
734={7390 }
735={11573 }
736={11735 }
737={10206 }
738={4579 }
739={1869 }
740={12259 }
741={10134 }
742={8027 }
743={10000 }
744={4256 }
745={1150 }
746={12706 }
747={4559 }
748={10763 }
749={7104 }
750={4896 }
751={1999 }
752={12837 }
753={1257 }
754={12815 }
755={12890 }
756={10899 }
757={8121 }
758={12784 }
759={2074 }
760={12524 }
761={4852 }
762={6464 }
763={395 }
764={6643 }
765={8051 }
766={6743 }
767={10900 }
768={9962 }
769={2220 }
770={13209 }
771={10594 }
772={3109 }
773={5036 }
774={1473 }
775={4902 }
776={10919 }
777={12843 }
778={7950 }
779={5013 }
780={4957 }
781={1975 }
782={1115 }
783={12857 }
784={3320 }
785={11549 }
786={8035 }
787={10821 }
788={13221 }
789={1192 }
790={9703 }
791={3820 }
792={3735 }
793={3858 }
794={871 }
795={11481 }
796={2115 }
797={9833 }
798={11826 }
799={12029 }
800={11880 }
801={9610 }
802={6953 }
803={11857 }
804={6942 }
805={914 }
806={9710 }
807={3324 }
808={9240 }
809={6459 }
810={3255 }
811={185 }
812={567 }
813={4640 }
814={6407 }
815={6229 }
816={4627 }
817={3546 }
818={9434 }
819={11631 }
820={9853 }
821={9645 }
822={4744 }
823={4488 }
824={1729 }
825={198 }
826={11647 }
827={685 }
828={9628 }
829={11395 }
830={7775 }
831={12454 }
832={1493 }
833={11387 }
834={13234 }
835={4287 }
836={7462 }
837={733 }
838={4445 }
839={13241 }
840={11830 }
841={9786 }
842={12291 }
843={4723 }
844={11892 }
845={1453 }
846={12633 }
847={11772 }
848={4586 }
849={12624 }
850={12301 }
851={5038 }
852={8064 }
853={10591 }
854={710 }
855={7986 }
856={709 }
857={6827 }
858={12313 }
859={1854 }
860={13303 }
861={13246 }
862={6196 }
863={9412 }
864={11385 }
865={334 }
866={11595 }
867={6631 }
868={9608 }
869={11577 }
870={9457 }
871={867 }
872={9756 }
873={13260 }
874={13259 }
875={10870 }
876={8030 }
877={6934 }
878={3485 }
879={7107 }
880={4088 }
881={4991 }
882={1594 }
883={126 }
884={13266 }
885={3462 }
886={7857 }
887={11401 }
888={11525 }
889={9539 }
890={415 }
891={13268 }
892={3612 }
893={9600 }
894={658 }
895={13270 }
896={6008 }
897={13271 }
898={1993 }
899={11012 }
900={13261 }
901={13274 }
902={13265 }
903={7204 }
904={10110 }
905={4056 }
906={7021 }
907={9981 }
908={1003 }
909={6928 }
910={13264 }
911={1177 }
912={5216 }
913={10960 }
914={2142 }
915={5131 }
916={12994 }
917={4624 }
918={12400 }
919={12948 }
920={5207 }
921={2205 }
922={8249 }
923={12949 }
924={11013 }
925={3407 }
926={11557 }
927={11298 }
928={3121 }
929={9074 }
930={3503 }
931={6701 }
932={3711 }
933={3393 }
934={9596 }
935={665 }
936={6672 }
937={3592 }
938={13278 }
939={591 }
940={9821 }
941={9874 }
942={6361 }
943={649 }
944={12702 }
945={12839 }
946={13280 }
947={4603 }
948={12758 }
949={4924 }
950={11811 }
951={3675 }
952={11984 }
953={3907 }
954={3856 }
955={9932 }
956={804 }
957={919 }
958={11251 }
959={9860 }
960={12318 }
961={9893 }
962={10011 }
963={4122 }
964={1113 }
965={1133 }
966={4198 }
967={11925 }
968={12032 }
969={7197 }
970={4841 }
971={7115 }
972={4155 }
973={13284 }
974={13286 }
975={6550 }
976={3980 }
977={10203 }
978={7127 }
979={336 }
980={12299 }
981={1291 }
982={7387 }
983={4435 }
984={5042 }
985={1129 }
986={6656 }
987={9584 }
988={11721 }
989={6788 }
990={11751 }
991={9856 }
992={9784 }
993={6626 }
994={13287 }
995={9947 }
996={3434 }
997={3254 }
998={1057 }
999={10253 }
1000={7328 }
1001={10472 }
1002={10484 }
1003={9715 }
1004={6997 }
1005={12434 }
1006={3307 }
1007={6164 }
1008={49 }
1009={202 }
1010={6151 }
1011={6114 }
1012={9032 }
1013={6071 }
1014={9126 }
1015={7773 }
1016={12579 }
1017={10623 }
1018={4792 }
1019={10578 }
1020={10689 }
1021={12614 }
1022={9803 }
1023={6860 }
1024={927 }
1025={846 }
1026={4503 }
1027={9987 }
1028={11928 }
1029={4114 }
1030={7637 }
1031={4619 }
1032={10954 }
1033={11004 }
1034={12428 }
1035={10234 }
1036={3231 }
1037={7900 }
1038={4556 }
1039={8000 }
1040={901 }
1041={4175 }
1042={12238 }
1043={9945 }
1044={12100 }
1045={7546 }
1046={953 }
1047={606 }
1048={6619 }
1049={12785 }
1050={6469 }
1051={11531 }
1052={589 }
1053={3692 }
1054={11435 }
1055={11359 }
1056={13288 }
1057={13217 }
1058={11318 }
1059={9363 }
1060={11562 }
1061={11456 }
1062={9498 }
1063={6990 }
1064={1972 }
1065={12627 }
1066={11564 }
1067={11031 }
1068={6157 }
1069={13291 }
1070={1060 }
1071={10754 }
1072={7985 }
1073={10356 }
1074={12332 }
1075={12210 }
1076={1563 }
1077={1592 }
1078={9948 }
1079={4397 }
1080={4379 }
1081={4223 }
1082={10162 }
1083={12167 }
1084={4330 }
1085={12460 }
1086={7604 }
1087={11014 }
1088={4909 }
1089={11483 }
1090={1807 }
1091={1530 }
1092={6436 }
1093={12113 }
1094={4399 }
1095={4496 }
1096={12417 }
1097={1244 }
1098={10384 }
1099={12122 }
1100={9576 }
1101={1237 }
1102={13080 }
1103={6857 }
1104={3943 }
1105={6521 }
1106={1958 }
1107={9679 }
1108={13296 }
1109={13294 }
1110={8006 }
1111={13297 }
1112={11260 }
1113={1984 }
1114={125 }
1115={6310 }
1116={6282 }
1117={5081 }
1118={10731 }
1119={6401 }
1120={1254 }
1121={3726 }
1122={6498 }
1123={3502 }
1124={10108 }
1125={3568 }
1126={3480 }
1127={453 }
1128={2202 }
1129={7519 }
1130={4893 }
1131={10789 }
1132={6609 }
1133={11219 }
1134={3886 }
1135={12907 }
1136={12795 }
1137={10883 }
1138={5027 }
1139={11832 }
1140={8235 }
1141={11018 }
1142={2129 }
1143={2047 }
1144={707 }
1145={6725 }
1146={3510 }
1147={478 }
1148={3718 }
1149={9624 }
1150={11625 }
1151={11630 }
1152={13058 }
1153={3488 }
1154={9444 }
1155={11516 }
1156={9472 }
1157={5291 }
1158={3959 }
1159={911 }
1160={764 }
1161={13308 }
1162={13309 }
1163={13313 }
1164={13310 }
1165={13307 }
1166={13247 }
1167={6761 }
1168={13311 }
1169={3076 }
1170={6677 }
