state={
	id=1006
	name="STATE_1006"

	history={
		owner = SWE
		add_core_of = SWE
		buildings = {
			infrastructure = 3
		}
		1933.1.1 = {
			buildings = {
				infrastructure = 5
			}
		}
		1944.1.1 = {
			buildings = {
				infrastructure = 6
			}
		}
	}

	provinces={
		3307 6412 
	}
	manpower=300200
	buildings_max_level_factor=1.000
	state_category=rural
}
