state={
	id=1012
	name="STATE_1012"

	history={
		owner = NOR
		add_core_of = NOR
		buildings = {
			infrastructure = 3
		}
		1933.1.1 = {
			buildings = {
				infrastructure = 5
			}
		}
		1944.1.1 = {
			buildings = {
				infrastructure = 6
			}
		}
	}

	provinces={
		27 144 3059 6080 6136 9032 9157 9204 11037 11135 
	}
	manpower=300004
	buildings_max_level_factor=1.000
	state_category=rural
}
