state={
	id=1016
	name="STATE_1016"

	history={
		owner = MAN
		buildings = {
			infrastructure = 1

		}
		add_core_of = MON
		add_core_of = MAN
		1933.1.1 = {
			owner = MON
			remove_core_of = MAN
			buildings = {
				infrastructure = 2

			}
		}

	}

	provinces={
		1791 1834 4882 7676 7717 12579 
	}
	manpower=31000
	buildings_max_level_factor=1.000
	state_category=rural
}
