state={
	id=1022
	name="STATE_1022"

	history={
		owner = MAN
		add_core_of = MAN
		buildings = {
			infrastructure = 2
		}
		1933.1.1 = {
			add_core_of = CHI
			add_core_of = PRC
			buildings = {
				infrastructure = 4
			}
		}

	}

	provinces={
		800 945 3888 3932 3949 6868 6905 6947 9759 9803 9848 9866 11781 
	}
	manpower=1400102
	buildings_max_level_factor=1.000
	state_category=rural
}
