state={
	id=1049
	name="STATE_1049"

	history={
		owner = GER
		add_core_of = GHA
		buildings = {
			infrastructure = 1

		}
		1933.1.1 = {
			owner = ENG
			buildings = {
				infrastructure = 3
			}
		}
	}

	provinces={
		12785 
	}
	manpower=200200
	buildings_max_level_factor=1.000
	state_category=pastoral
}
