state={
	id=1115
	name="STATE_1115"

	history={
		owner = SWE
		add_core_of = SWE
		buildings = {
			infrastructure = 4
		}
		1933.1.1 = {
			buildings = {
				infrastructure = 6
			}
		}
		1944.1.1 = {
			buildings = {
				infrastructure = 7
			}
		}
	}

	provinces={
		171 6310 
	}
	manpower=210011
	buildings_max_level_factor=1.000
	state_category=pastoral
}
