
state={
	id=1139
	name="STATE_1139"

	history={
		owner = TUR
		buildings = {
			infrastructure = 1

		}
		victory_points = {
			3882 5 
		}
		add_core_of = YUG
		add_claim_by = MAC
		add_claim_by = BUL
		add_core_of = TUR
		1933.1.1 = {
			owner = YUG
			remove_core_of = TUR
			remove_core_of = BUL
			buildings = {
				infrastructure = 3

			}

		}

	}

	provinces={
		11832 
	}
	manpower=101000
	buildings_max_level_factor=1.000
	state_category=rural
}
