state={
	id=1164
	name="STATE_1164"

	history={
		owner = SMR
		victory_points = {
			13310 1 
		}
		buildings = {
			infrastructure = 5
		}
		add_core_of = SMR
		add_core_of = ITA
	}

	provinces={
		13310
	}
	manpower=21060
	buildings_max_level_factor=1.000
	state_category = pastoral
}
