
state={
	id=142
	name="STATE_142"
	resources={
		chromium=1.000
		aluminium=15.000
	}

	history={
		owner = NOR
		add_core_of = NOR
		victory_points = {
			53 1 
		}
		victory_points = {
			122 3 
		}
		buildings = {
			infrastructure = 3
			air_base = 1
			53 = {
				naval_base = 1
				coastal_bunker = 1
			}
			122 = {
				naval_base = 2
				coastal_bunker = 1
			}
		}
		1933.1.1 = {
			buildings = {
				infrastructure = 5
				industrial_complex = 1
				air_base = 2
				53 = {
					naval_base = 2
					coastal_bunker = 2

				}
				122 = {
					naval_base = 3
					coastal_bunker = 2

				}
			}
		}
		1944.1.1 = {
			buildings = {
				infrastructure = 7
				industrial_complex = 3
				air_base = 3
				53 = {
					naval_base = 3
					coastal_bunker = 3

				}
				122 = {
					naval_base = 4
					coastal_bunker = 3

				}
			}
		}
	}

	provinces={
		53 65 102 122 137 188 199 3049 3090 3093 3114 3129 3180 3188 3192 6145 6176 6204 6216 9047 9127 9170 9216 11100 11101 11198 11367 
	}
	manpower=500943
	buildings_max_level_factor=1.000
	state_category=town
}
