
state={
	id=152
	name="STATE_152"
	resources={
		steel=5.000
		aluminium=1.000
	}

	history={
		owner = AUS
		buildings = {
			infrastructure = 6
			industrial_complex = 2
		}
		victory_points = {
			9665 3 
		}
		victory_points = {
			732 10 
		}
		add_core_of = AUS
		1944.1.1 = {
			owner = USA
		}
	}

	provinces={
		3684 3703 6708 9665 11651 
	}
	manpower=1225244
	buildings_max_level_factor=1.000
	state_category=large_town
}
