
state={
	id=183
	name="STATE_183"
	resources={
		chromium=3.000
	}

	history={
		owner = ENG
		add_core_of = CYP
		victory_points = {
			7193 3 
		}
		buildings = {
			infrastructure = 2
			7193 = {
				naval_base = 1
			}
		}
		1933.1.1 = {
			buildings = {
				infrastructure = 4
				air_base = 1
				7193 = {
					naval_base = 2
				}
			}
		}
		1944.1.1 = {
			buildings = {
				infrastructure = 5
				air_base = 2
				7193 = {
					naval_base = 3
				}
			}
		}
	}

	provinces={
		7193 
	}
	manpower=193757
	buildings_max_level_factor=1.000
	state_category=pastoral
}
