
state={
	id=196
	name="STATE_196"
	manpower = 728363
	
	state_category = rural
	
	resources={
		chromium=15 # was: 22
	}

	history={
		owner = RUS
		add_core_of = RUS
		add_core_of = UKR
		victory_points = {
			721 1
		}
		buildings = {
			infrastructure = 2
			air_base = 1
		}
		1933.1.1 = {
			owner = SOV
			add_core_of = SOV
			remove_core_of = RUS
			buildings = {
				infrastructure = 4
				air_base = 2
			}
		}
		1944.1.1 = {
			buildings = {
				infrastructure = 5
			}
		}
	}

	provinces={
		568 721 737 767 3573 6771 9712
	}
}
