
state={
	id=220
	name="STATE_220"
	manpower = 1680086
	state_category = city

	history={
		owner = RUS
		victory_points = {
			3580 20
		}
		buildings = {
			infrastructure = 2
			air_base = 1
		}
		add_core_of = RUS
		1933.1.1 = {
			owner = SOV
			add_core_of = SOV
			remove_core_of = RUS
			buildings = {
				infrastructure = 4
			}
		}
	}

	provinces={
		457 558 580 3554 3580 6254 6304 6543 6603 9260 9542 9579 11244 11526 
	}
}
