
state={
	id=236
	name="STATE_236"

	history={
		owner = RUS
		victory_points = {
			9753 3 
		}
		buildings = {
			infrastructure = 2
			air_base = 1

		}
		add_core_of = RUS
		1933.1.1 = {
			owner = SOV
			remove_core_of = RUS
			add_core_of = SOV
			buildings = {
				infrastructure = 3

			}
		}

	}

	provinces={
		618 757 3435 6486 6516 6620 9455 9592 9753 11429 11736 
	}
	manpower=407107
	buildings_max_level_factor=1.000
	state_category=rural
}
