
state={
	id=238
	name="STATE_238"

	history={
		owner = RUS
		buildings = {
			infrastructure = 2

		}
		add_core_of = RUS
		victory_points = {
			775 1 
		}
		1933.1.1 = {
			owner = SOV
			remove_core_of = RUS
			add_core_of = SOV
			buildings = {
				infrastructure = 4
			}
		}

	}

	provinces={
		426 775 3417 3443 3464 3587 3777 3779 6417 6468 6490 6503 6765 6796 9415 9442 9459 9474 9581 11400 11403 11416 
	}
	manpower=556677
	buildings_max_level_factor=1.000
	state_category=rural
}
