
state={
	id=265
	name="STATE_265"

	history={
		owner = RUS
		buildings = {
			infrastructure = 3

		}
		victory_points = {
			487 1 
		}
		add_core_of = RUS
		1933.1.1 = {
			owner = SOV
			remove_core_of = RUS
			add_core_of = SOV
			buildings = {
				infrastructure = 5

			}
		}

	}

	provinces={
		487 518 544 579 3431 3539 3582 6454 6528 6563 6602 9436 9464 9502 11423 11451 11485 11512 11555 
	}
	manpower=468781
	buildings_max_level_factor=1.000
	state_category=rural
}
