
state={
	id=329
	name="STATE_329"
	manpower = 85000
	resources={
		chromium=2 # was: 2
	}
	
	state_category = rural

	history={
		owner = MAN
		add_core_of = MAN
		buildings = {
			infrastructure = 1
		}
		victory_points = {
			10627 3
		}
		add_core_of = TAN
		1933.10.25 = {
			owner = TAN
			remove_core_of = MAN
			add_claim_by = SOV
			buildings = {
				infrastructure = 2
				arms_factory = 1
				industrial_complex = 1
			}
		}
	}

	provinces={
		1676 1877 4680 7703 7731 7804 7819 10597 10627 10646 12610 12625 
	}
}
