
state={
	id=346
	name="STATE_346"

	history={
		owner = TUR
		buildings = {
			infrastructure = 3
			air_base = 5

		}
		victory_points = {
			9861 5 
		}
		victory_points = {
			6807 3 
		}
		victory_points = {
			784 1 
		}
		add_core_of = TUR

	}

	provinces={
		784 869 940 3788 3876 6807 6894 9755 9763 9861 11792 11860 13122 
	}
	manpower=849453
	buildings_max_level_factor=1.000
	state_category=rural
}
