
state={
	id=392
	name="STATE_392"
	manpower = 2470938
	
	state_category = city

	history={
		owner = USA
		add_core_of = USA
		victory_points = {
			1770 3 
		}
		buildings = {
			infrastructure = 5
			industrial_complex = 2
		}
		1933.1.1 = {
			buildings = {
				infrastructure = 6
				industrial_complex = 4
			}
		}
		1944.1.1 = {
			buildings = {
				infrastructure = 7
				industrial_complex = 5
			}
		}
	}

	provinces={
		1586 1678 1770 1831 4691 7306 7458 7539 9892 9910 10478 10666 11788 11971 12418 12646 
	}
}
