
state={
	id=419
	name="STATE_419"

	history={
		owner = PER
		add_core_of = PER
		victory_points = {
			1896 3 
		}
		buildings = {
			infrastructure = 1
		}
		1933.1.1 = {
			buildings = {
				infrastructure = 3
			}
		}
		1944.1.1 = {
			buildings = {
				infrastructure = 4
			}
		}
	}

	provinces={
		1896 2071 4755 4825 12793 12861 13120 
	}
	manpower=1121514
	buildings_max_level_factor=1.000
	state_category=rural
}
