
state={
	id=44
	name="STATE_44"
	resources={
		aluminium=2.000
		chromium=2.000
	}

	history={
		owner = TUR
		victory_points = {
			9914 5 
		}
		victory_points = {
			11767 1 
		}
		buildings = {
			infrastructure = 1
			industrial_complex = 1
			air_base = 1
			11767 = {
				naval_base = 1
			}
		}
		add_core_of = ALB
		1933.1.1 = {
			owner = ALB
			remove_core_of = TUR
			add_claim_by = ITA
			buildings = {
				infrastructure = 2
				arms_factory = 1
				industrial_complex = 2
				air_base = 2
				11767 = {
					naval_base = 2

				}
			}
		}
	}

	provinces={
		3884 3896 9780 9875 9914 11762 11767 
	}
	manpower=961000
	buildings_max_level_factor=1.000
	state_category=town
}
