
state={
	id=443
	name="STATE_443"

	history={
		owner = RAJ
		buildings = {
			infrastructure = 3
		}
		1933.1.1 = {
			buildings = {
				infrastructure = 5
			}
		}
		1944.1.1 = {
			owner = PAK
			add_core_of = PAK
			buildings = {
				infrastructure = 6
			}
		}
	}

	provinces={
		1147 1971 1980 4003 4110 4382 7084 
	}
	manpower=2357000
	buildings_max_level_factor=1.000
	state_category=pastoral
}
