
state={
	id=522
	name="STATE_522"

	history={
		owner = AST
		add_core_of = AST
		buildings = {
			infrastructure = 3
			air_base = 1
			1652 = {
				naval_base = 1
			}
		}
		1933.1.1 = {
			buildings = {
				infrastructure = 5
				industrial_complex = 1
				air_base = 2
				1652 = {
					naval_base = 2
					coastal_bunker = 1
				}
			}
		}
		1944.1.1 = {
			buildings = {
				infrastructure = 7
				industrial_complex = 3
				air_base = 3
				1652 = {
					naval_base = 3
					coastal_bunker = 2
				}
			}
		}
		victory_points = {
			1652 3 
		}
	}

	provinces={
		1498 1511 1540 1652 2157 4630 4645 5125 5170 5175 7453 7579 7608 8130 8228 8243 10950 10971 10983 12323 
	}
	manpower=367200
	buildings_max_level_factor=1.000
	state_category=rural
}
