
state={
	id=544
	name="STATE_544"

	history={
		owner = POR
		add_core_of = MZB
		buildings = {
			infrastructure = 3
			industrial_complex = 1
			8245 = {
				naval_base = 1
			}
		}
		victory_points = {
			8245 1 
		}
	}

	provinces={
		2120 2180 2193 5155 5164 5177 5212 8245 12935 12950 12971 
	}
	manpower=3513000
	buildings_max_level_factor=1.000
	state_category=rural
}
