state={
	id=606
	name="STATE_606"
	resources={
		steel=11.000
	}

	history={
		owner = MAN
		add_core_of = CHI
		buildings = {
			infrastructure = 2

		}
		victory_points = {
			7222 1 
		}
		add_core_of = MAN
		1933.1.1 = {
			owner = CHI
			remove_core_of = MAN
			add_core_of = PRC
			buildings = {
				infrastructure = 4
				industrial_complex = 1
			}
		}

	}

	provinces={
		1083 1146 4079 4158 4203 7035 7094 7222 9937 10008 10017 10040 10064 10079 11916 11994 12036 12061 
	}
	manpower=18265400
	buildings_max_level_factor=1.000
	state_category=town
}
