
state={
	id=607
	name="STATE_607"

	history={
		owner = MAN
		add_core_of = CHI
		buildings = {
			infrastructure = 2
			industrial_complex = 1

		}
		victory_points = {
			9958 1 
		}
		add_core_of = MAN
		1933.1.1 = {
			owner = CHI
			remove_core_of = MAN
			add_core_of = PRC
			buildings = {
				infrastructure = 5
				industrial_complex = 2
			}
		}

	}

	provinces={
		1004 1603 4010 4066 4519 4547 6932 7085 7126 7129 7459 7508 7540 7568 7656 9958 9995 10098 10364 10434 10446 11931 12012 12426 
	}
	manpower=31265800
	buildings_max_level_factor=1.000
	state_category=town
}
