
state={
	id=608
	name="STATE_608"
	manpower = 9648400
	
	state_category = large_city

	history={
		owner = MAN
		add_core_of = MAN
		add_core_of = CHI
		buildings = {
			infrastructure = 3
			industrial_complex = 1
			air_base = 2
			10068 = {
				naval_base = 1
			}
		}
		victory_points = {
			9843 20
		}
		victory_points = {
			10068 1 
		}

		1933.10.25 = {
			owner = CHI
			remove_core_of = MAN
			add_core_of = PRC
			buildings = {
				infrastructure = 5
				industrial_complex = 2
				air_base = 3
				10068 = {
					naval_base = 2
				}
			}
		}
	}

	provinces={
		1134 4137 4140 6828 9843 9969 10068 11761 12026 
	}
}
