
state={
	id=662
	name="STATE_662"

	history={
		owner = TUR
		buildings = {
			infrastructure = 1
		}
		add_core_of = LBA
		1933.1.1 = {
			owner = ITA
		}
		1944.1.1 = {
			owner = ENG
		}
	}

	provinces={
		1041 4047 7136 7194 10046 10117 12866 13073 
	}
	manpower=13213
	buildings_max_level_factor=1.000
	state_category=wasteland
}
