
state={
	id=663
	name="STATE_663"

	history={
		owner = TUR
		buildings = {
			infrastructure = 0

		}
		add_core_of = LBA
		1933.1.1 = {
			owner = ITA
			buildings = {
				infrastructure = 1
			}
		}
		1944.1.1 = {
			owner = ENG
			buildings = {
				infrastructure = 2
			}
		}
	}

	provinces={
		1062 1140 1186 4060 4063 4133 7063 7139 7206 9977 10049 10785 11951 12025 12079 13078 
	}
	manpower=8808
	buildings_max_level_factor=1.000
	state_category=wasteland
}
