
state={
	id=677
	name="STATE_677"

	history={
		owner = TUR
		victory_points = {
			12473 3 
		}
		victory_points = {
			1056 1 
		}
		buildings = {
			infrastructure = 1

		}
		add_core_of = SAU
		add_core_of = TUR
		1933.1.1 = {
			owner = FRA
			add_core_of = SYR
			remove_core_of = SAU
			remove_core_of = TUR
			buildings = {
				infrastructure = 2
			}
		}

	}

	provinces={
		1056 1072 1088 7140 7671 10087 12473 
	}
	manpower=1284581
	buildings_max_level_factor=1.000
	state_category=town
}
