
state={
	id=678
	name="STATE_678"

	impassable = yes

	history={
		owner = SAU
		buildings = {
			infrastructure = 0
		}
		add_core_of = SAU
	}

	provinces={
		8118 12740 12768 
	}
	manpower=42
	buildings_max_level_factor=1.000
	state_category=wasteland
}
