
state={
	id=687
	name="STATE_687"
	resources={
		aluminium=64.000
	}

	history={
		add_core_of = GYA
		owner = ENG
		victory_points = {
			4982 1 
		}
		buildings = {
			infrastructure = 2
			4982 = {
				naval_base = 1
			}
		}
	}

	provinces={
		4982 8107 
	}
	manpower=207000
	buildings_max_level_factor=1.000
	state_category=pastoral
}
