
state={
	id=721
	name="STATE_721"
	manpower = 455604
	
	state_category = pastoral

	history={
		owner = POR
		add_core_of = ETM
		victory_points = {
			12190 1
		}

		buildings = {
			infrastructure = 2
			12190 ={
				naval_base = 1
			}
		}
	}

	provinces={
		1326 12178 12190 12206 13001 
	}
}
