state={
	id=744
	name="STATE_744"
	provinces={
		1976 2006 4167 4256 4295 5092 7301 7406 7418 10257 12713 
	}

	history={
		owner = MAN
		add_core_of = CHI
		victory_points = {
			7418 1 
		}
		buildings = {
			infrastructure = 1
		}
		add_core_of = MAN
		1933.1.1 = {
			owner = CHI
			remove_core_of = MAN
			add_core_of = PRC
			buildings = {
				infrastructure = 3
			}
		}

	}
	manpower=9000000
	buildings_max_level_factor=1.000
	state_category = town
}
