
state={
	id=763
	name="STATE_763"
	manpower = 2140234
	state_category = city

	history={
		owner = GER
		controller = GER
		
		victory_points = {
			6332 10 
		}
		victory_points = {
			348 5 
		}

		buildings = {
			infrastructure = 2
			industrial_complex = 1
			6332 = { bunker = 1 }
			6332 = { naval_base = 3 }
			air_base = 3
		}
		add_core_of = GER
		1933.1.1 = {
			buildings = {
				infrastructure = 3
				industrial_complex = 2
				anti_air_building = 2
				6332 = { naval_base = 5 }
				air_base = 5
			}
		}
	}

	provinces={
		281 348 395 3384 6332 11265
	}
}
