
state={
	id=77
	name="STATE_77"
	manpower = 378000
	
	state_category = rural

	history={
		victory_points = {
			11597 1
		}
		owner = BUL
		buildings = {
			infrastructure = 3
			industrial_complex = 1
		}
		add_core_of = BUL
		add_claim_by = ROM
		1933.1.1 = {
			owner = ROM
			buildings = {
				infrastructure = 5
				industrial_complex = 2
			}
			add_core_of = ROM
			remove_claim_by = ROM
			remove_core_of = BUL
			add_claim_by = BUL
		}
	}

	provinces={
		9614 11597 
	}
}
