
state={
	id=785
	name="STATE_785"
	resources={
		steel=20.000
		aluminium=4.000
	}

	history={
		victory_points = {
			11420 5 
		}
		owner = FRA
		add_core_of = FRA
		buildings = {
			infrastructure = 6
		}
		1933.1.1 = {
			buildings = {
				infrastructure = 8
				industrial_complex = 1
			}
		}
		1944.1.1 = {
			buildings = {
				industrial_complex = 3
			}
		}
	}

	provinces={
		454 3402 6585 9561 11420 11549 
	}
	manpower=1580000
	buildings_max_level_factor=1.000
	state_category=town
}
