
state={
	id=803
	name="STATE_803"

	history={
		owner = BUL
		victory_points = {
			11868 1 
		}
		buildings = {
			infrastructure = 4

		}
		add_core_of = YUG
		add_core_of = BUL
		1933.1.1 = {
			owner = YUG
			remove_core_of = BUL
			buildings = {
				infrastructure = 2
				industrial_complex = 1
				air_base = 1

			}

		}

	}

	provinces={
		11857 11868 
	}
	manpower=210000
	buildings_max_level_factor=1.000
	state_category=pastoral
}
