state={
	id=848
	name="STATE_848"

	history={
		owner = USA
		add_core_of = USA
		buildings = {
			infrastructure = 3
		}
	}

	provinces={
		4586 
	}
	manpower=30225
	buildings_max_level_factor=1.000
	state_category=pastoral
}
