state={
	id=952
	name="STATE_952"

	history={
		owner = ENG
		add_core_of = CYP
		victory_points = {
			11984 5 
		}
		buildings = {
			infrastructure = 2
		}
	}

	provinces={
		11984 
	}
	manpower=154202
	buildings_max_level_factor=1.000
	state_category=pastoral
}
