
state={
	id=953
	name="STATE_953"

	history={
		owner = TUR
		victory_points = {
			3951 1 
		}
		buildings = {
			infrastructure = 4

		}
		add_core_of = TUR

	}

	provinces={
		3907 3951 6808 11831 
	}
	manpower=140024
	buildings_max_level_factor=1.000
	state_category=rural
}
