technologies = {
	#Электрика - изучение радиотехники, разведки, бонусы к производительности
	electrical_engineering = {

		# small boost to research speed
		research_speed_factor = 0.02
		
		path = {
			leads_to_tech = radio 
			research_cost_coeff = 1
		}
		path = {
			leads_to_tech = analytical_engine
			research_cost_coeff = 1
		}
		
		research_cost = 1
		start_year = 1900
		folder = {
			name = electronics_folder
			position = { x = 0 y = 0 }
		}
		
		ai_will_do = {
			factor = 30
			modifier = {
				factor = 3
				date > "1914.1.1"
			}
		}		
		categories = {
			electronics
		}
	}
	
	radio = { #Базовая радиотехника.
		land_reinforce_rate = 0.02	
		path = {
			leads_to_tech = amplitude_modulation
			research_cost_coeff = 1
		}	
		research_cost = 1.25	
		start_year = 1912
		
		folder = {
			name = electronics_folder
			position = { x = -2 y = 2 }
		}
		
		folder = {
			name = support_folder
			position = { x = 12 y = 2 } # x = 12 y = 0
		}
		
		ai_will_do = {
			factor = 3
			modifier = {
				factor = 6
				has_war = yes
			}
			modifier = {
				is_major = yes
				factor = 2
			}
		}		
		categories = {
			electronics
		}
	}
	amplitude_modulation = { #Сигнал теперь может передавать голос
		land_reinforce_rate = 0.02	
		path = {
			leads_to_tech = advanced_radio
			research_cost_coeff = 1
		}	
		research_cost = 1.5
		start_year = 1914
		
		folder = {
			name = electronics_folder
			position = { x = -2 y = 4 }
		}
		
		ai_will_do = {
			factor = 3
			modifier = {
				factor = 6
				has_war = yes
			}
			modifier = {
				is_major = yes
				factor = 2
			}
			modifier = {
				date < 1913.1.1
				factor = 0
			}
		}		
		categories = {
			electronics
		}
	}
	advanced_radio = { #Cупергетеродинный радиоприёмник, с улучшенным усилением сигнала.
		land_reinforce_rate = 0.02	
		path = {
			leads_to_tech = radio_detection
			research_cost_coeff = 1
		}	
		research_cost = 1.5
		start_year = 1918
		
		folder = {
			name = electronics_folder
			position = { x = -2 y = 6 }
		}
		
		ai_will_do = {
			factor = 3
			modifier = {
				factor = 6
				has_war = yes
			}
			modifier = {
				is_major = yes
				factor = 2
			}
			modifier = {
				date < 1917.1.1
				factor = 0
			}
		}		
		categories = {
			electronics
		}
	}

	# механические компьютеры
	analytical_engine = {	#Механическая аналитическая машина - возможность программировать устройство.
		research_speed_factor = 0.02		
		path = {
			leads_to_tech = electromechanical_adding_machine
			research_cost_coeff = 1
		}	
		path = {
			leads_to_tech = early_fire_control_system
			research_cost_coeff = 1
		}
		path = {
			leads_to_tech = basic_cryptography
			research_cost_coeff = 1
		}
		path = {
			leads_to_tech = basic_cryptanalysis
			research_cost_coeff = 1
		}	
		research_cost = 2.5
		start_year = 1912
		folder = {
			name = electronics_folder
			position = { x = 2 y = 2 }
		}	
		ai_will_do = {
			factor = 7
		}		
		categories = {
			electronics
			computing_tech
		}
	}
	electromechanical_adding_machine = {	#электромеханические арифмометры 
		research_speed_factor = 0.02
		start_year = 1918
		research_cost = 2.5		
		folder = {
			name = electronics_folder
			position = { x = 2 y = 6 }
		}
		path = {
			leads_to_tech =  differential_analyzer
			research_cost_coeff = 1
		}
		ai_will_do = {
			factor = 7
			modifier = {
				date < 1917.1.1
				factor = 0
			}
		}		
		categories = {
			electronics
			computing_tech
		}
	}
	differential_analyzer = {	#Аналоговый компьютер
		research_speed_factor = 0.04
		start_year = 1928
		research_cost = 2.5		
		folder = {
			name = electronics_folder
			position = { x = 2 y = 8 }
		}
		path = {
			leads_to_tech =  basic_electronic_engineering
			research_cost_coeff = 1
		}
		ai_will_do = {
			factor = 7
			modifier = {
				date < 1928.1.1
				factor = 0
			}
		}		
		categories = {
			electronics
			computing_tech
		}
	}
	basic_electronic_engineering = {
		research_speed_factor = 0.04
		production_speed_radar_station_factor = 0.1
		start_year = 1930
		research_cost = 2.5		
		folder = {
			name = electronics_folder
			position = { x = 2 y = 10 }
		}
		path = {
			leads_to_tech = electronic_mechanical_engineering 
			research_cost_coeff = 1
		}
		ai_will_do = {
			factor = 7
		}		
		categories = {
			electronics
			computing_tech
		}
	}
	
	
	# Шифрование/кодирование
	basic_cryptography = {
		encryption = 1
		allow_branch = {
			NOT = { has_dlc = "La Resistance" }
		}
		research_cost = 1.25
		start_year = 1914	
		folder = {
			name = electronics_folder
			position = { x = 4 y = 4 }
		}
		path = {
			leads_to_tech =  advanced_cryptography
			research_cost_coeff = 1
		}		
		ai_will_do = {
			factor = 1.5
			modifier = {
				has_war = yes
				factor = 3
			}
			modifier = {
				num_of_military_factories < 50
				factor = 1.5 # not a major
			}
			modifier = {
				factor = 3
				tag = GER
			}
			modifier = {
				factor = 3
				tag = RUS
			}
			modifier = {
				date < 1914.1.1
				factor = 0
			}
		}	
		categories = {
			electronics
			encryption_tech
		}
	}
	advanced_cryptography = {
		encryption = 1
		allow_branch = {
			NOT = { has_dlc = "La Resistance" }
		}
		research_cost = 1.25
		start_year = 1918	
		folder = {
			name = electronics_folder
			position = { x = 4 y = 6 }
		}
		path = {
			leads_to_tech =  encryption_machine
			research_cost_coeff = 1
		}		
		ai_will_do = {
			factor = 1.5
			modifier = {
				has_war = yes
				factor = 3
			}
			modifier = {
				num_of_military_factories < 50
				factor = 1.5 # not a major
			}
			modifier = {
				factor = 3
				tag = GER
			}
			modifier = {
				factor = 3
				tag = RUS
			}
		}	
		categories = {
			electronics
			encryption_tech
		}
	}
	encryption_machine = {
		encryption = 1
		allow_branch = {
			NOT = { has_dlc = "La Resistance" }
		}
		research_cost = 1.25
		start_year = 1924	
		folder = {
			name = electronics_folder
			position = { x = 4 y = 8 }
		}	
		ai_will_do = {
			factor = 2
			modifier = {
				has_war = yes
				factor = 3
			}
			modifier = {
				num_of_military_factories < 50
				factor = 1.5 # not a major
			}
			modifier = {
				factor = 3
				tag = GER
			}
			modifier = {
				factor = 3
				tag = RUS
			}
		}	
		categories = {
			electronics
			encryption_tech
		}
	}
	basic_cryptanalysis = {
		decryption = 1
		allow_branch = {
			NOT = { has_dlc = "La Resistance" }
		}
		research_cost = 1.5
		start_year = 1914
		
		folder = {
			name = electronics_folder
			position = { x = 6 y = 4 }
		}
		path = {
			leads_to_tech =  advanced_cryptanalysis
			research_cost_coeff = 1
		}		
		ai_will_do = {
			factor = 1.75
			modifier = {
				num_of_military_factories < 50
				factor = 1.5 # not a major
			}
			modifier = {
				factor = 3
				tag = GER
			}
			modifier = {
				factor = 3
				tag = RUS
			}
			modifier = {
				factor = 3
				tag = ENG
			}
			modifier = {
				date < 1914.1.1
				factor = 0
			}
		}		
		categories = {
			electronics
			decryption_tech
		}
	}
	advanced_cryptanalysis = {
		decryption = 1
		allow_branch = {
			NOT = { has_dlc = "La Resistance" }
		}
		research_cost = 1.5
		start_year = 1918
		
		folder = {
			name = electronics_folder
			position = { x = 6 y = 6 }
		}
		path = {
			leads_to_tech =  decryption_machine
			research_cost_coeff = 1
		}		
		ai_will_do = {
			factor = 1.75
			modifier = {
				num_of_military_factories < 50
				factor = 1.5 # not a major
			}
			modifier = {
				factor = 3
				tag = GER
			}
			modifier = {
				factor = 3
				tag = RUS
			}
			modifier = {
				factor = 3
				tag = ENG
			}
		}		
		categories = {
			electronics
			decryption_tech
		}
	}
	decryption_machine = {
		decryption = 1
		allow_branch = {
			NOT = { has_dlc = "La Resistance" }
		}
		research_cost = 1.75
		start_year = 1924
		
		folder = {
			name = electronics_folder
			position = { x = 6 y = 8 }
		}	
		ai_will_do = {
			factor = 1.75
			modifier = {
				num_of_military_factories < 50
				factor = 1.5 # not a major
			}
			modifier = {
				factor = 3
				tag = GER
			}
			modifier = {
				factor = 3
				tag = RUS
			}
			modifier = {
				factor = 3
				tag = ENG
			}
		}		
		categories = {
			electronics
			decryption_tech
		}
	}
	
	early_fire_control_system = {	#Аналоговая система управления огнем. Нужен аналоговый компьютер
		allow_branch = {
			has_dlc = "Man the Guns"
		}

		enable_equipment_modules = { 
			ship_fire_control_system_0
		}
		
		research_cost = 2
		
		folder = {
			name = electronics_folder
			position = { x = 0 y = 4 }
		}		
		ai_will_do = {
			factor = 0.75
			modifier = {
				OR = {
					tag = ENG
					tag = USA
					tag = JAP
				}
				factor = 3
			}
		}		
		categories = {
			electronics
			computing_tech
			naval_equipment
		}
	}

	#Механика - изобретения, которые открывают доступ к транспорту
	mechanical_engineering = {
		path = {
			leads_to_tech = aircraft_engine
			research_cost_coeff = 1
		}
		path = {
			leads_to_tech = tank_design
			research_cost_coeff = 1
		}
		path = {
			leads_to_tech = generator_battery
			research_cost_coeff = 1
		}	
		on_research_complete = {		
			custom_effect_tooltip = UNLOCK_VEHICLE
		}
		research_cost = 1
		start_year = 1900
		folder = {
			name = electronics_folder
			position = { x = 10 y = 0 }
		}	
		ai_will_do = {
			factor = 5000
			modifier = {
				factor = 3
				date > "1914.1.1"
			}
		}		
		categories = {
			electronics
			motorized_equipment
			armor
		}
	}
	aircraft_engine = {
		research_speed_factor = 0.01
		on_research_complete = {		
			custom_effect_tooltip = UNLOCK_AIRCRAFT
		}
		research_cost = 1
		start_year = 1910
		folder = {
			name = electronics_folder
			position = { x = 12 y = 2 }
		}
		path = {
			leads_to_tech = turbocharger
			research_cost_coeff = 1
		}
		ai_will_do = {
			factor = 30
			modifier = {
				factor = 5000
				date > "1912.1.1"
			}
		}		
		categories = {
			electronics
			air_equipment
		}
	}
	turbocharger = {
		research_speed_factor = 0.01
		on_research_complete = {		
			custom_effect_tooltip = UNLOCK_AIRCRAFT2
		}
		research_cost = 1
		start_year = 1918
		folder = {
			name = electronics_folder
			position = { x = 12 y = 6 }
		}		
		ai_will_do = {
			factor = 1
			modifier = {
				factor = 30
				date > "1918.1.1"
			}
			modifier = {
				date < 1917.1.1
				factor = 0
			}
		}
		path = {
			leads_to_tech = advanced_aircraft_design
			research_cost_coeff = 1
		}		
		categories = {
			electronics
			air_equipment
		}
	}
	advanced_aircraft_design = {
		category_fighter = {
			build_cost_ic = -0.05
		}
		XOR = {
			tank_design_standartization_and_unification
		}
		research_cost = 1
		start_year = 1924
		folder = {
			name = electronics_folder
			position = { x = 12 y = 8 }
		}		
		ai_will_do = {
			factor = 2
			modifier = {
				factor = 1
				date > "1924.1.1"
			}
		}	
		categories = {
			electronics
			air_equipment
		}
	}
	tank_design = {
		research_speed_factor = 0.01
		on_research_complete = {		
			custom_effect_tooltip = UNLOCK_TANKS
		}
		research_cost = 1
		start_year = 1914
		folder = {
			name = electronics_folder
			position = { x = 10 y = 4 }
		}
		path = {
			leads_to_tech = tank_classification
			research_cost_coeff = 1
		}		
		ai_will_do = {
			factor = 75
			modifier = {
				factor = 0
				date < 1914.1.1
			}
		}		
		categories = {
			electronics
			armor
		}
	}
	tank_classification = {
		research_speed_factor = 0.01
		on_research_complete = {		
			custom_effect_tooltip = UNLOCK_TANKS2
		}
		research_cost = 1
		start_year = 1918
		folder = {
			name = electronics_folder
			position = { x = 10 y = 6 }
		}
		path = {
			leads_to_tech = tank_design_standartization_and_unification
			research_cost_coeff = 1
		}		
		ai_will_do = {
			factor = 1
			modifier = {
				factor = 30
				date > "1918.1.1"
			}
			modifier = {
				date < 1917.1.1
				factor = 0
			}
		}		
		categories = {
			electronics
			armor
		}
	}
	tank_design_standartization_and_unification = {
		category_tanks = {
			build_cost_ic = -0.05
		}
		XOR = {
			advanced_aircraft_design
		}
		research_cost = 1
		start_year = 1924
		folder = {
			name = electronics_folder
			position = { x = 10 y = 8 }
		}		
		ai_will_do = {
			factor = 2
			modifier = {
				factor = 1
				date > "1924.1.1"
			}
		}	
		categories = {
			electronics
			armor
		}
	}
	generator_battery = {
		research_speed_factor = 0.01
		on_research_complete = {		
			custom_effect_tooltip = UNLOCK_SUBMARINE
		}
		research_cost = 1
		start_year = 1910
		folder = {
			name = electronics_folder
			position = { x = 14 y = 2 }
		}
		path = {
			leads_to_tech = advanced_generator
			research_cost_coeff = 1
		}	
		ai_will_do = {
			factor = 30
			modifier = {
				factor = 5000
				date > "1911.1.1"
			}
		}		
		categories = {
			electronics
			naval_equipment
		}
	}
	advanced_generator = {
		research_speed_factor = 0.01
		on_research_complete = {		
			custom_effect_tooltip = UNLOCK_SUBMARINE2
		}
		research_cost = 1
		start_year = 1918
		folder = {
			name = electronics_folder
			position = { x = 14 y = 6 }
		}
		ai_will_do = {
			factor = 10
			modifier = {
				factor = 75
				date > "1918.1.1"
			}
			modifier = {
				date < 1917.1.1
				factor = 0
			}
		}		
		categories = {
			electronics
			naval_equipment
		}
	}

	electronic_mechanical_engineering = {

		# small boost to research speed
		research_speed_factor = 0.03
		
		path = {
			leads_to_tech = mechanical_computing 
			research_cost_coeff = 1
		}

		enable_equipment_modules = { 
			ship_fire_control_system_0
		}
		
		research_cost = 1
		start_year = 1936		
		folder = {
			name = electronics_folder
			position = { x = 2 y = 12 }
		}
		ai_will_do = {
			factor = 30
			
			
			modifier = {
				factor = 3
				date > "1937.1.1"
			}
		}
		
		categories = {
			electronics
		}
		

	}
	
	radio_detection = {

		# 
		enable_building = {
			building = radar_station
			level = 1
		}
		
		path = {
			leads_to_tech = decimetric_radar 
			research_cost_coeff = 1
		}
		
		research_cost = 1.5
		start_year = 1936
		
		folder = {
			name = electronics_folder
			position = { x = -2 y = 14 }
		}
		
		ai_will_do = {
			factor = 1
			modifier = {
				tag = USA
				factor = 4
			}
		}
		
		categories = {
			electronics
			radar_tech
		}
	}
	
	decimetric_radar = {

		# can build radars/radar boost in air/sea combat depends on radar level

		path = {
			leads_to_tech = improved_decimetric_radar 
			research_cost_coeff = 1
		}
		
		research_cost = 1.5
		start_year = 1938
		enable_equipment_modules = { 
			ship_radar_1
		}
		folder = {
			name = electronics_folder
			position = { x = -2 y = 16 }
		}
		
		ai_will_do = {
			factor = 1
			modifier = {
				OR = {
					tag = ENG
					tag = USA
				}
				factor = 5
			}
			modifier = {
				date < "1937.6.1"
				factor = 0
			}
		}
		
		categories = {
			electronics
			radar_tech
		}
		
		enable_building = {
			building = radar_station
			level = 2
		}
	}
	
	improved_decimetric_radar = {

		# radar boost in air/sea combat depends on radar level
		enable_building = {
			building = radar_station
			level = 3
		}
		
		enable_equipment_modules = { 
			ship_radar_2
		}

		path = {
			leads_to_tech = centimetric_radar 
			research_cost_coeff = 1
		}
		
		research_cost = 2
		start_year = 1939
		
		folder = {
			name = electronics_folder
			position = { x = -2 y = 18 }
		}
		
		ai_will_do = {
			factor = 1
			modifier = {
				OR = {
					tag = ENG
					tag = USA
				}
				factor = 5
			}
			modifier = {
				date < "1938.6.1"
				factor = 0
			}
		}
		
		categories = {
			electronics
			radar_tech
		}
	}
	
	centimetric_radar = {

		# radar boost in air/sea combat depends on radar level
		enable_building = {
			building = radar_station
			level = 4
		}

		enable_equipment_modules = { 
			ship_radar_3
		}

		static_anti_air_hit_chance_factor = 0.2
		
		path = {
			leads_to_tech = improved_centimetric_radar 
			research_cost_coeff = 1
		}
		
		research_cost = 2.5
		start_year = 1940
		
		folder = {
			name = electronics_folder
			position = { x = -2 y = 20 }
		}
		
		ai_will_do = {
			factor = 1
			modifier = {
				OR = {
					tag = ENG
					tag = USA
				}
				factor = 4
			}
			modifier = {
				date < "1939.6.1"
				factor = 0
			}
		}
		
		categories = {
			electronics
			radar_tech
		}
	}
	
	improved_centimetric_radar = {

		# radar boost in air/sea combat depends on radar level
		enable_building = {
			building = radar_station
			level = 5
		}

		

		static_anti_air_hit_chance_factor = 0.2
		
		path = {
			leads_to_tech = advanced_centimetric_radar 
			research_cost_coeff = 1
		}
		
		research_cost = 2.5
		start_year = 1941
		
		folder = {
			name = electronics_folder
			position = { x = -2 y = 22 }
		}
		
		ai_will_do = {
			factor = 1
			modifier = {
				OR = {
					tag = ENG
					tag = USA
				}
				factor = 4
			}
			modifier = {
				date < "1940.6.1"
				factor = 0
			}
		}
		
		categories = {
			electronics
			radar_tech
		}
	}
	
	advanced_centimetric_radar = {

		# radar boost in air/sea combat depends on radar level
		enable_building = {
			building = radar_station
			level = 6
		}
		path = {
			leads_to_tech = radar55 
			research_cost_coeff = 1
		}
		enable_equipment_modules = { 
			ship_radar_4
		}		
		static_anti_air_hit_chance_factor = 0.2
		
		research_cost = 2.5
		start_year = 1942
		
		folder = {
			name = electronics_folder
			position = { x = -2 y = 24 }
		}
		
		ai_will_do = {
			factor = 1
			modifier = {
				OR = {
					tag = ENG
					tag = USA
				}
				factor = 5
			}
			modifier = {
				date < "1941.6.1"
				factor = 0
			}
		}
		
		categories = {
			electronics
			radar_tech
		}
	}
	radar55 = {
		static_anti_air_hit_chance_factor = 0.2
		path = {
			leads_to_tech = radar60 
			research_cost_coeff = 1
		}
		enable_equipment_modules = { 
			ship_radar_5
		}		
		research_cost = 2.5
		start_year = 1955
		
		folder = {
			name = electronics_folder
			position = { x = -2 y = 30 }
		}
		
		ai_will_do = {
			factor = 1
			modifier = {
				OR = {
					tag = ENG
					tag = USA
				}
				factor = 5
			}
			modifier = {
				date < "1952.6.1"
				factor = 0
			}
		}
		
		categories = {
			electronics
			radar_tech
		}
	}
	radar60 = {

		enable_equipment_modules = { 
			ship_radar_6
		}
		
		static_anti_air_hit_chance_factor = 0.2
		path = {
			leads_to_tech = radar70 
			research_cost_coeff = 1
		}	
		research_cost = 2.5
		start_year = 1960
		
		folder = {
			name = electronics_folder
			position = { x = -2 y = 34 }
		}
		
		ai_will_do = {
			factor = 1
			modifier = {
				OR = {
					tag = ENG
					tag = USA
				}
				factor = 5
			}
			modifier = {
				date < "1957.6.1"
				factor = 0
			}
		}
		
		categories = {
			electronics
			radar_tech
		}
	}
	radar70 = {

		enable_equipment_modules = { 
			ship_radar_7
		}
		
		static_anti_air_hit_chance_factor = 0.2
		path = {
			leads_to_tech = radar80 
			research_cost_coeff = 1
		}	
		research_cost = 2.5
		start_year = 1970
		
		folder = {
			name = electronics_folder
			position = { x = -2 y = 38 }
		}
		
		ai_will_do = {
			factor = 1
			modifier = {
				OR = {
					tag = ENG
					tag = USA
				}
				factor = 5
			}
			modifier = {
				date < "1967.6.1"
				factor = 0
			}
		}
		
		categories = {
			electronics
			radar_tech
		}
	}
	radar80 = {

		static_anti_air_hit_chance_factor = 0.2
		path = {
			leads_to_tech = radar90 
			research_cost_coeff = 1
		}
		enable_equipment_modules = { 
			ship_radar_8
		}		
		research_cost = 2.5
		start_year = 1980
		
		folder = {
			name = electronics_folder
			position = { x = -2 y = 42 }
		}
		
		ai_will_do = {
			factor = 1
			modifier = {
				OR = {
					tag = ENG
					tag = USA
				}
				factor = 5
			}
			modifier = {
				date < "1977.6.1"
				factor = 0
			}
		}
		
		categories = {
			electronics
			radar_tech
		}
	}
	radar90 = {

		enable_equipment_modules = { 
			ship_radar_9
		}
		
		static_anti_air_hit_chance_factor = 0.2		
		research_cost = 2.5
		start_year = 1990	
		folder = {
			name = electronics_folder
			position = { x = -2 y = 46 }
		}
		
		ai_will_do = {
			factor = 1
			modifier = {
				OR = {
					tag = ENG
					tag = USA
				}
				factor = 5
			}
			modifier = {
				date < "1987.6.1"
				factor = 0
			}
		}
		
		categories = {
			electronics
			radar_tech
		}
	}
	mechanical_computing = {

		# small boost to research speed
		research_speed_factor = 0.04
		
		path = {
			leads_to_tech = computing_machine 
			research_cost_coeff = 1
		}

		path = {
			leads_to_tech = basic_fire_control_system
			research_cost_coeff = 1
		}
		
		research_cost = 2.5
		start_year = 1936
		
		folder = {
			name = electronics_folder
			position = { x = 2 y = 14 }
		}
		
		ai_will_do = {
			factor = 7
		}
		
		categories = {
			electronics
			computing_tech
		}
	}
	
	computing_machine = {

		# small boost to research speed
		research_speed_factor = 0.05
		
		path = {
			leads_to_tech = improved_computing_machine 
			research_cost_coeff = 1
		}
		path = {
			leads_to_tech = basic_encryption 
			research_cost_coeff = 1
		}
		path = {
			leads_to_tech = basic_decryption 
			research_cost_coeff = 1
		}
		path = {
			leads_to_tech = improved_fire_control_system
			research_cost_coeff = 1
		}
		research_cost = 2.5
		start_year = 1938
		
		folder = {
			name = electronics_folder
			position = { x = 2 y = 16 }
		}
		
		ai_will_do = {
			factor = 6
			
			modifier = {
				factor = 3
				date > "1938.1.6"
			}
			
			modifier = {
				factor = 3
				date > "1939.1.1"
			}
			modifier = {
				date < "1937.6.1"
				factor = 0
			}
		}
		
		categories = {
			electronics
			encryption_tech
			decryption_tech
			computing_tech
		}
	}
	
	improved_computing_machine = {

		# small boost to research speed
		research_speed_factor = 0.08
		
		path = {
			leads_to_tech = advanced_computing_machine 
			research_cost_coeff = 1
		}
		path = {
			leads_to_tech = improved_encryption 
			research_cost_coeff = 1
		}
		path = {
			leads_to_tech = improved_decryption 
			research_cost_coeff = 1
		}

		path = {
			leads_to_tech = advanced_fire_control_system
			research_cost_coeff = 1
		}
		
		research_cost = 2.5
		start_year = 1940
		
		folder = {
			name = electronics_folder
			position = { x = 2 y = 20 }
		}
		
		ai_will_do = {
			factor = 3
			
			modifier = {
				factor = 3
				date > "1940.1.6"
			}
			
			modifier = {
				factor = 3
				date > "1941.1.1"
			}

			modifier = {
				date < "1939.6.1"
				factor = 0
			}

			modifier = {
				factor = 2
				tag = GER
			}
		}
		
		categories = {
			electronics
			encryption_tech
			decryption_tech
			computing_tech
		}
	}
	
	advanced_computing_machine = {

		# small boost to research speed
		research_speed_factor = 0.08
		
		path = {
			leads_to_tech = advanced_encryption 
			research_cost_coeff = 1
		}
		path = {
			leads_to_tech = advanced_decryption 
			research_cost_coeff = 1
		}
		path = {
			leads_to_tech = basic_vacuum_computer 
			research_cost_coeff = 1
		}
		
		research_cost = 2.5
		start_year = 1942
		
		folder = {
			name = electronics_folder
			position = { x = 2 y = 24 }
		}
		
		ai_will_do = {
			factor = 3
			
			modifier = {
				factor = 3
				date > "1942.1.6"
			}
			
			modifier = {
				factor = 3
				date > "1943.1.1"
			}

			modifier = {
				date < "1941.6.1"
				factor = 0
			}
		}
		
		categories = {
			electronics
			encryption_tech
			decryption_tech
			computing_tech
		}
	}
	
	basic_encryption = {

		# encryption 1
		encryption = 1
		allow_branch = {
			NOT = { has_dlc = "La Resistance" }
		}		
		research_cost = 1
		start_year = 1938
		
		folder = {
			name = electronics_folder
			position = { x = 0 y = 16 }
		}
		
		ai_will_do = {
			factor = 1.75
			modifier = {
				has_war = yes
				factor = 3
			}
			modifier = {
				num_of_military_factories < 50
				factor = 1.5 # not a major
			}
			modifier = {
				factor = 3

				tag = GER
			}
			modifier = {
				factor = 3

				tag = SOV
			}
			modifier = {
				date < "1937.6.1"
				factor = 0
			}
		}
		
		categories = {
			electronics
			encryption_tech
		}
	}
	
	improved_encryption = {

		# encryption 2
		encryption = 1
		allow_branch = {
			NOT = { has_dlc = "La Resistance" }
		}		
		research_cost = 1
		start_year = 1940
		
		folder = {
			name = electronics_folder
			position = { x = 0 y = 20 }
		}
		
		ai_will_do = {
			factor = 1.75
			modifier = {
				has_war = yes
				factor = 3
			}
			modifier = {
				num_of_military_factories < 50
				factor = 1.5 # not a major
			}
			modifier = {
				factor = 3

				tag = GER
			}
			modifier = {
				factor = 3

				tag = SOV
			}
			modifier = {
				date < "1939.6.1"
				factor = 0
			}
		}
		
		categories = {
			electronics
			encryption_tech
		}
	}
	
	advanced_encryption = {

		# encryption 3
		encryption = 1
		allow_branch = {
			NOT = { has_dlc = "La Resistance" }
		}		
		research_cost = 1
		start_year = 1942
		
		folder = {
			name = electronics_folder
			position = { x = 0 y = 24 }
		}
		
		ai_will_do = {
			factor = 1.75
			modifier = {
				has_war = yes
				factor = 3
			}
			modifier = {
				num_of_military_factories < 50
				factor = 1.5 # not a major
			}
			modifier = {
				factor = 3

				tag = GER
			}
			modifier = {
				factor = 3

				tag = SOV
			}
			modifier = {
				date < "1941.6.1"
				factor = 0
			}
		}
		
		categories = {
			electronics
			encryption_tech
		}
	}
	
	basic_decryption = {

		# decryption 1
		decryption = 1
		allow_branch = {
			NOT = { has_dlc = "La Resistance" }
		}		
		research_cost = 1.5
		start_year = 1938
		
		folder = {
			name = electronics_folder
			position = { x = 4 y = 16 }
		}
		
		ai_will_do = {
			factor = 1.5
			modifier = {
				num_of_military_factories < 50
				factor = 1.5 # not a major
			}
			modifier = {
				factor = 3

				tag = GER
			}
			modifier = {
				factor = 3

				tag = SOV
			}
			modifier = {
				date < "1937.6.1"
				factor = 0
			}
		}
		
		categories = {
			electronics
			decryption_tech
		}
	}
	
	improved_decryption = {

		# decryption 2
		decryption = 1
		allow_branch = {
			NOT = { has_dlc = "La Resistance" }
		}		
		research_cost = 1.5
		start_year = 1940
		
		folder = {
			name = electronics_folder
			position = { x = 4 y = 20 }
		}
		
		ai_will_do = {
			factor = 1.5
			modifier = {
				num_of_military_factories < 50
				factor = 1.5 # not a major
			}
			modifier = {
				factor = 3

				tag = GER
			}
			modifier = {
				factor = 3

				tag = SOV
			}
			modifier = {
				date < "1939.6.1"
				factor = 0
			}
		}
		
		categories = {
			electronics
			decryption_tech
		}
	}
	
	advanced_decryption = {

		# decryption 3
		decryption = 1
		allow_branch = {
			NOT = { has_dlc = "La Resistance" }
		}		
		research_cost = 1.5
		start_year = 1942
		
		folder = {
			name = electronics_folder
			position = { x = 4 y = 24 }
		}
		
		ai_will_do = {
			factor = 1.5
			modifier = {
				num_of_military_factories < 50
				factor = 1.5 # not a major
			}
			modifier = {
				factor = 3

				tag = GER
			}
			modifier = {
				factor = 3

				tag = SOV
			}
			modifier = {
				date < "1941.6.1"
				factor = 0
			}
		}
		
		categories = {
			electronics
			decryption_tech
		}
	}

	basic_fire_control_system = {

		allow_branch = {
			has_dlc = "Man the Guns"
		}

		enable_equipment_modules = { 
			ship_fire_control_system_1
		}
		
		research_cost = 1
		#start_year = 1936
		
		folder = {
			name = electronics_folder
			position = { x = 0 y = 14 }
		}
		
		ai_will_do = {
			factor = 0.75
			modifier = {
				OR = {
					tag = ENG
					tag = USA
					tag = JAP
				}
				factor = 3
			}
			modifier = {
				OR = {
					can_research = improved_fire_control_system
					has_tech = improved_fire_control_system
				}
				factor = 0
			}
		}
		
		categories = {
			electronics
			computing_tech
			naval_equipment
		}
	}

	improved_fire_control_system = {

		enable_equipment_modules = { 
			ship_fire_control_system_2
		}
		
		research_cost = 1
		allow_branch = {
			has_dlc = "Man the Guns"
		}
		folder = {
			name = electronics_folder
			position = { x = 0 y = 18 }
		}
		
		ai_will_do = {
			factor = 0.75
			modifier = {
				OR = {
					tag = ENG
					tag = USA
					tag = JAP
				}
				factor = 3
			}
			modifier = {
				OR = {
					can_research = advanced_fire_control_system
					has_tech = advanced_fire_control_system
				}
				factor = 0
			}
		}
		
		categories = {
			electronics
			computing_tech
			naval_equipment
		}
	}

	advanced_fire_control_system = {

		enable_equipment_modules = { 
			ship_fire_control_system_3
		}
		allow_branch = {
			has_dlc = "Man the Guns"
		}
		
		research_cost = 1
		
		folder = {
			name = electronics_folder
			position = { x = 0 y = 22 }
		}
		
		ai_will_do = {
			factor = 0.75
			modifier = {
				OR = {
					tag = ENG
					tag = USA
					tag = JAP
				}
				factor = 3
			}
			
		}
		
		categories = {
			electronics
			computing_tech
			naval_equipment
		}
	}

	
	experimental_rockets = {

		allow_branch = {
            is_major = yes
        }

		enable_building = {
			building = rocket_site
			level = 2
		}
		
		path = {
			leads_to_tech = rocket_engines 
			research_cost_coeff = 1
		}
		research_cost = 1.5
		start_year = 1943
		
		folder = {
			name = electronics_folder
			position = { x = 0 y = 0 }
		}
	
		ai_will_do = {
			factor = 3
			modifier = {
				factor = 5
	            is_major = yes
	            OR = {
	            	has_idea = etgi_laws_leadership_structure_2
	            	has_idea = etgi_laws_leadership_structure_3
	            }
			}
		}
		
		categories = {
			rocketry
		}
	}
	
	rocket_engines = {

		show_equipment_icon = yes

		# can build v1s/rocket planes
		enable_equipments = {
			rocket_interceptor_equipment_1
			guided_missile_equipment_1
		}

		rocket_artillery = {
			soft_attack = 0.05
		}
		rocket_artillery_brigade = {
			soft_attack = 0.05
		}
		motorized_rocket_brigade = {
			soft_attack = 0.05
		}

		path = {
			leads_to_tech = improved_rocket_engines 
			research_cost_coeff = 1
		}
		path = {
			leads_to_tech = jet_engines
			research_cost_coeff = 1
		}
		research_cost = 2
		start_year = 1944
		
		folder = {
			name = electronics_folder
			position = { x = 0 y = 2 }
		}
			folder = {
			name = secret_weapons_folder
			position = { x = 10 y = 0 }
		}
		
		
		ai_will_do = {
			factor = 3
			modifier = {
				factor = 5
	            is_major = yes
	            OR = {
	            	has_idea = etgi_laws_leadership_structure_2
	            	has_idea = etgi_laws_leadership_structure_3
	            }
			}
		}
		
		categories = {
			rocketry
		}		
	}
	
	improved_rocket_engines = {

		show_equipment_icon = yes
		
		# can build v2s
		
		enable_equipments = {
			rocket_interceptor_equipment_2
			guided_missile_equipment_2
		}

		rocket_artillery = {
			soft_attack = 0.05
		}
		rocket_artillery_brigade = {
			soft_attack = 0.05
		}
		mot_rocket_artillery_brigade = {
			soft_attack = 0.05
		}
		motorized_rocket_brigade = {
			soft_attack = 0.05
		}

		path = {
			leads_to_tech = advanced_rocket_engines 
			research_cost_coeff = 1
		}
		
		research_cost = 1.5
		start_year = 1945
		
		folder = {
			name = electronics_folder
			position = { x = 0 y = 4 }
		}
		
		ai_will_do = {
			factor = 3
			modifier = {
				factor = 5
	            is_major = yes
	            OR = {
	            	has_idea = etgi_laws_leadership_structure_2
	            	has_idea = etgi_laws_leadership_structure_3
	            }
			}
		}
		
		categories = {
			rocketry
		}
	}
	
	advanced_rocket_engines = {

		show_equipment_icon = yes

		allow_branch = {
            is_major = yes
            OR = {
            	has_idea = etgi_laws_leadership_structure_2
            	has_idea = etgi_laws_leadership_structure_3
            }
        }

		# can build ICBMs?
		path = {
			leads_to_tech = rocketry60 
			research_cost_coeff = 1
		}
		path = {
			leads_to_tech = aam50
			research_cost_coeff = 1
		}		
		enable_equipments = {
			rocket_interceptor_equipment_3
			guided_missile_equipment_3
		}

		rocket_artillery = {
			soft_attack = 0.05
		}
		rocket_artillery_brigade = {
			soft_attack = 0.05
		}
		mot_rocket_artillery_brigade = {
			soft_attack = 0.05
		}
		motorized_rocket_brigade = {
			soft_attack = 0.05
		}

		research_cost = 1.5
		start_year = 1955	#OpO

		folder = {
			name = electronics_folder
			position = { x = 0 y = 8 }
		}
		
		ai_will_do = {
			factor = 100
		}
		
		categories = {
			rocketry
		}
	}
	
	rocketry60 = {
		
		research_cost = 1.5
		start_year = 1960
		path = {
			leads_to_tech = rocketry70 
			research_cost_coeff = 1
		}
		path = {
			leads_to_tech = aam60 
			research_cost_coeff = 1
		}		
		folder = {
			name = electronics_folder
			position = { x = 0 y = 12 }
		}
		
		ai_will_do = {
			factor = 100

			#DATE
			modifier = { factor = 0 date < 1959.6.1 }
		}
		
		categories = {
			rocketry
		}
	}
	
	rocketry70 = {
		
		research_cost = 1.5
		start_year = 1970
		
		folder = {
			name = electronics_folder
			position = { x = 0 y = 16 }
		}
		
		ai_will_do = {
			factor = 100

			#DATE
			modifier = { factor = 0 date < 1969.6.1 }
		}
		
		categories = {
			rocketry
		}
	}
	
	aam50 = {
		
		research_cost = 1.5
		start_year = 1950
		air_intercept_efficiency = 0.2
		air_superiority_efficiency = 0.2	
		dependencies = {
			ir_guide = 1
		}		
		folder = {
			name = electronics_folder
			position = { x = 2 y = 12 }
		}
		desc = "Allows the development of the 1955' fighter and interceptor jets."				
		ai_will_do = {
			factor = 1

			#DATE
			modifier = { factor = 0 date < 1949.6.1 }
		}
		
		categories = {
			rocketry
		}
	}
	
	aam60 = {
		
		research_cost = 1.5
		start_year = 1960
		air_intercept_efficiency = 0.3
		air_superiority_efficiency = 0.3
		dependencies = {
			radar60 = 1
		}		
		folder = {
			name = electronics_folder
			position = { x = 2 y = 16 }
		}
		desc = "Allows the development of the 1965' fighter and interceptor jets."				
		ai_will_do = {
			factor = 1

			#DATE
			modifier = { factor = 0 date < 1959.6.1 }
		}
		
		categories = {
			rocketry
		}
	}
	
	jet_engines = {
	
		folder = {
			name = electronics_folder
			position = { x = 2 y = 2 }
		}
		
		start_year = 1944
		research_cost = 2
		
		path = {	#OpO
			leads_to_tech = heli_engines 
			research_cost_coeff = 1
		}

		folder = {
			name = air_techs_folder
			position = { x = 2 y = 11 }
		}

		folder = {	#OpO
			name = air_bomber_techs_folder
			position = { x = 2 y = 11 }
		}
		
		desc = "JET_ENGINES_SPECIAL"

		on_research_complete = {
			custom_effect_tooltip = JET_ENGINES_RESEARCHED
		}
		
		ai_will_do = {
			factor = 1
		}
		
		categories = {
			rocketry
			jet_technology
		}
	}
	
	heli_engines = {
	
		folder = {
			name = electronics_folder
			position = { x = 2 y = 4 }
		}
		
		start_year = 1947
		research_cost = 2

		folder = {	#OpO
			name = armour_folder_folder
			position = { x = 12 y = 12 }
		}
		
		desc = "The development of a rotor system is essential in the introduction and mass use of helicopters for military operations."
		
		ai_will_do = {
			factor = 1
		}
		
		categories = {
			rocketry
			jet_technology
		}
	}
	
	atomic_research = {

		research_speed_factor = 0.04
		
		allow_branch = {
            is_major = yes
            OR = {
            	has_idea = etgi_laws_leadership_structure_2
            	has_idea = etgi_laws_leadership_structure_3
            }
        }

		path = {
			leads_to_tech = nuclear_reactor 
			research_cost_coeff = 1
		}
		
		start_year = 1944
		research_cost = 5
		
		folder = {
			name = electronics_folder
			position = { x = 0 y = 0 }
		}
		
		ai_will_do = {
			factor = 3
			
			modifier = {
				factor = 1.2
				date > "1941.1.1"
			}
			
			modifier = {
				factor = 1.2
				date > "1942.1.1"
			}
			
			modifier = {
				factor = 1.2
				date > "1943.1.1"
			}
			
			modifier = {
				factor = 50
				OR = {
					is_literally_america = yes
					is_literally_russia = yes
					is_literally_japan = yes
					is_literally_germany = yes
					is_literally_china = yes
				}
			}

			modifier = {
				date < "1937.1.1"
				factor = 0
			}
		}
		
		categories = {
			nuclear
		}
		

	}
	
	nuclear_reactor = {

		# can build reactors
		
		start_year = 1948
		research_cost = 5
		
		folder = {
			name = electronics_folder
			position = { x = 0 y = 2 }
		}

		path = {
			leads_to_tech = nukes 
			research_cost_coeff = 1
		}
		
		ai_will_do = {
			factor = 5
			modifier = {
				factor = 50
				OR = {
					is_literally_america = yes
					is_literally_russia = yes
					is_literally_japan = yes
					is_literally_germany = yes
					is_literally_china = yes
				}
			}
			modifier = {
				date < "1941.6.1"
				factor = 0
			}
		}
		
		categories = {
			nuclear
		}
		
		enable_building = {
			building = nuclear_reactor
			level = 1
		}
	}

	nukes = {
	
		start_year = 1952
		research_cost = 5
		
		folder = {
			name = electronics_folder
			position = { x = 0 y = 6 }
		}
		
		path = {
			leads_to_tech = naval_reactor 
			research_cost_coeff = 1
		}
		
		ai_will_do = {
			factor = 10
			modifier = {
				factor = 50
				OR = {
					is_literally_america = yes
					is_literally_russia = yes
					is_literally_japan = yes
					is_literally_germany = yes
					is_literally_china = yes
				}
			}
		}
		
		nuclear_production = 1
		
		categories = {
			nuclear
		}
	}
	
	naval_reactor = {
	
		start_year = 1955
		research_cost = 5
		
		allow_branch = {
            has_idea = etgi_laws_leadership_structure_3
        }

		folder = {
			name = electronics_folder
			position = { x = 0 y = 10 }
		}
		path = {
			leads_to_tech = naval_reactor_2 
			research_cost_coeff = 1
		}
		enable_equipment_modules = { 
			cruiser_nuclear_reactor_module
		}
		
		enable_equipment_modules = { 
			heavy_nuclear_reactor_module
		}
		
		enable_equipment_modules = { 
			carrier_nuclear_reactor_module
		}
		
		enable_equipment_modules = { 
			sub_nuclear_reactor_module
		}
		
		ai_will_do = {
			factor = 10
			modifier = {
				factor = 50
				OR = {
					is_literally_america = yes
					is_literally_russia = yes
					is_literally_japan = yes
					is_literally_germany = yes
					is_literally_china = yes
				}
			}
		}
		
		nuclear_production = 1
		
		categories = {
			nuclear
		}
	}
	naval_reactor_2 = {
	
		start_year = 1970
		research_cost = 5
		
		folder = {
			name = electronics_folder
			position = { x = 0 y = 14 }
		}

		enable_equipment_modules = { 
			cruiser_nuclear_reactor_module2
		}
		
		enable_equipment_modules = { 
			heavy_nuclear_reactor_module2
		}
		
		enable_equipment_modules = { 
			carrier_nuclear_reactor_module2
		}
		
		enable_equipment_modules = { 
			sub_nuclear_reactor_module2
		}
		
		ai_will_do = {
			factor = 10
			modifier = {
				factor = 50
				OR = {
					is_literally_america = yes
					is_literally_russia = yes
					is_literally_japan = yes
					is_literally_germany = yes
					is_literally_china = yes
				}
			}
		}
		
		nuclear_production = 1
		
		categories = {
			nuclear
		}
	}
#### NEW TECHS BELOW THIS LINE	#OpO 

	basic_vacuum_computer = {

		#small boost to research speed
		research_speed_factor = 0.06
		
		path = {
			leads_to_tech = improved_vacuum_computer 
			research_cost_coeff = 1
		}
		path = {
			leads_to_tech = vacuum_encryption 
			research_cost_coeff = 1
		}
		path = {
			leads_to_tech = vacuum_decryption 
			research_cost_coeff = 1
		}
		
		research_cost = 2.5
		start_year = 1947
		
		folder = {
			name = electronics_folder
			position = { x = 2 y = 26 }
		}
		
		ai_will_do = {
			factor = 100

			#DATE
			modifier = { factor = 0 date < 1946.6.1 }
		}
		
		categories = {
			electronics
			encryption_tech
			decryption_tech
			computing_tech
		}
	}
	
	improved_vacuum_computer = {

		#small boost to research speed
		research_speed_factor = 0.06
		
		path = {
			leads_to_tech = basic_transistor_computer 
			research_cost_coeff = 1
		}
		path = {
			leads_to_tech = vacuum2_encryption 
			research_cost_coeff = 1
		}
		path = {
			leads_to_tech = vacuum2_decryption 
			research_cost_coeff = 1
		}
		
		research_cost = 2.5
		start_year = 1951
		
		folder = {
			name = electronics_folder
			position = { x = 2 y = 28 }
		}
		
		ai_will_do = {
			factor = 100

			#DATE
			modifier = { factor = 0 date < 1950.6.1 }
		}
		
		categories = {
			electronics
			encryption_tech
			decryption_tech
			computing_tech
		}
	}
	
	basic_transistor_computer = {

		#small boost to research speed
		research_speed_factor = 0.06	
		path = {
			leads_to_tech = transistor_encryption 
			research_cost_coeff = 1
		}
		path = {
			leads_to_tech = transistor_decryption 
			research_cost_coeff = 1
		}
		path = {
			leads_to_tech = ir_guide 
			research_cost_coeff = 1
		}
		path = {
			leads_to_tech = comp60
			research_cost_coeff = 1
		}
		
		research_cost = 2.5
		start_year = 1955
		
		folder = {
			name = electronics_folder
			position = { x = 2 y = 30 }
		}
		
		ai_will_do = {
			factor = 100

			#DATE
			modifier = { factor = 0 date < 1954.6.1 }
		}
		
		categories = {
			electronics
			encryption_tech
			decryption_tech
			computing_tech
		}
	}
	comp60 = {
	
		# small boost to research speed
		research_speed_factor = 0.08
		path = {
			leads_to_tech = comp65 
			research_cost_coeff = 1
		}		
		research_cost = 2.5
		start_year = 1960
		
		folder = {
			name = electronics_folder
			position = { x = 2 y = 34 }
		}
		
		ai_will_do = {
			factor = 3
			
			modifier = {
				factor = 3
				date > "1960.1.6"
			}
			modifier = {
				date < "1958.6.1"
				factor = 0
			}
		}
		
		categories = {
			electronics
			encryption_tech
			decryption_tech
			computing_tech
		}
	}
	comp65 = {
	
		# small boost to research speed
		research_speed_factor = 0.08
		path = {
			leads_to_tech = comp70 
			research_cost_coeff = 1
		}	
		path = {
			leads_to_tech = tv_guide
			research_cost_coeff = 1
		}		
		research_cost = 2.5
		start_year = 1965
		
		folder = {
			name = electronics_folder
			position = { x = 2 y = 36 }
		}
		
		ai_will_do = {
			factor = 3
			
			modifier = {
				factor = 3
				date > "1965.1.6"
			}
			modifier = {
				date < "1963.6.1"
				factor = 0
			}
		}
		
		categories = {
			electronics
			encryption_tech
			decryption_tech
			computing_tech
		}
	}
	comp70 = {
	
		# small boost to research speed
		research_speed_factor = 0.08
		path = {
			leads_to_tech = comp80 
			research_cost_coeff = 1
		}	
		path = {
			leads_to_tech = laser_guide
			research_cost_coeff = 1
		}		
		research_cost = 2.5
		start_year = 1970
		
		folder = {
			name = electronics_folder
			position = { x = 2 y = 38 }
		}
		
		ai_will_do = {
			factor = 3
			
			modifier = {
				factor = 3
				date > "1970.1.6"
			}
			modifier = {
				date < "1968.6.1"
				factor = 0
			}
		}
		
		categories = {
			electronics
			encryption_tech
			decryption_tech
			computing_tech
		}
	}
	comp80 = {
	
		# small boost to research speed
		research_speed_factor = 0.08
		path = {
			leads_to_tech = comp90 
			research_cost_coeff = 1
		}		
		research_cost = 2.5
		start_year = 1980
		
		folder = {
			name = electronics_folder
			position = { x = 2 y = 42 }
		}
		
		ai_will_do = {
			factor = 3
			
			modifier = {
				factor = 3
				date > "1980.1.6"
			}
			modifier = {
				date < "1978.6.1"
				factor = 0
			}
		}
		
		categories = {
			electronics
			encryption_tech
			decryption_tech
			computing_tech
		}
	}
	comp90 = {
	
		# small boost to research speed
		research_speed_factor = 0.08
		
		research_cost = 2.5
		start_year = 1990
		
		folder = {
			name = electronics_folder
			position = { x = 2 y = 46 }
		}
		
		ai_will_do = {
			factor = 3
			
			modifier = {
				factor = 3
				date > "1990.1.6"
			}
			modifier = {
				date < "1988.6.1"
				factor = 0
			}
		}
		
		categories = {
			electronics
			encryption_tech
			decryption_tech
			computing_tech
		}
	}
	ir_guide = {
		
		research_cost = 1.5
		start_year = 1955
		
		folder = {
			name = electronics_folder
			position = { x = 4 y = 32 }
		}
		desc = "Allows the develpment of the early Air to Air missiles."		
		ai_will_do = {
			factor = 1

			#DATE
			modifier = { factor = 0 date < 1954.6.1 }
		}
		
		categories = {
			electronics
			decryption_tech
		}
	}
	tv_guide = {
		air_cas_efficiency = 0.20		
		research_cost = 1.5
		start_year = 1965
		desc = "Allows the development of the 1965' CAS and Strike jets."		
		folder = {
			name = electronics_folder
			position = { x = 4 y = 37 }
		}
		
		ai_will_do = {
			factor = 1

			#DATE
			modifier = { factor = 0 date < 1964.6.1 }
		}
		
		categories = {
			electronics
			decryption_tech
		}
	}
	laser_guide = {	
		research_cost = 1.5
		start_year = 1970
		path = {
			leads_to_tech = laser_guide_mun
			research_cost_coeff = 1
		}		
		folder = {
			name = electronics_folder
			position = { x = 4 y = 40 }
		}
		
		ai_will_do = {
			factor = 1

			#DATE
			modifier = { factor = 0 date < 1969.6.1 }
		}
		
		categories = {
			electronics
			decryption_tech
		}
	}
	laser_guide_mun = {
		air_cas_efficiency = 0.30			
		research_cost = 1.5
		start_year = 1970
		desc = "Allows the development of the 1970' CAS,Strike and fighter jets."				
		folder = {
			name = electronics_folder
			position = { x = 6 y = 40 }
		}
		
		ai_will_do = {
			factor = 1

			#DATE
			modifier = { factor = 0 date < 1969.6.1 }
		}
		
		categories = {
			electronics
			decryption_tech
		}
	}
	vacuum_encryption = {

		#encryption 3
		encryption = 1
		allow_branch = {
			NOT = { has_dlc = "La Resistance" }
		}		
		research_cost = 1
		start_year = 1947
		
		folder = {
			name = electronics_folder
			position = { x = 0 y = 26 }
		}
		
		ai_will_do = {
			factor = 100

			#DATE
			modifier = { factor = 0 date < 1946.6.1 }
		}
		
		categories = {
			electronics
			encryption_tech
		}
	}
	
	vacuum2_encryption = {

		#encryption 3
		encryption = 1
		allow_branch = {
			NOT = { has_dlc = "La Resistance" }
		}		
		research_cost = 1
		start_year = 1951
		
		folder = {
			name = electronics_folder
			position = { x = 0 y = 28 }
		}
		
		ai_will_do = {
			factor = 100

			#DATE
			modifier = { factor = 0 date < 1950.6.1 }
		}
		
		categories = {
			electronics
			encryption_tech
		}
	}
	
	transistor_encryption = {

		#encryption 3
		encryption = 1
		allow_branch = {
			NOT = { has_dlc = "La Resistance" }
		}		
		research_cost = 1
		start_year = 1955
		
		folder = {
			name = electronics_folder
			position = { x = 0 y = 30 }
		}
		
		ai_will_do = {
			factor = 100

			#DATE
			modifier = { factor = 0 date < 1954.6.1 }
		}
		
		categories = {
			electronics
			encryption_tech
		}
	}
	
	vacuum_decryption = {

		#decryption 3
		decryption = 1
		allow_branch = {
			NOT = { has_dlc = "La Resistance" }
		}		
		research_cost = 1.5
		start_year = 1947
		
		folder = {
			name = electronics_folder
			position = { x = 4 y = 26 }
		}
		
		ai_will_do = {
			factor = 1

			#DATE
			modifier = { factor = 0 date < 1946.6.1 }
		}
		
		categories = {
			electronics
			decryption_tech
		}
	}
	
	vacuum2_decryption = {

		#decryption 3
		decryption = 1
		allow_branch = {
			NOT = { has_dlc = "La Resistance" }
		}		
		research_cost = 1.5
		start_year = 1951
		
		folder = {
			name = electronics_folder
			position = { x = 4 y = 28 }
		}
		
		ai_will_do = {
			factor = 1

			#DATE
			modifier = { factor = 0 date < 1950.6.1 }
		}
		
		categories = {
			electronics
			decryption_tech
		}
	}
	
	transistor_decryption = {

		#decryption 3
		decryption = 1
		allow_branch = {
			NOT = { has_dlc = "La Resistance" }
		}		
		research_cost = 1.5
		start_year = 1955
		
		folder = {
			name = electronics_folder
			position = { x = 4 y = 30 }
		}
		
		ai_will_do = {
			factor = 1

			#DATE
			modifier = { factor = 0 date < 1954.6.1 }
		}
		
		categories = {
			electronics
			decryption_tech
		}
	}
}
