add_namespace = freikorps

#Spartakist Revolution starts
country_event = {
	id = freikorps.1
	title = freikorps.1.t
	desc = freikorps.1.d
	picture = GFX_report_event_german_reichstag_gathering
	fire_only_once = yes
	trigger = {
		tag = GER
		date < 1933.1.1
		has_global_flag = weimar_republic
		has_country_flag = great_war_loser
		has_global_flag = wait_need_to_check_triggers_from_ww1_germany
	}
	mean_time_to_happen = { days = 50 }
	option = {
		name = freikorps.1.a
		ai_chance = { factor = 100 }
		country_event = { id = freikorps.2 days = 3 }
	}
}

#Spartakist Revolution put down
country_event = {
	id = freikorps.2
	title = freikorps.2.t
	desc = freikorps.2.d
	picture = GFX_report_event_german_reichstag_gathering
	is_triggered_only = yes
	fire_only_once = yes
	#The Spartakists are captured and killed
	option = {
		name = freikorps.2.a
		ai_chance = { factor = 10 }
	}
	#The Spartakists escape to Bavaria Soviet Republic
	option = {
		name = freikorps.2.b
		ai_chance = {
			factor = 10
			modifier = {
				is_historical_focus_on = yes
				factor = 0
			}
		}
		hidden_effect = { country_event = { id = freikorps.3 days = 65 } }
	}
}
#Germany Collapses to Spartakists
country_event = {
	id = freikorps.3
	title = freikorps.3.t
	desc = freikorps.3.d
	picture = GFX_report_event_german_reichstag_gathering
	is_triggered_only = yes
	fire_only_once = yes
	immediate = {
		hidden_effect = {
			release = HAN
			release = BAV
			release = SAX
			release = WUR
			release = SHL
			BAV = {
				add_popularity = {
    				ideology = communism
    				popularity = 0.50
				}
				set_politics = {
					ruling_party = communism
				}
			}
			WUR = {
				add_popularity = {
					ideology = democratic
					popularity = 0.50
				}
				set_politics = {
					ruling_party = democratic
				}
			}
			SHL = {
				add_popularity = {
					ideology = fascism
					popularity = 0.50
				}
				set_politics = {
					ruling_party = fascism
				}
				add_ideas = SHL_kiel_canal_profits
			}
			transfer_units_fraction= {
			    target = BAV
			    size = 0.3
			    stockpile_ratio = 0.4
			    army_ratio = 0.3
			    navy_ratio = 0.0
			    air_ratio = 0.1
			}
			transfer_units_fraction= {
			    target = WUR
			    size = 0.1
			    stockpile_ratio = 0.1
			    army_ratio = 0.1
			    navy_ratio = 0.0
			    air_ratio = 0.1
			}
			transfer_units_fraction= {
			    target = HAN
			    size = 0.2
			    stockpile_ratio = 0.5
			    army_ratio = 0.4
			    navy_ratio = 0.4
			    air_ratio = 0.3
			}
			country_event = { id = freikorps.4 days = 1 }
			country_event = { id = freikorps.8 days = 365 }
			HAN = { country_event = { id = freikorps.6 hours = 15 } }
			news_event = { id = freikorps.5 hours = 2 }
		}
	}
	#stay as Germany
	option = {
		name = freikorps.3.a
		ai_chance = {
			factor = 100
		}
	}
	#play as Hanover
	option = {
		name = freikorps.3.b
		ai_chance = {
			factor = 0
		}
		HAN = { change_tag_from = ROOT }
	}
	#play as bavaria
	option = {
		name = freikorps.3.c
		ai_chance = {
			factor = 0
		}
		BAV = { change_tag_from = ROOT }
	}
}
#Battle for Frankfurt
country_event = {
	id = freikorps.4
	title = freikorps.4.t
	desc = freikorps.4.d
	picture = GFX_report_event_german_reichstag_gathering
	is_triggered_only = yes
	fire_only_once = yes
	#Hanoverians win
	option = {
		name = freikorps.4.a
		ai_chance = { factor = 50 }
		HAN = { transfer_state = 55 }
		hidden_effect = {
			BAV = {
				create_wargoal = {
    				type = annex_everything
    				target = WUR
				}
			}
		}
	}
	#Wurretemburgians win
	option = {
		name = freikorps.4.b
		ai_chance = { factor = 10 }
		WUR = { transfer_state = 55 }
		hidden_effect = {
			BAV = {
				create_wargoal = {
    				type = annex_everything
    				target = WUR
				}
			}
		}
	}
	#Spartakists win
	option = {
		name = freikorps.4.c
		ai_chance = { factor = 40 }
		BAV = { transfer_state = 55 }
	}
}
#German collapse news event
news_event = {
	id = freikorps.5
	title = freikorps.5.t
	desc = freikorps.5.d
	picture = GFX_news_event_ger_civil_war
	is_triggered_only = yes
	major = yes
	option = {
		name = freikorps.5.a
		ai_chance = { factor = 100 }
	}
}
#King of Hannover assassiinated
country_event = {
	id = freikorps.6
	title = freikorps.6.t
	desc = freikorps.6.d
	picture = GFX_report_event_german_reichstag_gathering
	is_triggered_only = yes
	fire_only_once = yes
	option = {
		name = freikorps.6.a
		hidden_effect = { news_event = { id = freikorps.7 hours = 1 } }
		kill_country_leader = yes
		create_country_leader = {
			name = "Queen Victoria II"
			desc = "POLITICS_VICTORIA_DESC"
			picture = GFX_portrait_ger_victoria_louise
			expire = "1935.1.1"
			ideology = absolutism
			female = yes
			traits = {
				kaiserin_of_the_people
			}
		}
	}
}
#King of Hannover assassinated- News event
news_event = {
	id = freikorps.7
	title = freikorps.7.t
	desc = freikorps.7.d
	picture = GFX_news_event_ger_civil_war
	is_triggered_only = yes
	major = yes
	option = {
		name = freikorps.7.a
		ai_chance = { factor = 100 }
	}
}
#Reunification wars
country_event = {
	id = freikorps.8
	hidden = yes
	is_triggered_only = yes
	fire_only_once = yes
	immediate = {
		news_event = { id = freikorps.9 days = 1 }
		BAV = {
			create_wargoal = {
    			type = annex_everything
    			target = WUR
			}
			create_wargoal = {
    			type = annex_everything
    			target = HAN
			}
			create_wargoal = {
    			type = annex_everything
    			target = GER
			}
		}
		HAN = {
			create_wargoal = {
    			type = annex_everything
    			target = WUR
			}
			create_wargoal = {
    			type = annex_everything
    			target = BAV
			}
			create_wargoal = {
    			type = annex_everything
    			target = GER
			}
		}
		GER = {
			create_wargoal = {
    			type = annex_everything
    			target = HAN
			}
			create_wargoal = {
    			type = annex_everything
    			target = BAV
			}
		}
	}
}
#reunification wars news event
news_event = {
	id = freikorps.9
	title = freikorps.9.t
	desc = freikorps.9.d
	picture = GFX_news_event_ger_civil_war
	is_triggered_only = yes
	major = yes
	option = {
		name = freikorps.9.a
		ai_chance = { factor = 100 }
	}
}