﻿add_namespace = ww1_albania

#Vidi I expelled from Albania
country_event = {
	title = ww1_albania.1.t
	desc = ww1_albania.1.d
	id = ww1_albania.1
	
	fire_only_once = yes
	mean_time_to_happen = { days = 1 }
	
	trigger = {
		original_tag = ALB
		country_exists = ALB
		NOT = { has_country_flag = esat_toptani_ruler }
		has_government = monarchism		
		GER = { has_war = yes }
	}
	
	option = {
		name = ww1_albania.1.a
		set_country_flag = esat_toptani_ruler
		create_country_leader = {
			name = "Esat Toptani"
			picture = "gfx/leaders/ALB/ALB_esat_toptani.dds" 
			expire = "1935.1.1" 
			ideology = despotism  
			traits={ } 
		}
		hidden_effect = {
			set_politics = {
				ruling_party = neutrality
				elections_allowed = no
			}
			set_popularities = {
				democratic = 0
				monarchism = 20
				neutrality = 80
				communism = 0
			}
		}
		ai_chance = { factor = 100 }
	}
}

#Albanian Revolt in 1910
country_event = {
	title = ww1_albania.2.t
	desc = ww1_albania.2.d
	id = ww1_albania.2
	
	fire_only_once = yes
	mean_time_to_happen = { days = 10 }
	
	trigger = {
		tag = TUR
		controls_state = 44
		NOT = { country_exists = ALB }
		date > 1910.6.5
	}
	
	option={
		name = ww1_albania.2.a
		add_stability = -0.05
		add_war_support = 0.05
		ai_chance = { factor = 100 }
	}
	
	option = {
		name = ww1_albania.2.b
		ALB = {
			transfer_state = 44
			transfer_state = 942
		}
		942 = {
		    add_extra_state_shared_building_slots = 1
			add_building_construction = {
				type = arms_factory
				level = 1
				instant_build = yes
			}
		}
		44 = {
		    add_extra_state_shared_building_slots = 1
			add_building_construction = {
				type = arms_factory
				level = 1
				instant_build = yes
			}
		}
		puppet = ALB
		ai_chance = { factor = 0 }
	}
	option = {
		name = ww1_albania.2.c
		ALB = {
			transfer_state = 44
			transfer_state = 942
		}
		44 = {
		    add_extra_state_shared_building_slots = 1
			add_building_construction = {
				type = arms_factory
				level = 1
				instant_build = yes
			}
		}
		942 = {
		    add_extra_state_shared_building_slots = 1
			add_building_construction = {
				type = arms_factory
				level = 1
				instant_build = yes
			}
		}
		add_stability = 0.05
		ai_chance = { factor = 0 }
	}
}

#Albania released by Turkey
country_event = {
	title = ww1_albania.3.t
	desc = ww1_albania.3.d
	id = ww1_albania.3
	
	fire_only_once = yes
	mean_time_to_happen = { days = 1 }
	
	trigger = {
		tag = TUR
		country_exists = ALB
		ALB = { NOT = { has_country_flag = esat_toptani_ruler } }
		NOT = { has_global_flag = kis_firstbalkan_war }
	}
	
	immediate = {
		hidden_effect = {
			ALB = {
				set_country_flag = esat_toptani_ruler
				create_country_leader = {
					name = "Esat Toptani"
					picture = "gfx/leaders/ALB/ALB_esat_toptani.dds" 
					expire = "1935.1.1" 
					ideology = despotism  
					traits={ } 
				}
			}
		}
	}
	
	option={
		name = ww1_albania.3.a
		ai_chance = { factor = 100 }
	}
}

#Albanian Revolt in 1911
country_event = {
	title = ww1_albania.2.t
	desc = ww1_albania.2.d
	id = ww1_albania.4
	
	fire_only_once = yes
	mean_time_to_happen = { days = 10 }
	
	trigger = {
		tag = TUR
		controls_state = 44
		ALB = { exists = no }
		date > 1911.3.24
	}
	
	option = {
		name = ww1_albania.2.a
		add_stability = -0.05
		ai_chance = { factor = 100 }
	}
	
	option = {
		name = ww1_albania.2.b
		ALB = {
			transfer_state = 44
			transfer_state = 942
		}
		add_stability = 0.05
		ai_chance = { factor = 0 }
	}
}

#Greece proclaimed the annexation of Northern Epirus
country_event = {
	title = ww1_albania.5.t
	desc = ww1_albania.5.d
	id = ww1_albania.5
	
	fire_only_once = yes
	is_triggered_only = yes
	
	option={
		name = ww1_albania.5.a
		GRE = {
			add_opinion_modifier = {
				target = ALB
				modifier = medium_decrease
			}
			transfer_state = 805
		}
		ai_chance = { factor = 1 }
	}
}

#Albanian Revolt in 1912
country_event = {
	title = ww1_albania.2.t
	desc = ww1_albania.6.d
	id = ww1_albania.6
	
	fire_only_once = yes
	mean_time_to_happen = { days = 10 }
	
	trigger = {
		tag = TUR
		controls_state = 44
		ALB = { exists = yes }
		date > 1912.1.10
	}
	
	option = {
		name = ww1_albania.2.a
		add_stability = -0.05
		ai_chance = { factor = 100 }
	}
	option = {
		name = ww1_albania.2.b
		ALB = {
			transfer_state = 44
			transfer_state = 942
		}
		add_stability = 0.05
		ai_chance = { factor = 0 }
	}
}

#Albanian War for Independence
country_event = {
	title = ww1_albania.7.t
	desc = ww1_albania.7.d
	id = ww1_albania.7
	
	fire_only_once = yes
	mean_time_to_happen = { days = 10 }
	
	trigger = {
		tag = TUR
		TUR = { has_war = no }
		controls_state = 44
		NOT = { country_exists = ALB }
		date > 1913.1.10
	}
	
	option={
		name = ww1_albania.2.a
		ALB = {
			set_politics = {
				ruling_party = neutrality
				elections_allowed = no
			}
			set_popularities = {
				democratic = 0
				monarchism = 20
				neutrality = 80
				communism = 0
			}
			transfer_state = 44
			transfer_state = 942
			hidden_effect = {
				create_country_leader = {
					name = "Esat Toptani"
					picture = "gfx/leaders/ALB/ALB_esat_toptani.dds" 
					expire = "1935.1.1" 
					ideology = despotism  
					traits={ } 
				}
				load_oob = ALB_1912
			}
		}
		declare_war_on = {
			target = ALB
			type = annex_everything
		}
		ai_chance = { factor = 1 }
	}
	
	option = {
		name = ww1_albania.2.b
		ALB = {
			transfer_state = 44
			transfer_state = 942
		}
		add_stability = 0.1
		ai_chance = { factor = 100 }
	}
}

# Military access to Serbia
country_event = {
	title = ww1_albania.8.t
	desc = ww1_albania.8.d
	id = ww1_albania.8
	
	fire_only_once = yes
	trigger = {
		tag = ALB
		is_puppet = no
		has_war = no
		SER = { has_war_with = AUS }
	}
	option = {
		name = ww1_albania.8.a
		SER = {
			diplomatic_relation = {
				country = ALB
				relation = military_access
				active = yes
			}
		}
		set_country_flag = military_access_to_serbia
		ai_chance = { factor = 1 }
	}
	option = {
		name = ww1_albania.8.b
		
		ai_chance = { factor = 0 }
	}
}

# Military access to Serbia
country_event = {
	title = ww1_albania.9.t
	desc = ww1_albania.9.d
	id = ww1_albania.9
	
	fire_only_once = yes
	trigger = {
		tag = AUS
		ALB = { has_country_flag = military_access_to_serbia }
		SER = { has_war_with = AUS has_capitulated = yes }
	}
	mean_time_to_happen = { days = 7 }
	option = {
		name = ww1_albania.9.a
		create_wargoal = {
			type = puppet_wargoal_focus
			target = ALB
		}
		ai_chance = { factor = 1 }
	}
	option = {
		name = ww1_albania.9.b
		
		ai_chance = { factor = 0 }
	}
}
