﻿capital = 274

add_ideas = {
	etgi_laws_leadership_structure_d
}

# Starting tech
set_technology = {
	infantry_weapons = 1
	mass_assault = 1
}

set_popularities = {
	democratic = 0
	fascism = 0
	communism = 0
	neutrality = 100
}

set_politics = {
	ruling_party = neutrality
	last_election = "1936.1.1"
	election_frequency = 48
	elections_allowed = yes
}

create_country_leader = {
    name = "Sir Alan Burns"
    desc = ""
    picture = "gfx/leaders/ENG/GHA_Cuthbert.dds"
    expire = "1965.1.1"
    ideology = centrism
    traits = {
        #
    }
}