﻿##### Division Templates #####

division_template = {
	name = "National Guard Division"  	# Standard formation for NG divisions through late 1940

	regiments = {						
		infantry = { x = 0 y = 0 }
		infantry = { x = 0 y = 1 }
		infantry = { x = 0 y = 2 }
		infantry = { x = 1 y = 0 }
		infantry = { x = 1 y = 1 }
		infantry = { x = 1 y = 2 }
		infantry = { x = 2 y = 0 }
		infantry = { x = 2 y = 1 }
		infantry = { x = 2 y = 2 }
		infantry = { x = 3 y = 0 }
		infantry = { x = 3 y = 1 }
		infantry = { x = 3 y = 2 }
	}
	support = {
		engineer = { x = 0 y = 0 }
		recon = { x = 0 y = 1 }
	}
}



###### OOB ######
units = {
	
	### Army of Tennessee
	division= {			
		name = "Louisiana Division"		
		location = 1758
		division_template = "National Guard Division"
		start_experience_factor = 0.2
		start_equipment_factor = 0.9

	}		
	division= {			
		name = "Tennessee Division"		
		location = 1758
		division_template = "National Guard Division"
		start_experience_factor = 0.2
		start_equipment_factor = 0.9

	}		
	division= {			
		name = "Alabama Division"		
		location = 1758
		division_template = "National Guard Division"
		start_experience_factor = 0.2
		start_equipment_factor = 0.9

	}	
	division= {			
		name = "Arkansas Division"		
		location = 1758
		division_template = "National Guard Division"
		start_experience_factor = 0.2
		start_equipment_factor = 0.9

	}
	division= {			
		name = "Mississippi Division"		
		location = 1758
		division_template = "National Guard Division"
		start_experience_factor = 0.2
		start_equipment_factor = 0.9

	}
	division= {			
		name = "Oklahoma Division"		
		location = 1758
		division_template = "National Guard Division"
		start_experience_factor = 0.2
		start_equipment_factor = 0.9

	}
	division= {			
		name = "Georgia Division"		
		location = 1758
		division_template = "National Guard Division"
		start_experience_factor = 0.2
		start_equipment_factor = 0.9

	}
	division= {			
		name = "Florida Division"		
		location = 1758
		division_template = "National Guard Division"
		start_experience_factor = 0.2
		start_equipment_factor = 0.9

	}
}	
