﻿division_template = {
	name = "Armored-Division"

	regiments = {
		heavy_armor = { x = 0 y = 0 }
		heavy_armor = { x = 0 y = 1 }
        heavy_armor = { x = 0 y = 2 }
        motorized = { x = 1 y = 0 }
		motorized = { x = 1 y = 1 }
		motorized = { x = 1 y = 2 }
	}
}
